autonomy_state = {
	id = autonomy_occupied
	
	default = yes
	is_puppet = yes
	
	min_freedom_level = 0.25
	
	rule = {
		can_not_declare_war = yes
		can_decline_call_to_war = yes
	}
	
	modifier = {
		autonomy_manpower_share = 0
		can_master_build_for_us = 0
		extra_trade_to_overlord_factor = 0.5
		overlord_trade_cost_factor = -0.5
		
		research_sharing_per_country_bonus_factor = 0
	}
	
	ai_subject_wants_higher = {
		factor = 1.0
	}
	
	ai_overlord_wants_lower = {
		factor = 1.0
	}

	ai_overlord_wants_garrison = {
		always = yes
	}

	allowed = {
		is_subject_of = GER
		tag = DEN
	}

	can_take_level = {
		always = no
	}

	can_lose_level = {
		always = no
	}
}