autonomy_state = {
	id = autonomy_puppet
	
	default = yes
	is_puppet = yes
	
	min_freedom_level = 0.25
	
	rule = {
		can_not_declare_war = yes
		can_decline_call_to_war = no
	}
	
	modifier = {
		autonomy_manpower_share = 0.9
		can_master_build_for_us = 1
		extra_trade_to_overlord_factor = 1.0
		overlord_trade_cost_factor = -0.9
		
		research_sharing_per_country_bonus_factor = -0.5
	}
	
	ai_subject_wants_higher = {
		factor = 1.0
	}
	
	ai_overlord_wants_lower = {
		factor = 1.0
	}

	ai_overlord_wants_garrison = {
		always = no
	}

	allowed = {
		NOT = {
			AND = {
				is_subject_of = GER
				has_government = fascism
			}
			AND = {
				OR = {
					has_government = communism
					has_government = authoritarian_socialism
				}
				is_subject_of = SOV
			}
		}
	}

	can_take_level = {
		always = no
	}

	can_lose_level = {
		always = no
	}
}