name="Calm Before the Storm"
tags={
	"Events"
	"Ideologies"
	"Fixes"
	"National Focuses"
}
replace_path="common/ideas"
replace_path="history/countries"
replace_path="history/units"
replace_path="history/states"
replace_path="events"
replace_path="common/units/names_divisions"
replace_path="common/decisions"
replace_path="common/on_actions"
replace_path="common/ai_focuses"
replace_path="common/scripted_triggers"
replace_path="common/countries"
replace_path="common/country_tags"
replace_path="common/scripted_effects"
replace_path="common/scripted_localisation"
replace_path="common/national_focus"
replace_path="common/ai_equipment"
replace_path="map/strategicregions"
replace_path="gfx/loadingscreens"
replace_path="gfx/interface/ideologies"
picture="thumbnail.png"
supported_version="1.10.3"
path="mod/Calm_before_the_Storm"
remote_file_id="2198242295"
