strategic_region={
	id=123
	name="STRATEGICREGION_123"
	provinces={
		1952 1965 2008 2011 2051 2083 4887 4956 5015 5021 5052 5066 7913 8032 8079 8089 10172 10730 10732 10832 12721 12746 12755 12810 12873 13088 13089 1892 1904 7964 8119 12461 12859 1945 4946 7921 8003 8057 10853 10871 10895 12804 2037 4898 7935 8097 10809 10830 10916 12745 12827 12850 12897 2060 2104 7973 10738 10746 10769 10800 12811 12835 2069 4908 4977 5071 8012 8033 10765 10848 12833 12736
	}
	weather={
		period={
			between={ 0.0 30.0 }
			temperature={ 14.0 18.0 }
			temperature_day_night={ 15.0 -15.0 }
			no_phenomenon=0.9
			rain_light=0.05
			rain_heavy=0.05
			snow=0
			blizzard=0
			arctic_water=0.000
			mud=1
			sandstorm=0
			min_snow_level=0			
		}
		period={
			between={ 0.1 27.1 }
			temperature={ 15.0 19.0 }
			temperature_day_night={ 14.0 -14.0 }
			no_phenomenon=0.9
			rain_light=0.05
			rain_heavy=0.05
			snow=0
			blizzard=0
			arctic_water=0.000
			mud=1
			sandstorm=0
			min_snow_level=0			
		}
		period={
			between={ 0.2 30.2 }
			temperature={ 19.0 21.0 }
			temperature_day_night={ 13.0 -13.0 }
			no_phenomenon=0.8
			rain_light=0.1
			rain_heavy=0.1
			snow=0
			blizzard=0
			arctic_water=0.000
			mud=1
			sandstorm=0
			min_snow_level=0			
		}
		period={
			between={ 0.3 29.3 }
			temperature={ 20.0 23.0 }
			temperature_day_night={ 12.0 -12.0 }
			no_phenomenon=0.7
			rain_light=0.4
			rain_heavy=0.3
			snow=0
			blizzard=0
			arctic_water=0.000
			mud=1
			sandstorm=0
			min_snow_level=0			
		}
		period={
			between={ 0.4 30.4 }
			temperature={ 20.0 23.0 }
			temperature_day_night={ 10.0 -10.0 }
			no_phenomenon=0.5
			rain_light=0.2
			rain_heavy=0.3
			snow=0
			blizzard=0
			arctic_water=0.000
			mud=1
			sandstorm=0
			min_snow_level=0			
		}
		period={
			between={ 0.5 29.5 }
			temperature={ 20.0 23.0 }
			temperature_day_night={ 10.0 -10.0 }
			no_phenomenon=0.4
			rain_light=0.3
			rain_heavy=0.3
			snow=0
			blizzard=0
			arctic_water=0.000
			mud=1
			sandstorm=0
			min_snow_level=0			
		}
		period={
			between={ 0.6 30.6 }
			temperature={ 17.0 20.0 }
			temperature_day_night={ 10.0 -10.0 }
			no_phenomenon=0.3
			rain_light=0.4
			rain_heavy=0.3
			snow=0
			blizzard=0
			arctic_water=0.000
			mud=1
			sandstorm=0
			min_snow_level=0			
		}
		period={
			between={ 0.7 30.7 }
			temperature={ 17.0 20.0 }
			temperature_day_night={ 10.0 -10.0 }
			no_phenomenon=0.3
			rain_light=0.4
			rain_heavy=0.3
			snow=0
			blizzard=0
			arctic_water=0.000
			mud=1
			sandstorm=0
			min_snow_level=0			
		}
		period={
			between={ 0.8 29.8 }
			temperature={ 17.0 20.0 }
			temperature_day_night={ 10.0 -10.0 }
			no_phenomenon=0.4
			rain_light=0.2
			rain_heavy=0.2
			snow=0
			blizzard=0
			arctic_water=0.000
			mud=1
			sandstorm=0
			min_snow_level=0			
		}
		period={
			between={ 0.9 30.9 }
			temperature={ 14.0 18.0 }
			temperature_day_night={ 12.0 -12.0 }
			no_phenomenon=0.6
			rain_light=0.2
			rain_heavy=0.2
			snow=0
			blizzard=0
			arctic_water=0.000
			mud=1
			sandstorm=0
			min_snow_level=0			
		}
		period={
			between={ 0.10 29.10 }
			temperature={ 12.0 18.0 }
			temperature_day_night={ 12.0 -12.0 }
			no_phenomenon=0.8
			rain_light=0.1
			rain_heavy=0.1
			snow=0
			blizzard=0
			arctic_water=0.000
			mud=1
			sandstorm=0
			min_snow_level=0			
		}
		period={
			between={ 0.11 30.11 }
			temperature={ 12.0 17.0 }
			temperature_day_night={ 14.0 -14.0 }
			no_phenomenon=0.9
			rain_light=0.05
			rain_heavy=0.05
			snow=0
			blizzard=0
			arctic_water=0.000
			mud=1
			sandstorm=0
			min_snow_level=0			
		}
	}
}
