strategic_region={
	id=238
	name="STRATEGICREGION_238"
	provinces={
		253 311 377 407 540 3241 3274 3301 3369 3422 3463 6221 6270 6301 6351 6363 6378 6526 7239 9297 9364 9484 9562 11345 11361 11406 11471 13710 
	}
	weather={
	}
}
