strategic_region={
	id=245
	name="STRATEGICREGION_245"
	provinces={
		1555 1568 1596 1624 1639 2136 2149 2158 2172 2179 2215 4573 4602 4643 5152 5163 5184 5213 5219 7500 7550 7621 8208 8215 8253 10375 10390 10402 10418 10935 10964 10975 10985 10992 11021 11022 12351 12364 12379 12394 12409 12494 12928 12942 12970 12978 12998 13000 13215 13249 13269 13270 13271 13272 
	}
	weather={
	}
}
