strategic_region={
	id=86
	name="STRATEGICREGION_86"
	provinces={
		2119 2236 2388 2660 2710 2782 2805 2830 2854 2878 2924 2948 2973 3011 3209 3416 3607 3801 4007 4230 4456 4679 5240 5265 5292 5318 5341 5386 5458 5459 5483 5484 5485 5509 5511 5535 5537 5585 5611 5635 5637 5711 
	}
	weather={
		period={
			between={ 0.0 30.0 }
			temperature={ 5.0 30.0 }
			temperature_day_night={ -2.0 2.0 }
			no_phenomenon=0.500
			rain_light=0.400
			rain_heavy=0.300
			snow=0
			blizzard=0
			arctic_water=0.000
			mud=1
			sandstorm=0
			min_snow_level=0
		}
		period={
			between={ 0.1 27.1 }
			temperature={ 5.0 30.0 }
			temperature_day_night={ -2.0 2.0 }
			no_phenomenon=0.500
			rain_light=0.400
			rain_heavy=0.300
			snow=0
			blizzard=0
			arctic_water=0.000
			mud=1
			sandstorm=0
			min_snow_level=0
		}
		period={
			between={ 0.2 30.2 }
			temperature={ 5.0 30.0 }
			temperature_day_night={ -2.0 2.0 }
			no_phenomenon=0.500
			rain_light=0.400
			rain_heavy=0.300
			snow=0
			blizzard=0
			arctic_water=0.000
			mud=1
			sandstorm=0
			min_snow_level=0
		}
		period={
			between={ 0.3 29.3 }
			temperature={ 5.0 30.0 }
			temperature_day_night={ -2.0 2.0 }
			no_phenomenon=0.500
			rain_light=0.400
			rain_heavy=0.300
			snow=0
			blizzard=0
			arctic_water=0.000
			mud=1
			sandstorm=0
			min_snow_level=0
		}
		period={
			between={ 0.4 30.4 }
			temperature={ 5.0 30.0 }
			temperature_day_night={ -2.0 2.0 }
			no_phenomenon=0.500
			rain_light=0.400
			rain_heavy=0.300
			snow=0
			blizzard=0
			arctic_water=0.000
			mud=1
			sandstorm=0
			min_snow_level=0
		}
		period={
			between={ 0.5 29.5 }
			temperature={ 5.0 30.0 }
			temperature_day_night={ -2.0 2.0 }
			no_phenomenon=0.500
			rain_light=0.400
			rain_heavy=0.300
			snow=0
			blizzard=0
			arctic_water=0.000
			mud=1
			sandstorm=0
			min_snow_level=0
		}
		period={
			between={ 0.6 30.6 }
			temperature={ 5.0 30.0 }
			temperature_day_night={ -2.0 2.0 }
			no_phenomenon=0.500
			rain_light=0.400
			rain_heavy=0.300
			snow=0
			blizzard=0
			arctic_water=0.000
			mud=1
			sandstorm=0
			min_snow_level=0
		}
		period={
			between={ 0.7 30.7 }
			temperature={ 5.0 30.0 }
			temperature_day_night={ -2.0 2.0 }
			no_phenomenon=0.500
			rain_light=0.400
			rain_heavy=0.300
			snow=0
			blizzard=0
			arctic_water=0.000
			mud=1
			sandstorm=0
			min_snow_level=0
		}
		period={
			between={ 0.8 29.8 }
			temperature={ 5.0 30.0 }
			temperature_day_night={ -2.0 2.0 }
			no_phenomenon=0.500
			rain_light=0.400
			rain_heavy=0.300
			snow=0
			blizzard=0
			arctic_water=0.000
			mud=1
			sandstorm=0
			min_snow_level=0
		}
		period={
			between={ 0.9 30.9 }
			temperature={ 5.0 30.0 }
			temperature_day_night={ -2.0 2.0 }
			no_phenomenon=0.500
			rain_light=0.400
			rain_heavy=0.300
			snow=0
			blizzard=0
			arctic_water=0.000
			mud=1
			sandstorm=0
			min_snow_level=0
		}
		period={
			between={ 0.10 29.10 }
			temperature={ 5.0 30.0 }
			temperature_day_night={ -2.0 2.0 }
			no_phenomenon=0.500
			rain_light=0.400
			rain_heavy=0.300
			snow=0
			blizzard=0
			arctic_water=0.000
			mud=1
			sandstorm=0
			min_snow_level=0
		}
		period={
			between={ 0.11 30.11 }
			temperature={ 5.0 30.0 }
			temperature_day_night={ -2.0 2.0 }
			no_phenomenon=0.500
			rain_light=0.400
			rain_heavy=0.300
			snow=0
			blizzard=0
			arctic_water=0.000
			mud=1
			sandstorm=0
			min_snow_level=0
		}
	}
}
