ideas = {

	country = {
     	CHI_Corrupt_Bureaucracy = {
            picture = CHI_Corrupt_Bureaucracy
            allowed = {
                always = no
            }
            allowed_civil_war = {
                always = yes
            }
            removal_cost = -1
            modifier = {
				political_power_factor = -0.10
				stability_factor = -0.05
				war_support_factor = -0.10
				conscription_factor = -0.60
				production_factory_max_efficiency_factor = -0.05
				industrial_capacity_factory = -0.1
				industrial_capacity_dockyard = -0.1
				local_resources_factor = -0.10
				consumer_goods_factor = 0.10
				research_speed_factor = -0.10
            }
        }
		
		CHI_Incompetent_Army = {
			picture = CHI_Incompetent_Army
            allowed = {
                always = no
            }
            allowed_civil_war = {
                always = yes
            }
            removal_cost = -1
            modifier = {
				army_attack_factor = -0.20
				army_defence_factor = -0.20
				army_morale_factor = -0.40
            }
        }
		CHI_Corrupt_Officer_Corps = {
			picture = CHI_Corrupt_Officer_Corps
			allowed = {
                always = no
            }
            allowed_civil_war = {
                always = yes
            }
            removal_cost = -1
            modifier = {
				army_org_factor = -0.60
				max_planning = -0.60
				planning_speed = -0.60
				command_power_gain = -0.60
				decryption_factor = -0.4
				encryption_factor = -0.4
				supply_consumption_factor = 0.30
			}
			research_bonus = {
				land_doctrine = -0.30
            }
        }
		
		CHI_High_Military_Spending = {
            picture = CHI_High_Military_Spending
            allowed = {
                always = no
            }
            allowed_civil_war = {
                always = yes
            }
            removal_cost = -1
            modifier = {
				political_power_factor = -0.25
				army_morale_factor = 0.05
				production_speed_arms_factory_factor = 0.05
				production_speed_bunker_factor = 0.10
				production_speed_coastal_bunker_factor = 0.10
            }
        }
		CHI_Soong_Military_Spending = {
            picture = CHI_High_Military_Spending
            allowed = {
                always = no
            }
            allowed_civil_war = {
                always = yes
            }
            removal_cost = -1
            modifier = {
				political_power_factor = -0.20
				army_morale_factor = 0.075
				production_speed_arms_factory_factor = 0.035
				production_speed_bunker_factor = 0.075
				production_speed_coastal_bunker_factor = 0.075
            }
        }
		CHI_Very_High_Deflation = {
            picture = CHI_High_Deflation
            allowed = {
                always = no
            }
            allowed_civil_war = {
                always = yes
            }
            removal_cost = -1
            modifier = {
               consumer_goods_factor = 0.20
			   trade_opinion_factor = -0.80
			   stability_factor = -0.20
			   production_speed_industrial_complex_factor = -0.45
            }
        }
		CHI_High_Deflation = {
            picture = CHI_High_Deflation
            allowed = {
                always = no
            }
            allowed_civil_war = {
                always = yes
            }
            removal_cost = -1
            modifier = {
               consumer_goods_factor = 0.15
			   trade_opinion_factor = -0.75
			   stability_factor = -0.15
			   production_speed_industrial_complex_factor = -0.35
            }
        }
		CHI_Moderate_Deflation = {
            picture = CHI_High_Deflation
            allowed = {
                always = no
            }
            allowed_civil_war = {
                always = yes
            }
            removal_cost = -1
            modifier = {
               consumer_goods_factor = 0.1
			   trade_opinion_factor = -0.5
			   stability_factor = -0.1
			   production_speed_industrial_complex_factor = -0.25
            }
        }
		CHI_Low_Deflation = {
            picture = CHI_High_Deflation
            allowed = {
                always = no
            }
            allowed_civil_war = {
                always = yes
            }
            removal_cost = -1
            modifier = {
               consumer_goods_factor = 0.05
			   trade_opinion_factor = -0.25
			   stability_factor = -0.05
			   production_speed_industrial_complex_factor = -0.15
            }
        }
		CHI_Economic_Parity = {
            picture = CHI_High_Deflation
            allowed = {
                always = no
            }
            allowed_civil_war = {
                always = yes
            }
            removal_cost = -1
            modifier = {
			   trade_opinion_factor = -0.15
			   stability_factor = 0.10
			   production_speed_industrial_complex_factor = 0.05
            }
        }
		CHI_Low_Inflation = {
            picture = CHI_High_Deflation
            allowed = {
                always = no
            }
            allowed_civil_war = {
                always = yes
            }
            removal_cost = -1
            modifier = {
				consumer_goods_factor = 0.05
				trade_opinion_factor = -0.25
				stability_factor = -0.05
				production_speed_industrial_complex_factor = -0.15
            }
        }
		CHI_Moderate_Inflation = {
            picture = CHI_High_Deflation
            allowed = {
                always = no
            }
            allowed_civil_war = {
                always = yes
            }
            removal_cost = -1
            modifier = {
				consumer_goods_factor = 0.1
			   trade_opinion_factor = -0.5
			   stability_factor = -0.1
			   production_speed_industrial_complex_factor = -0.25
            }
        }
		CHI_High_Inflation = {
            picture = CHI_High_Deflation
            allowed = {
                always = no
            }
            allowed_civil_war = {
                always = yes
            }
            removal_cost = -1
            modifier = {
				consumer_goods_factor = 0.15
			   trade_opinion_factor = -0.75
			   stability_factor = -0.15
			   production_speed_industrial_complex_factor = -0.35
            }
        }
		CHI_Very_High_Inflation = {
            picture = CHI_High_Deflation
            allowed = {
                always = no
            }
            allowed_civil_war = {
                always = yes
            }
            removal_cost = -1
            modifier = {
				consumer_goods_factor = 0.20
				trade_opinion_factor = -0.85
				stability_factor = -0.20
				production_speed_industrial_complex_factor = -0.45
            }
        }
		CHI_Policy_Of_Appeasement = {
            picture = CHI_Policy_Of_Appeasement
            allowed = {
                always = no
            }
            allowed_civil_war = {
                always = yes
            }
            removal_cost = -1
            modifier = {
				war_support_factor = -0.1
				ai_focus_defense_factor = 0.4
            }
        }
		CHI_Sino_German_cooperation = {
            picture = CHI_Sino-German_Cooperation
			allowed = {
				always = no
			}
			allowed_civil_war = {
                always = yes
            }
            removal_cost = -1
            modifier = {
				experience_gain_army = 0.02
			}	
		}
		CHI_No_Surrender = {
			picture = CHI_war_of_resistance3
			allowed = {
				always = no
			}
			allowed_civil_war = {
                always = yes
            }
            removal_cost = -1
            modifier = {
				surrender_limit = 1
			}
		}
		CHI_Baojia_Recruitment = {
			picture = CHI_High_Military_Spending
            allowed = {
                always = no
            }
            allowed_civil_war = {
                always = yes
            }
            removal_cost = -1
            modifier = {
                production_speed_infrastructure_factor = 0.05
				production_speed_bunker_factor = 0.05
				production_speed_coastal_bunker_factor = 0.05
            }
		}
		CHI_Militia_Enrollment = {
			picture = CHI_High_Military_Spending
            allowed = {
                always = no
            }
            allowed_civil_war = {
                always = yes
            }
            removal_cost = -1
            modifier = {
				conscription_factor = 0.15
            }
		}
	}	
	head_of_gov = {
		CHI_hog_Wang_Jingwei = {
			picture = Wang_Jingwei
			allowed = {
				original_tag = CHI
			}
			available = {
				always = no
			}
			cancel_if_invalid = no
			removal_cost = -1
			ai_will_do = {
				factor = 1
			}
			traits = {
				opportunist
				socialist_minister
				hog
			}
		}
		CHI_hog_Chiang_Kai_shek = {
			picture = Chiang_Kai_Shek
			allowed = {
				original_tag = CHI
			}
			available = {
				always = no
			}
			cancel_if_invalid = no
			removal_cost = -1
			ai_will_do = {
				factor = 1
			}
			traits = {
				flamboyant_tough_guy
				monarchism_minister
				hog
			}
		}
		CHI_hog_H_H_Kung = {
			picture = HH_Kung
			allowed = {
				original_tag = CHI
			}
			available = {
				always = no
			}
			cancel_if_invalid = no
			removal_cost = -1
			ai_will_do = {
				factor = 1
			}
			traits = {
				multitasker
				monarchism_minister
				hog
			}
		}
		CHI_hog_T_V_Soong = {
			picture = T_V_Soong
			allowed = {
				original_tag = CHI
			}
			available = {
				always = no
			}
			cancel_if_invalid = no
			removal_cost = -1
			ai_will_do = {
				factor = 1
			}
			traits = {
				corporate_suit
				centre_minister
				hog
			}
		}
		CHI_hog_Zhang_Qun = {
			picture = Zhang_Qun
			allowed = {
				original_tag = CHI
			}
			available = {
				always = no
			}
			cancel_if_invalid = no
			removal_cost = -1
			ai_will_do = {
				factor = 1
			}
			traits = {
				silent_workhorse
				centre_minister
				hog
			}
		}
		CHI_hog_Weng_Wenhao = {
			picture = Weng_Wenhao
			allowed = {
				original_tag = CHI
			}
			available = {
				always = no
			}
			cancel_if_invalid = no
			removal_cost = -1
			ai_will_do = {
				factor = 1
			}
			traits = {
				babbling_buffoon
				centre_minister
				hog
			}
		}
		CHI_hog_Sun_Fo = {
			#picture = Sun_Fo
			allowed = {
				original_tag = CHI
			}
			available = {
				always = no
			}
			cancel_if_invalid = no
			removal_cost = -1
			ai_will_do = {
				factor = 1
			}
			traits = {
				political_noble
				liberal_minister
				hog
			}
		}
		CHI_hog_He_Yingqin = {
			picture = He_Yingqin
			allowed = {
				original_tag = CHI
			}
			available = {
				always = no
			}
			cancel_if_invalid = no
			removal_cost = -1
			ai_will_do = {
				factor = 1
			}
			traits = {
				reformist_soldier
				monarchism_minister
				hog
			}
		}
		CHI_hog_Yan_Xishan = {
			#picture = Yan_Xishan
			allowed = {
				original_tag = CHI
			}
			available = {
				always = no
			}
			cancel_if_invalid = no
			removal_cost = -1
			ai_will_do = {
				factor = 1
			}
			traits = {
				old_general
				monarchism_minister
				hog
			}
		}
	}
	foreign_minister = {
		CHI_frn_Luo_Wengan = {
			#picture = Luo_Wengan
			allowed = {
				original_tag = CHI
			}
			available = {
				OR = {
					has_government = socialism
					has_government = social_democracy
					has_government = social_liberalism
					has_government = market_liberalism
					has_government = jacobin
					has_government = democratic
					has_government = neutrality
					has_government = monarchism
					has_government = nationalism
				}
			}
			cancel_if_invalid = no
			removal_cost = -1
			ai_will_do = {
				factor = 1
			}
			traits = {
				competent_ambassador 
				jacobin_minister
				frnmin
			}
		}
		CHI_frn_No_Foreign_Minister = {
			allowed = {
				original_tag = CHI
			}
			available = {
				OR = {
					has_government = socialism
					has_government = social_democracy
					has_government = social_liberalism
					has_government = market_liberalism
					has_government = jacobin
					has_government = democratic
					has_government = neutrality
					has_government = monarchism
					has_government = nationalism
				}
			}
			cancel_if_invalid = no
			removal_cost = -1
			ai_will_do = {
				factor = 1
			}
			traits = {
				no_foreign_ministry
				#placeholder
				frnmin
			}
		}
		CHI_frn_Wang_Jingwei = {
			picture = Wang_Jingwei
			allowed = {
				original_tag = CHI
			}
			available = {
				OR = {
					has_government = socialism
					has_government = social_democracy
					has_government = social_liberalism
					has_government = market_liberalism
					has_government = jacobin
					has_government = democratic
					has_government = neutrality
					has_government = monarchism
					has_government = nationalism
				}
			}
			cancel_if_invalid = no
			removal_cost = -1
			ai_will_do = {
				factor = 1
			}
			traits = {
				apologetic_clerk
				socialist_minister
				frnmin
			}
		}
		CHI_frn_Zhang_Qun = {
			picture = Zhang_Qun
			allowed = {
				original_tag = CHI
			}
			available = {
				OR = {
					has_government = socialism
					has_government = social_democracy
					has_government = social_liberalism
					has_government = market_liberalism
					has_government = jacobin
					has_government = democratic
					has_government = neutrality
					has_government = monarchism
					has_government = nationalism
				}
			}
			cancel_if_invalid = no
			removal_cost = -1
			ai_will_do = {
				factor = 1
			}
			traits = {
				apologetic_clerk
				centre_minister
				frnmin
			}
		}		
		CHI_frn_Wang_Ch_unghui = {
			picture = Wang_Chunghui
			allowed = {
				original_tag = CHI
			}
			available = {
				OR = {
					has_government = socialism
					has_government = social_democracy
					has_government = social_liberalism
					has_government = market_liberalism
					has_government = jacobin
					has_government = democratic
					has_government = neutrality
					has_government = monarchism
					has_government = nationalism
				}
			}
			cancel_if_invalid = no
			removal_cost = -1
			ai_will_do = {
				factor = 1
			}
			traits = {
				adequate_diplomat
				centre_minister
				frnmin
			}
		}
		CHI_frn_Quo_Taichi = {
			#picture = Quo_Taichi
			allowed = {
				original_tag = CHI
			}
			available = {
				OR = {
					has_government = socialism
					has_government = social_democracy
					has_government = social_liberalism
					has_government = market_liberalism
					has_government = jacobin
					has_government = democratic
					has_government = neutrality
					has_government = monarchism
					has_government = nationalism
				}
			}
			cancel_if_invalid = no
			removal_cost = -1
			ai_will_do = {
				factor = 1
			}
			traits = {
				competent_ambassador
				#placeholder
				frnmin
			}
		}
		CHI_frn_T_V_Soong = {
			picture = T_V_Soong
			allowed = {
				original_tag = CHI
			}
			available = {
				OR = {
					has_government = socialism
					has_government = social_democracy
					has_government = social_liberalism
					has_government = market_liberalism
					has_government = jacobin
					has_government = democratic
					has_government = neutrality
					has_government = monarchism
					has_government = nationalism
				}
			}
			cancel_if_invalid = no
			removal_cost = -1
			ai_will_do = {
				factor = 1
			}
			traits = {
				the_cloak_n_dagger_schemer
				centre_minister
				frnmin
			}
		}
		CHI_frn_Wang_Shijie = {
			picture = Wang_Shijie
			allowed = {
				original_tag = CHI
			}
			available = {
				OR = {
					has_government = socialism
					has_government = social_democracy
					has_government = social_liberalism
					has_government = market_liberalism
					has_government = jacobin
					has_government = democratic
					has_government = neutrality
					has_government = monarchism
					has_government = nationalism
				}
			}
			cancel_if_invalid = no
			removal_cost = -1
			ai_will_do = {
				factor = 1
			}
			traits = {
				incompetent_disaster
				centre_minister
				frnmin
			}
		}
		CHI_frn_Wu_Tiecheng = {
			picture = Wu_Tiecheng
			allowed = {
				original_tag = CHI
			}
			available = {
				OR = {
					has_government = socialism
					has_government = social_democracy
					has_government = social_liberalism
					has_government = market_liberalism
					has_government = jacobin
					has_government = democratic
					has_government = neutrality
					has_government = monarchism
					has_government = nationalism
				}
			}
			cancel_if_invalid = no
			removal_cost = -1
			ai_will_do = {
				factor = 1
			}
			traits = {
				biased_intellectual
				#placeholder
				frnmin
			}
		}
		CHI_frn_Wellington_Koo = {
			picture = Wellington_Koo
			allowed = {
				original_tag = CHI
			}
			available = {
				OR = {
					has_government = socialism
					has_government = social_democracy
					has_government = social_liberalism
					has_government = market_liberalism
					has_government = jacobin
					has_government = democratic
					has_government = neutrality
					has_government = monarchism
					has_government = nationalism
				}
			}
			cancel_if_invalid = no
			removal_cost = -1
			ai_will_do = {
				factor = 1
			}
			traits = {
				competent_ambassador
				#placeholder
				frnmin
			}
		}
		CHI_frn_Chen_Guofu = {
			picture = Chen_Guofu
			allowed = {
				original_tag = CHI
			}
			available = {
				OR = {
					has_government = neutrality
					has_government = monarchism
					has_government = nationalism
				}
			}
			cancel_if_invalid = no
			removal_cost = -1
			ai_will_do = {
				factor = 1
			}
			traits = {
				ideological_crusader
				nationalist_minister
				frnmin
			}
		}
	}
	economy_minister = {
		CHI_eco_T_V_Soong = {
			picture = T_V_Soong
			allowed = {
				original_tag = CHI
			}
			available = {
				OR = {
					has_government = socialism
					has_government = social_democracy
					has_government = social_liberalism
					has_government = market_liberalism
					has_government = jacobin
					has_government = democratic
					has_government = neutrality
					has_government = monarchism
					has_government = nationalism
				}
			}
			cancel_if_invalid = no
			removal_cost = -1
			ai_will_do = {
				factor = 1
			}
			traits = {
				balanced_budget
				centre_minister
				ecomin
			}
		}
		CHI_eco_H_H_Kung = {
			picture = HH_Kung
			allowed = {
				original_tag = CHI
			}
			available = {
				OR = {
					has_government = socialism
					has_government = social_democracy
					has_government = social_liberalism
					has_government = market_liberalism
					has_government = jacobin
					has_government = democratic
					has_government = neutrality
					has_government = monarchism
					has_government = nationalism
				}
			}
			cancel_if_invalid = no
			removal_cost = -1
			ai_will_do = {
				factor = 1
			}
			traits = {
				corrupt_kleptocrat
				monarchism_minister
				ecomin
			}
		}
		CHI_eco_Yu_Hung_chun = {
			#picture = Yu_Hung_Chun
			allowed = {
				original_tag = CHI
			}
			available = {
				OR = {
					has_government = socialism
					has_government = social_democracy
					has_government = social_liberalism
					has_government = market_liberalism
					has_government = jacobin
					has_government = democratic
					has_government = neutrality
					has_government = monarchism
					has_government = nationalism
				}
			}
			cancel_if_invalid = no
			removal_cost = -1
			ai_will_do = {
				factor = 1
			}
			traits = {
				bank_president
				centre_minister
				ecomin
			}
		}
		CHI_eco_Chen_Gongbo = {
			picture = Chen_Gongbo
			allowed = {
				original_tag = CHI
			}
			available = {
				OR = {
					has_government = socialism
					has_government = social_democracy
					has_government = social_liberalism
					has_government = market_liberalism
					has_government = jacobin
					has_government = democratic
					has_government = neutrality
					has_government = monarchism
					has_government = nationalism
				}
			}
			cancel_if_invalid = no
			removal_cost = -1
			ai_will_do = {
				factor = 1
			}
			traits = {
				industrialiser
				socialist_minister
				ecomin
			}
		}
		CHI_eco_Wu_Dingchang = {
			picture = Wu_Dingchang
			allowed = {
				original_tag = CHI
			}
			available = {
				OR = {
					has_government = socialism
					has_government = social_democracy
					has_government = social_liberalism
					has_government = market_liberalism
					has_government = jacobin
					has_government = democratic
					has_government = neutrality
					has_government = monarchism
					has_government = nationalism
				}
			}
			cancel_if_invalid = no
			removal_cost = -1
			ai_will_do = {
				factor = 1
			}
			traits = {
				bank_president
				centre_minister
				ecomin
			}
		}
		CHI_eco_Cheng_Tiangu = {
			picture = Cheng_Tiangu
			allowed = {
				original_tag = CHI
			}
			available = {
				OR = {
					has_government = socialism
					has_government = social_democracy
					has_government = social_liberalism
					has_government = market_liberalism
					has_government = jacobin
					has_government = democratic
					has_government = neutrality
					has_government = monarchism
					has_government = nationalism
				}
			}
			cancel_if_invalid = no
			removal_cost = -1
			ai_will_do = {
				factor = 1
			}
			traits = {
				construction_magnate
				#placeholder
				ecomin
			}
		}
		CHI_eco_Weng_Wenhao = {
			picture = Weng_Wenhao
			allowed = {
				original_tag = CHI
			}
			available = {
				OR = {
					has_government = social_liberalism
					has_government = market_liberalism
					has_government = jacobin
					has_government = democratic
					has_government = neutrality
					has_government = monarchism
					has_government = nationalism
				}
			}
			cancel_if_invalid = no
			removal_cost = -1
			ai_will_do = {
				factor = 1
			}
			traits = {
				administrative_genius
				centre_minister
				ecomin
			}
		}
	}	
	security_minister = {
		CHI_sec_Luo_Wengan = {
			#picture = Luo_Wengan
			allowed = {
				original_tag = CHI
			}
			available = {
				OR = {
					has_government = socialism
					has_government = social_democracy
					has_government = social_liberalism
					has_government = market_liberalism
					has_government = jacobin
					has_government = democratic
					has_government = neutrality
					has_government = monarchism
					has_government = nationalism
				}
			}
			cancel_if_invalid = no
			removal_cost = -1
			ai_will_do = {
				factor = 1
			}
			traits = {
				silent_lawyer
				jacobin_minister
				secmin
			}
		}
		CHI_sec_No_Sec_Minister = {
			allowed = {
				original_tag = CHI
			}
			available = {
				OR = {
					has_government = socialism
					has_government = social_democracy
					has_government = social_liberalism
					has_government = market_liberalism
					has_government = jacobin
					has_government = democratic
					has_government = neutrality
					has_government = monarchism
					has_government = nationalism
				}
			}
			cancel_if_invalid = no
			removal_cost = -1
			ai_will_do = {
				factor = 1
			}
			traits = {
				no_interior_ministry
				#placeholder
				secmin
			}
		}
		CHI_sec_Wang_Yongbin = {
			picture = Wang_Yongbin
			allowed = {
				original_tag = CHI
			}
			available = {
				OR = {
					has_government = socialism
					has_government = social_democracy
					has_government = social_liberalism
					has_government = market_liberalism
					has_government = jacobin
					has_government = democratic
					has_government = neutrality
					has_government = monarchism
					has_government = nationalism
				}
			}
			cancel_if_invalid = no
			removal_cost = -1
			ai_will_do = {
				factor = 1
			}
			traits = {
				silent_lawyer
				#placeholder
				secmin
			}
		}
		CHI_sec_Xie_Guansheng = {
			picture = Xie_Guansheng
			allowed = {
				original_tag = CHI
			}
			available = {
				OR = {
					has_government = socialism
					has_government = social_democracy
					has_government = social_liberalism
					has_government = market_liberalism
					has_government = jacobin
					has_government = democratic
					has_government = neutrality
					has_government = monarchism
					has_government = nationalism
				}
			}
			cancel_if_invalid = no
			removal_cost = -1
			ai_will_do = {
				factor = 1
			}
			traits = {
				silent_lawyer
				#placeholder
				secmin
			}
		}
		CHI_sec_Gu_Zhenglun = {
			picture = Gu_Zhenglun
			allowed = {
				original_tag = CHI
			}
			available = {
				OR = {
					has_government = neutrality
					has_government = monarchism
					has_government = nationalism
				}
			}
			cancel_if_invalid = no
			removal_cost = -1
			ai_will_do = {
				factor = 1
			}
			traits = {
				prince_of_terror
				nationalist_minister
				secmin
			}
		}
		CHI_sec_Ju_Zheng = {
			#picture = Ju_Zheng
			allowed = {
				original_tag = CHI
			}
			available = {
				OR = {
					has_government = socialism
					has_government = social_democracy
					has_government = social_liberalism
					has_government = market_liberalism
					has_government = jacobin
					has_government = democratic
					has_government = neutrality
					has_government = monarchism
					has_government = nationalism
				}
			}
			cancel_if_invalid = no
			removal_cost = -1
			ai_will_do = {
				factor = 1
			}
			traits = {
				silent_lawyer
				conservative_minister
				secmin
			}
		}
	}
	intel_minister = {
		CHI_int_Dai_Li = {
			picture = Dai_Li
			allowed = {
				original_tag = CHI
			}
			available = {
				OR = {
					has_government = neutrality
					has_government = monarchism
					has_government = nationalism
					has_government = fascism
				}
			}
			cancel_if_invalid = no
			removal_cost = -1
			ai_will_do = {
				factor = 1
			}
			traits = {
				generalissimo_dagger
				monarchism_minister
				intmin
			}
		}
		CHI_int_Chen_Lifu = {
			picture = Chen_Lifu
			allowed = {
				original_tag = CHI
			}
			available = {
				OR = {
					has_government = neutrality
					has_government = monarchism
					has_government = nationalism
				}
			}
			cancel_if_invalid = no
			removal_cost = -1
			ai_will_do = {
				factor = 1
			}
			traits = {
				political_specialist
				nationalist_minister
				intmin
			}
		}
		CHI_int_Gu_Zhenglun  = {
			picture = Gu_Zhenglun
			allowed = {
				original_tag = CHI
			}
			available = {
				OR = {
					has_government = neutrality
					has_government = monarchism
					has_government = nationalism
				}
			}
			cancel_if_invalid = no
			removal_cost = -1
			ai_will_do = {
				factor = 1
			}
			traits = {
				organizer_of_terror
				nationalist_minister
				intmin
			}
		}
		CHI_int_Mao_Renfeng = {
			#picture = Mao_Renfeng
			allowed = {
				original_tag = CHI
			}
			available = {
				OR = {
					has_government = neutrality
					has_government = monarchism
					has_government = nationalism
					has_government = fascism
				}
			}
			cancel_if_invalid = no
			removal_cost = -1
			ai_will_do = {
				factor = 1
			}
			traits = {
				organizer_of_terror
				monarchism_minister
				intmin
			}
		}
		CHI_int_Xu_Enzeng = {
			#picture = Xu_Enzeng
			allowed = {
				original_tag = CHI
			}
			available = {
				OR = {
					has_government = neutrality
					has_government = monarchism
					has_government = nationalism
				}
			}
			cancel_if_invalid = no
			removal_cost = -1
			ai_will_do = {
				factor = 1
			}
			traits = {
				palatable_servant
				nationalist_minister
				intmin
			}
		}
		CHI_int_Ye_Xiufeng = {
			#picture = Ye_Xiufeng
			allowed = {
				original_tag = CHI
			}
			available = {
				OR = {
					has_government = neutrality
					has_government = monarchism
					has_government = nationalism
					has_government = fascism
				}
			}
			cancel_if_invalid = no
			removal_cost = -1
			ai_will_do = {
				factor = 1
			}
			traits = {
				technical_specialist
				nationalist_minister
				intmin
			}
		}
		CHI_int_H_H_Kung = {
			picture = HH_Kung
			allowed = {
				original_tag = CHI
			}
			available = {
				OR = {
					has_government = neutrality
					has_government = monarchism
					has_government = nationalism
				}
			}
			cancel_if_invalid = no
			removal_cost = -1
			ai_will_do = {
				factor = 1
			}
			traits = {
				political_specialist
				monarchism_minister
				intmin
			}
		}
	}	
	material_manufacturer = {
		designer = yes
		
		Jinling_Arsenal = {
			allowed = {
				original_tag = CHI
			}
			available = {
				controls_state = 613
			}

			ai_will_do = {
				factor = 1
			}
			research_bonus = {
				infantry_weapons = 0.10
			}
			picture = wip
			traits = { infantry_equipment_manufacturer3 }
		}

		Hanyang_Arsenal = {
			allowed = {
				OR = {
					original_tag = CHI
					original_tag = GDC
				}
			}
			available = {
				controls_state = 620
			}

			ai_will_do = {
				factor = 1
			}
			research_bonus = {
				infantry_weapons = 0.10
			}
			picture = wip
			traits = { infantry_equipment_manufacturer2 }
		}

		Guangdong_Arsenal = {
			allowed = {
				OR = {
					original_tag = CHI
					original_tag = GDC
				}
			}
			available = {
				controls_state = 592
			}

			ai_will_do = {
				factor = 1
			}
			research_bonus = {
				infantry_weapons = 0.10
			}
			picture = wip
			traits = { infantry_equipment_manufacturer2 }
		}

		Gongxian_Arsenal = {
			allowed = {
				original_tag = CHI
			}
			available = {
				controls_state = 607
			}

			ai_will_do = {
				factor = 1
			}
			research_bonus = {
				infantry_weapons = 0.10
			}
			picture = wip
			traits = { infantry_equipment_manufacturer }
		}
	}

	naval_manufacturer = {

		Mawei_Naval = {
			allowed = {
				OR = {
					original_tag = CHI
					original_tag = PRC
					original_tag = FUJ
				}
			}
			available = {
				controls_state = 595
			}

			ai_will_do = {
				factor = 1
			}
			research_bonus = {
				naval_equipment = 0.10
			}
			picture = wip
			traits = { screen_ship_manufacturer3 }

			ledger = navy
		}
		Xiamen = {
			allowed = {
				OR = {
					original_tag = CHI
					original_tag = GDC
				}
			}
			available = {
				controls_state = 1114
			}

			ai_will_do = {
				factor = 1
			}
			research_bonus = {
				naval_equipment = 0.10
			}
			picture = wip
			traits = { screen_ship_manufacturer }

			ledger = navy
		}
		Jiangnan = {
			allowed = {
				OR = {
					original_tag = CHI
					original_tag = GDC
				}
			}
			available = {
				controls_state = 1106
			}

			ai_will_do = {
				factor = 1
			}
			research_bonus = {
				naval_equipment = 0.10
			}
			picture = wip
			traits = { screen_ship_manufacturer2 }

			ledger = navy
		}
		CAMCO = {
			allowed = {
				original_tag = CHI
			}
			available = {
				has_opinion = {
					target = USA
					value > 0
				}
				date > 1933.12.01
			}

			ai_will_do = {
				factor = 1
			}
			research_bonus = {
				air_equipment = 0.20
			}
			picture = wip
			traits = { light_aircraft_manufacturer3 }

			ledger = air
		}
		Mawei_Aviation = {
			allowed = {
				OR = {
					original_tag = CHI
					original_tag = PRC
					original_tag = FUJ
				}
			}
			available = {
				controls_state = 1114
			}

			ai_will_do = {
				factor = 1
			}
			research_bonus = {
				air_equipment = 0.10
			}
			picture = wip
			traits = { light_aircraft_manufacturer2 }

			ledger = air
		}
		Chengdu_Aviation = {
			allowed = {
				OR = {
					original_tag = CHI
					original_tag = LWH
					original_tag = LXI
				}
			}
			available = {
				controls_state = 605
				date > 1942.01.01
			}

			ai_will_do = {
				factor = 1
			}
			research_bonus = {
				air_equipment = 0.10
			}
			picture = wip
			traits = { CAS_manufacturer2 }

			ledger = air
		}
		CHI_junkers = { 
			allowed = {
				original_tag = CHI
			}
			available = {
				has_idea = CHI_Sino_German_cooperation
			}
			research_bonus = {
				air_equipment = 0.10
			}
			traits = { CAS_manufacturer }
			ai_will_do = {
				factor = 1
			}
			picture = wip
			ledger = air
		}
		SINAW = {
			allowed = {
				original_tag = CHI
			}
			available = {
				NOT = { has_war_with = ITA }
				date > 1937.04.01
			}
			research_bonus = {
				air_equipment = 0.10
			}
			traits = { medium_aircraft_manufacturer3 }
			ai_will_do = {
				factor = 1
			}
			picture = wip
			ledger = air
		}	
	}
	tank_manufacturer = {
		designer = yes
		Pajiang = {
			allowed = {
				OR = {
					original_tag = CHI
					original_tag = GDC
				}
			}
			available = {
				controls_state = 592
			}

			ai_will_do = {
				factor = 1
			}
			research_bonus = {
				artillery = 0.10
			}
			picture = wip
			traits = { artillery_manufacturer2 }
		}
		Central = {
			allowed = {
				original_tag = CHI
			}
			available = {
				date > 1936.01.01
			}

			ai_will_do = {
				factor = 1
			}
			research_bonus = {
				artillery = 0.10
			}
			picture = wip
			traits = { artillery_manufacturer3 }
		}
		Taiyuan_Arsenal = {
			allowed = {
				OR = {
					original_tag = CHI
					original_tag = SHX
				}
			}
			available = {
				controls_state = 615
			}

			ai_will_do = {
				factor = 1
			}
			research_bonus = {
				artillery = 0.10
			}
			picture = wip
			traits = { artillery_manufacturer }
		}
		Fengtian_Arsenal = {
			allowed = {
				OR = {
					original_tag = CHI
					original_tag = NEA
					original_tag = MAN
				}
			}
			available = {
				controls_state = 716
			}

			ai_will_do = {
				factor = 1
			}
			research_bonus = {
				artillery = 0.10
			}
			picture = wip
			traits = { artillery_manufacturer2 }
		}
		Qishuyan = {
			allowed = {
				OR = {
					original_tag = CHI
					original_tag = PRC
				}
			}
			available = {
				controls_state = 613
			}

			ai_will_do = {
				factor = 1
			}
			research_bonus = {
				motorized_equipment = 0.10
			}
			picture = wip
			traits = { motorized_manufacturer }
		}
	}
	industrial_concern = {
		designer = yes
		Central_Machinery_Factory = {
			allowed = {
				original_tag = CHI
			}
			available = {
				date > 1939.01.01
			}

			ai_will_do = {
				factor = 1
			}
			research_bonus = {
				industry = 0.10
			}
			picture = wip
			traits = { industrial_manufacturer }
		}
		Central_Geological_Survey = {
			allowed = {
				OR = {
					original_tag = CHI
					original_tag = PRC
				}
			}

			ai_will_do = {
				factor = 1
			}
			research_bonus = {
				industry = 0.10
			}
			picture = wip
			traits = { railroad_manufacturer }
		}
		Hanyang_Steelworks = {
			allowed = {
				OR = {
					original_tag = CHI
					original_tag = PRC
				}
			}
			available = {
				controls_state = 620
			}

			ai_will_do = {
				factor = 1
			}
			research_bonus = {
				industry = 0.10
			}
			picture = wip
			traits = { industrial_manufacturer }
		}
		Chongqing_Steelworks = {
			allowed = {
				OR = {
					original_tag = CHI
					original_tag = LWH
					original_tag = PRC
					original_tag = LXI
				}
			}
			available = {
				controls_state = 1117
			}

			ai_will_do = {
				factor = 1
			}
			research_bonus = {
				industry = 0.10
			}
			picture = wip
			traits = { industrial_manufacturer }
		}
		National_Southwestern_Associated_University = {
			allowed = {
				OR = {
					original_tag = CHI
					original_tag = PRC
					original_tag = YUN
				}
			}
			available = {
				controls_state = 325
				date > 1938.04.01
			}

			ai_will_do = {
				factor = 1
			}
			research_bonus = {
				electronics = 0.20
			}
			picture = wip
			traits = { electronics_manufacturer }
		}
		Central_Radio_Works = {
			allowed = {
				OR = {
					original_tag = CHI
					original_tag = PRC
				}
			}
			available = {
				date > 1936.01.01
			}

			ai_will_do = {
				factor = 1
			}
			research_bonus = {
				electronics = 0.10
			}
			picture = wip
			traits = { electronics_manufacturer }
		}
	}
	army_chief = {
		CHI_coa_Chiang_Kai_shek = {
			picture = Chiang_Kai_Shek
			allowed = {
				original_tag = CHI
			}
			cancel_if_invalid = no
			available = {
				NOT = { has_country_flag = CHI_coa_Chiang_Kai_shek_incap }
				OR = {
					has_government = neutrality
					has_government = monarchism
					has_government = nationalism
					has_government = fascism
				}
			}
			cancel_if_invalid = no
			ai_will_do = {
			factor = 1
			}
			traits = {
				generalissimo
				monarchism_minister
				coa
			}
		}
		CHI_coa_Cheng_Qian = {
			picture = Cheng_Qian
			allowed = {
				original_tag = CHI
			}
			cancel_if_invalid = no
			available = {
				NOT = { has_country_flag = CHI_coa_Cheng_Qian_incap }
				OR = {
					has_government = neutrality
					has_government = monarchism
					has_government = nationalism
					has_government = fascism
				}
			}
			cancel_if_invalid = no
			ai_will_do = {
			factor = 1
			}
			traits = {
				doctrine_of_autonomy
				coa
			}
			ledger = army
		}
		CHI_coa_He_Yingqin = {
			picture = He_Yingqin
			allowed = {
				original_tag = CHI
			}
			cancel_if_invalid = no
			available = {
				NOT = { has_country_flag = CHI_coa_He_Yingqin_incap }
				OR = {
					has_government = neutrality
					has_government = monarchism
					has_government = nationalism
					has_government = fascism
				}
			}
			cancel_if_invalid = no
			ai_will_do = {
			factor = 1
			}
			traits = {
				doctrine_of_autonomy
				coa
			}
		}
		CHI_coa_Zhu_Peide = {
			picture = Zhu_Peide
			allowed = {
				original_tag = CHI
			}
			cancel_if_invalid = no
			available = {
				NOT = { has_country_flag = CHI_coa_Zhu_Peide_incap }
				OR = {
					has_government = neutrality
					has_government = monarchism
					has_government = nationalism
					has_government = fascism
				}
			}
			cancel_if_invalid = no
			ai_will_do = {
			factor = 1
			}
			traits = {
				decisive_battle_army
				coa
			}
		}
		CHI_coa_Bai_Chongxi = { #add more checks!
			picture = Bai_Chongxi
			allowed = {
				original_tag = CHI
			}
			cancel_if_invalid = no
			available = {
				NOT = { has_country_flag = CHI_coa_Bai_Chongxi_incap }
				OR = {
					has_government = neutrality
					has_government = monarchism
					has_government = nationalism
				}
			}
			cancel_if_invalid = no
			ai_will_do = {
			factor = 1
			}
			traits = {
				tough_soldier
				coa
			}
		}
		CHI_coa_Xu_Yongchang = {
			picture = Xu_Yongchang
			allowed = {
				original_tag = CHI
			}
			cancel_if_invalid = no
			available = {
				NOT = { has_country_flag = CHI_coa_Xu_Yongchang_incap }
				OR = {
					has_government = neutrality
					has_government = monarchism
					has_government = nationalism
					has_government = fascism
				}
			}
			cancel_if_invalid = no
			ai_will_do = {
			factor = 1
			}
			traits = {
				decisive_battle_army
				coa
			}
		}
		CHI_coa_Gu_Zhutong = {
			picture = Gu_Zhutong
			allowed = {
				original_tag = CHI
			}
			cancel_if_invalid = no
			available = {
				NOT = { has_country_flag = CHI_coa_Gu_Zhutong_incap }
				OR = {
					has_government = neutrality
					has_government = monarchism
					has_government = nationalism
					has_government = fascism
				}
			}
			cancel_if_invalid = no
			ai_will_do = {
			factor = 1
			}
			traits = {
				static_defence_doctrine
				coa
			}
		}
		CHI_coa_Tang_Shengzhi = {
			picture = Tang_Shengzhi
			allowed = {
				original_tag = CHI
			}
			cancel_if_invalid = no
			available = {
				NOT = { has_country_flag = CHI_coa_Tang_Shengzhi_incap }
				OR = {
					has_government = socialism
					has_government = social_democracy
					has_government = social_liberalism
					has_government = market_liberalism
					has_government = jacobin
					has_government = democratic
					has_government = neutrality
					has_government = monarchism
					has_government = nationalism
				}
			}
			cancel_if_invalid = no
			ai_will_do = {
			factor = 1
			}
			traits = {
				inexperienced_micromanager
				coa
			}
		}
		CHI_coa_Li_Zongren = { #add more checks!
			#picture = Li_Zongren
			allowed = {
				original_tag = CHI
			}
			cancel_if_invalid = no
			available = {
				NOT = { has_country_flag = CHI_coa_Li_Zongren_incap }
				OR = {
					has_government = neutrality
					has_government = monarchism
					has_government = nationalism
				}
			}
			cancel_if_invalid = no
			ai_will_do = {
			factor = 1
			}
			traits = {
				static_defence_doctrine
				coa
			}
		}
	}
	high_command = {
		CHI_cos_Cheng_Qian = { 
			picture = Cheng_Qian
			allowed = {
				original_tag = CHI
			}
			cancel_if_invalid = no
			available = {
				NOT = { has_country_flag = CHI_cos_Cheng_Qian_incap }
				OR = {
					has_government = neutrality
					has_government = monarchism
					has_government = nationalism
					has_government = fascism
				}
			}
			cancel_if_invalid = no
			ai_will_do = {
			factor = 1
			}
			ledger = army
			traits = {
				school_of_mass_planning
				cos
			}
		}
		CHI_cos_He_Yingqin = { 
			picture = He_Yingqin
			allowed = {
				original_tag = CHI
			}
			cancel_if_invalid = no
			available = {
				NOT = { has_country_flag = CHI_cos_He_Yingqin_incap }
				OR = {
					has_government = neutrality
					has_government = monarchism
					has_government = nationalism
					has_government = fascism
				}
			}
			ledger = army
			cancel_if_invalid = no
			ai_will_do = {
			factor = 1
			}
			traits = {
				school_of_political_operations
				cos
			}
		}
		CHI_cos_Bai_Chongxi = { 
			picture = Bai_Chongxi
			allowed = {
				original_tag = CHI
			}
			cancel_if_invalid = no
			available = {
				NOT = { has_country_flag = CHI_cos_Bai_Chongxi_incap }
				OR = {
					has_government = neutrality
					has_government = monarchism
					has_government = nationalism
				}
			}
			ledger = army
			cancel_if_invalid = no
			ai_will_do = {
			factor = 1
			}
			traits = {
				school_of_mass_planning
				cos
			}
		}
		CHI_cos_Xu_Yongchang  = { 
			picture = Xu_Yongchang
			allowed = {
				original_tag = CHI
			}
			cancel_if_invalid = no
			available = {
				NOT = { has_country_flag = CHI_cos_Xu_Yongchang_incap }
				OR = {
					has_government = neutrality
					has_government = monarchism
					has_government = nationalism
					has_government = fascism
				}
			}
			ledger = army
			cancel_if_invalid = no
			ai_will_do = {
			factor = 1
			}
			traits = {
				school_of_political_operations
				cos
			}
		}
		CHI_cos_Gu_Zhutong = { 
			picture = Gu_Zhutong
			allowed = {
				original_tag = CHI
			}
			cancel_if_invalid = no
			available = {
				NOT = { has_country_flag = CHI_cos_Gu_Zhutong_incap }
				OR = {
					has_government = neutrality
					has_government = monarchism
					has_government = nationalism
					has_government = fascism
				}
			}
			ledger = army
			cancel_if_invalid = no
			ai_will_do = {
			factor = 1
			}
			traits = {
				school_of_political_operations
				cos
			}
		}
		CHI_cos_Tang_Shengzhi = { 
			picture = Tang_Shengzhi
			allowed = {
				original_tag = CHI
			}
			cancel_if_invalid = no
			available = {
				NOT = { has_country_flag = CHI_cos_Tang_Shengzhi_incap }
				OR = {
					has_government = socialism
					has_government = social_democracy
					has_government = social_liberalism
					has_government = market_liberalism
					has_government = jacobin
					has_government = democratic
					has_government = neutrality
					has_government = monarchism
					has_government = nationalism
				}
			}
			ledger = army
			cancel_if_invalid = no
			ai_will_do = {
			factor = 1
			}
			traits = {
				school_of_political_operations
				cos
			}
		}
		CHI_cos_Li_Zongren = { 
			#picture = Li_Zongren
			allowed = {
				original_tag = CHI
			}
			cancel_if_invalid = no
			available = {
				NOT = { has_country_flag = CHI_cos_Li_Zongren_incap }
				OR = {
					has_government = neutrality
					has_government = monarchism
					has_government = nationalism
				}
			}
			cancel_if_invalid = no
			ai_will_do = {
			factor = 1
			}
			ledger = army
			traits = {
				school_of_defence
				cos
			}
		}
		CHI_cos_Chen_Cheng = { 
			picture = Chen_Cheng
			allowed = {
				original_tag = CHI
			}
			cancel_if_invalid = no
			available = {
				NOT = { has_country_flag = CHI_cos_Chen_Cheng_incap }
				OR = {
					has_government = neutrality
					has_government = monarchism
					has_government = nationalism
					has_government = fascism
				}
			}
			cancel_if_invalid = no
			ai_will_do = {
			factor = 1
			}
			ledger = army
			traits = {
				school_of_political_operations
				cos
			}
		}
		CHI_cos_Liu_Xiang = { 
			#picture = Liu_Xiang
			allowed = {
				original_tag = CHI
			}
			cancel_if_invalid = no
			available = {
				NOT = { has_country_flag = CHI_cos_Liu_Xiang_incap }
				OR = {
					has_government = neutrality
					has_government = monarchism
					has_government = nationalism
				}
			}
			ledger = army
			cancel_if_invalid = no
			ai_will_do = {
			factor = 1
			}
			traits = {
				school_of_psychology
				cos
			}
		}
		CHI_cos_Yan_Xishan = { 
			#picture = Yan_Xishan
			allowed = {
				original_tag = CHI
			}
			cancel_if_invalid = no
			available = {
				NOT = { has_country_flag = CHI_cos_Yan_Xishan_incap }
				OR = {
					has_government = neutrality
					has_government = monarchism
					has_government = nationalism
				}
			}
			ledger = army
			cancel_if_invalid = no
			ai_will_do = {
			factor = 1
			}
			traits = {
				school_of_defence
				cos
			}
		}
		CHI_cos_Jiang_Dingwen = { 
			#picture = Jiang_Dingwen
			allowed = {
				original_tag = CHI
			}
			cancel_if_invalid = no
			available = {
				NOT = { has_country_flag = CHI_cos_Jiang_Dingwen_incap }
				OR = {
					has_government = neutrality
					has_government = monarchism
					has_government = nationalism
					has_government = fascism
				}
			}
			cancel_if_invalid = no
			ai_will_do = {
			factor = 1
			}
			ledger = army
			traits = {
				school_of_attack
				cos
			}
		}
		CHI_cos_Zhu_Shaoliang = { 
			#picture = Zhu_Shaoliang
			allowed = {
				original_tag = CHI
			}
			cancel_if_invalid = no
			available = {
				NOT = { has_country_flag = CHI_cos_Zhu_Shaoliang_incap }
				OR = {
					has_government = neutrality
					has_government = monarchism
					has_government = nationalism
					has_government = fascism
				}
			}
			ledger = army
			cancel_if_invalid = no
			ai_will_do = {
			factor = 1
			}
			traits = {
				school_of_mass_planning
				cos
			}
		}
		CHI_cos_Wei_Lihuang = { 
			#picture = Wei_Lihuang
			allowed = {
				original_tag = CHI
			}
			cancel_if_invalid = no
			available = {
				NOT = { has_country_flag = CHI_cos_Wei_Lihuang_incap }
				OR = {
					has_government = neutrality
					has_government = monarchism
					has_government = nationalism
					has_government = fascism
				}
			}
			ledger = army
			cancel_if_invalid = no
			ai_will_do = {
			factor = 1
			}
			traits = {
				school_of_mass_combat
				cos
			}
		}
		CHI_cos_Yu_Xuezhong = { 
			#picture = Yu_Xuezhong
			allowed = {
				original_tag = CHI
			}
			cancel_if_invalid = no
			available = {
				NOT = { has_country_flag = CHI_cos_Yu_Xuezhong_incap }
				OR = {
					has_government = neutrality
					has_government = monarchism
					has_government = nationalism
					has_government = fascism
				}
			}
			ledger = army
			cancel_if_invalid = no
			ai_will_do = {
			factor = 1
			}
			traits = {
				school_of_commando_operations
				cos
			}
		}
		CHI_cos_Xue_Yue = { 
			picture = Xue_Yue
			allowed = {
				original_tag = CHI
			}
			cancel_if_invalid = no
			available = {
				NOT = { has_country_flag = CHI_cos_Xue_Yue_incap }
				OR = {
					has_government = neutrality
					has_government = monarchism
					has_government = nationalism
					has_government = fascism
				}
			}
			ledger = army
			cancel_if_invalid = no
			ai_will_do = {
			factor = 1
			}
			traits = {
				school_of_defence
				cos
			}
		}
		CHI_cos_Feng_Yuxiang = { 
			picture = Feng_Yuxiang
			allowed = {
				original_tag = CHI
			}
			cancel_if_invalid = no
			available = {
				NOT = { has_country_flag = CHI_cos_Feng_Yuxiang_incap }
				OR = {
					has_government = socialism
					has_government = social_democracy
					has_government = social_liberalism
					has_government = market_liberalism
					has_government = jacobin
					has_government = democratic
					has_government = neutrality
					has_government = monarchism
					has_government = nationalism
				}
			}
			ledger = army
			cancel_if_invalid = no
			ai_will_do = {
			factor = 1
			}
			traits = {
				school_of_psychology
				cos
			}
		}
		CHI_cos_Zhang_Fakui = { 
			picture = Zhang_Fakui
			allowed = {
				original_tag = CHI
			}
			cancel_if_invalid = no
			available = {
				NOT = { has_country_flag = CHI_cos_Zhang_Fakui_incap }
				OR = {
					has_government = socialism
					has_government = social_democracy
					has_government = social_liberalism
					has_government = market_liberalism
					has_government = jacobin
					has_government = democratic
					has_government = neutrality
					has_government = monarchism
					has_government = nationalism
				}
			}
			ledger = army
			cancel_if_invalid = no
			ai_will_do = {
			factor = 1
			}
			traits = {
				school_of_mass_combat
				cos
			}
		}
		CHI_cos_Yu_Hanmou = { 
			#picture = Yu_Hanmou
			allowed = {
				original_tag = CHI
			}
			cancel_if_invalid = no
			available = {
				NOT = { has_country_flag = CHI_cos_Yu_Hanmou_incap }
				OR = {
					has_government = neutrality
					has_government = monarchism
					has_government = nationalism
					has_government = fascism
				}
			}
			ledger = army
			cancel_if_invalid = no
			ai_will_do = {
			factor = 1
			}
			traits = {
				school_of_defence
				cos
			}
		}
		CHI_cos_Li_Pinxian = { 
			#picture = Li_Pinxian
			allowed = {
				original_tag = CHI
			}
			cancel_if_invalid = no
			available = {
				NOT = { has_country_flag = CHI_cos_Li_Pinxian_incap }
				OR = {
					has_government = neutrality
					has_government = monarchism
					has_government = nationalism
					has_government = fascism
				}
			}
			ledger = army
			cancel_if_invalid = no
			ai_will_do = {
			factor = 1
			}
			traits = {
				school_of_mass_planning
				cos
			}
		}
		CHI_cos_Xu_Tingyao = { 
			#picture = Xu_Tingyao
			allowed = {
				original_tag = CHI
			}
			cancel_if_invalid = no
			available = {
				NOT = { has_country_flag = CHI_cos_Xu_Tingyao_incap }
				OR = {
					has_government = neutrality
					has_government = monarchism
					has_government = nationalism
					has_government = fascism
				}
			}
			ledger = army
			cancel_if_invalid = no
			ai_will_do = {
			factor = 1
			}
			traits = {
				school_of_manoeuvre
				cos
			}
		}
	}
	navy_chief = {
		CHI_con_Chen_Shaokuan = {
			picture = Chen_Shaokuan
			allowed = {
				original_tag = CHI
			}
			cancel_if_invalid = no
			available = {}
			cancel_if_invalid = no
			ai_will_do = {
			factor = 1
			}
			traits = {
				power_projection_doctrine
				#none
				con
			}
		}
		CHI_con_Gui_Yongqing = {
			picture = Gui_Yongqing
			allowed = {
				original_tag = CHI
			}
			cancel_if_invalid = no
			available = {}
			cancel_if_invalid = no
			ai_will_do = {
			factor = 1
			}
			traits = {
				political_admiral
				con
			}
		}
		CHI_con_Chan_Chak = {
			picture = Chan_Chak
			allowed = {
				original_tag = CHI
			}
			cancel_if_invalid = no
			available = {}
			cancel_if_invalid = no
			ai_will_do = {
			factor = 1
			}
			traits = {
				minelayer
				con
			}
		}
		CHI_con_Honglie_Shen = {
			picture = Shen_Honglie
			allowed = {
				original_tag = CHI
			}
			cancel_if_invalid = no
			available = {}
			cancel_if_invalid = no
			ai_will_do = {
			factor = 1
			}
			traits = {
				navigator
				con
			}
		}
	}
	air_chief = {
		CHI_coaf_Mao_Bangchu = {
			#picture = Mao_Bangchu
			allowed = {
				original_tag = CHI
			}
			cancel_if_invalid = no
			available = {}
			cancel_if_invalid = no
			ai_will_do = {
			factor = 1
			}
			traits = {
				political_aviator
				coaf
			}
		}
		CHI_coaf_Zhou_Zhirou = {
			#picture = Zhou_Zhirou
			allowed = {
				original_tag = CHI
			}
			cancel_if_invalid = no
			available = {}
			cancel_if_invalid = no
			ai_will_do = {
			factor = 1
			}
			traits = {
				political_aviator
				coaf
			}
		}
		CHI_coaf_Huang_Guangrui = {
			#picture = Huang_Guangrui
			allowed = {
				original_tag = CHI
			}
			cancel_if_invalid = no
			available = {}
			cancel_if_invalid = no
			ai_will_do = {
			factor = 1
			}
			traits = {
				technological_expert 
				coaf
			}
		}
		CHI_coaf_Chen_Qingyun = {
			#picture = Chen_Qingyun
			allowed = {
				original_tag = CHI
			}
			cancel_if_invalid = no
			available = {}
			cancel_if_invalid = no
			ai_will_do = {
			factor = 1
			}
			traits = {
				political_aviator
				coaf
			}
		}
		CHI_coaf_Zhang_Tingmeng = {
			#picture = Zhang_Tingmeng
			allowed = {
				original_tag = CHI
			}
			cancel_if_invalid = no
			available = {}
			cancel_if_invalid = no
			ai_will_do = {
			factor = 1
			}
			traits = {
				battlefield_support_doctrine
				coaf
			}
		}
		CHI_coaf_Gao_Zhihang = {
			#picture = Gao_Zhihang
			allowed = {
				original_tag = CHI
			}
			cancel_if_invalid = no
			available = {}
			cancel_if_invalid = no
			ai_will_do = {
			factor = 1
			}
			traits = {
				air_superiority_doctrine
				coaf
			}
		}
	}	
}