##This is VERY Legacy code written in 2018
##It's been disabled, but most of it should be removed, especially the communist and fascist stuff
##The democracy stuff can be salvaged as a reference though
## - s_team, 17 June 2020
focus_tree = {
	id = Denmark
	country = {
		factor = 0
	}
	default = no
	continuous_focus_position = { x = 50 y = 1500 }
	focus = {
		id = DEN_kanslergade
		icon = GFX_focus_Kanslergade_Meeting
		cost = 0
		x = 7.5
		y = 0
		bypass = {
			has_country_flag = kanslergade_begin
		}
		available = {
		has_country_flag = kanslergade_begin
		}
	}
	focus = {
		id = DEN_socialreformen
		icon = GFX_goal_continuous_increase_nu
		cost = 8.00
		mutually_exclusive = {
			focus = DEN_moollerplanen
		}
		available = {
		has_country_flag = kanslergade_success
		}
		x = 14
		y = 0
	}
	focus = {
		id = DEN_labourcrisis
		icon = GFX_focus_Workers_Support
		cost = 0.00
		x = 24
		y = 0
		available = {
		has_country_flag = DEN_lockout_oh_no
		}
		bypass = {
			has_country_flag = DEN_lockout_oh_no
		}
	}
	focus = {
		id = DEN_depressionover
		icon = GFX_focus_Danish_Industry
		cost = 8.00
		x = 29
		y = 0
		available = {
		NOT = { has_idea = DEN_idea_economic_crisis }
		}
	}
	focus = {
		id = DEN_fundthebanks
		icon = GFX_focus_Money_Bags
		cost = 8.00
		x = 34
		y = 0
		available = {
		has_country_flag = DEN_monarchy_economy_path_allowed
		}

	}
	focus = {
		id = DEN_fiveyearplan
		icon = GFX_focus_generic_socialist_science
		cost = 8.00
		x = 39
		y = 0
		available = {
		has_country_flag = DEN_commies_economy_path_allowed
		}
	}
	focus = {
		id = DEN_arbejdsfront
		icon = GFX_goal_generic_forceful_treaty
		cost = 8.00
		x = 44
		y = 0
		available = {
		has_country_flag = DEN_fascist_economy_path_allowed
		}

	}
	focus = {
		id = DEN_forsvaret
		icon = GFX_focus_generic_little_entente
		cost = 4.00
		x = 59
		y = 0
		available = {
		NOT = { has_idea = DEN_idea_economic_crisis }
		}

	}
	focus = {
		id = DEN_moollerplanen
		icon = GFX_focus_generic_the_giant_wakes
		cost = 8.00
		mutually_exclusive = {
			focus = DEN_socialreformen
		}
		available = {
		has_country_flag = conservative_offer
		}
		x = 20
		y = 0

	}
	focus = {
		id = DEN_kanslergadeagree
		icon = GFX_goal_generic_improve_relations
		cost = 0.00
		prerequisite = {
			focus = DEN_kanslergade
		}
		mutually_exclusive = {
			focus = DEN_kanslergadefail
		}
		bypass = {
			has_country_flag = kanslergade_success
		}
		available = {
			has_country_flag = kanslergade_success
		}
		x = 5
		y = 1
	}
	focus = {
		id = DEN_kanslergadefail
		icon = GFX_goal_generic_dangerous_deal
		cost = 0.00
		prerequisite = {
			focus = DEN_kanslergade
		}
		mutually_exclusive = {
			focus = DEN_kanslergadeagree
		}
		bypass = {
			has_country_flag = kanslergade_nope
		}
		available = {
			has_country_flag = kanslergade_nope
		}
		x = 10
		y = 1
	}
	focus = {
		id = DEN_35elections
		icon = GFX_focus_generic_diplomatic_treaty
		cost = 0.00
		prerequisite = {
			focus = DEN_kanslergadeagree
			focus = DEN_kanslergadefail
		}
		bypass = {
			has_country_flag = DEN_elections35
		}
		available = {
			has_country_flag = DEN_elections35
		}
		x = 7
		y = 2
	}
	focus = {
		id = DEN_socialdemokratvictory
		icon = GFX_goal_support_democracy
		cost = 0.00
		prerequisite = {
			focus = DEN_kanslergadeagree
		}
		prerequisite = {
			focus = DEN_35elections
		}
		x = 4
		y = 4
	}
	focus = {
		id = DEN_socdemradikale
		icon = GFX_focus_generic_support_the_left_right
		cost = 10.00
		prerequisite = {
			focus = DEN_socialdemokratvictory
		}
		x = 1
		y = 5

	}
	focus = {
		id = DEN_socdemneutral
		icon = GFX_focus_Pacifist_State
		cost = 10.00
		prerequisite = {
			focus = DEN_socialdemokratvictory
		}
		mutually_exclusive = {
			focus = DEN_scandinavianneutrality
		}
		x = 7
		y = 5

	}
	focus = {
		id = DEN_spendingcuts
		icon = GFX_focus_Bluff
		cost = 10.00
		prerequisite = {
			focus = DEN_socdemneutral
		}
		x = 8
		y = 6

	}
	focus = {
		id = DEN_radikalevictory
		icon = GFX_goal_support_democracy
		cost = 0.00
		prerequisite = {
			focus = DEN_35elections
		}
		prerequisite = {
			focus = DEN_kanslergadefail
		}
		x = 11
		y = 4

	}
	focus = {
		id = DEN_armedneutrality
		icon = GFX_focus_generic_little_entente
		cost = 3.00
		prerequisite = {
			focus = DEN_radikalevictory
		}
		mutually_exclusive = {
			focus = DEN_abandonneutrality
		}
		x = 10
		y = 5

	}
	focus = {
		id = DEN_abandonneutrality
		icon = GFX_focus_secret_rearmament
		cost = 5.00
		prerequisite = {
			focus = DEN_radikalevictory
		}
		mutually_exclusive = {
			focus = DEN_armedneutrality
		}
		x = 13
		y = 5

	}
	focus = {
		id = DEN_militrayfunding
		icon = GFX_goal_rhineland
		cost = 4.00
		prerequisite = {
			focus = DEN_armedneutrality
			focus = DEN_abandonneutrality
		}
		x = 11
		y = 6

	}
	focus = {
		id = DEN_dannevirke
		icon = GFX_goal_generic_fortify_city
		cost = 6.00
		prerequisite = {
			focus = DEN_armedneutrality
			focus = DEN_abandonneutrality
		}
		x = 13
		y = 6

	}
	focus = {
		id = DEN_lookforprotection
		icon = GFX_goal_generic_improve_relations
		cost = 2.00
		prerequisite = {
			focus = DEN_militrayfunding
		}
		prerequisite = {
			focus = DEN_dannevirke
		}
		prerequisite = {
			focus = DEN_abandonneutrality
		}
		x = 12
		y = 7

	}
	focus = {
		id = DEN_alliancewithgermany
		icon = GFX_focus_generic_diplomatic_treaty
		cost = 0.00
		prerequisite = {
			focus = DEN_lookforprotection
		}
		mutually_exclusive = {
			focus = DEN_alliancewithfrance
			focus = DEN_alliancewithbritain
			focus = DEN_alliancewithpoland
		}
		x = 9
		y = 8

	}
	focus = {
		id = DEN_alliancewithfrance
		icon = GFX_focus_generic_diplomatic_treaty
		cost = 0.00
		prerequisite = {
			focus = DEN_lookforprotection
		}
		mutually_exclusive = {
			focus = DEN_alliancewithgermany
			focus = DEN_alliancewithbritain
			focus = DEN_alliancewithpoland
		}
		x = 11
		y = 8

	}
	focus = {
		id = DEN_outlawstrikes
		icon = GFX_goal_generic_forceful_treaty
		cost = 7.00
		prerequisite = {
			focus = DEN_socialreformen
		}
		x = 13
		y = 1

	}
	focus = {
		id = DEN_tradeagreement
		icon = GFX_goal_generic_occupy_states_coastal
		cost = 6.00
		prerequisite = {
			focus = DEN_outlawstrikes
		}
		x = 13
		y = 2

	}
	focus = {
		id = DEN_alliancewithbritain
		icon = GFX_focus_generic_diplomatic_treaty
		cost = 0.00
		prerequisite = {
			focus = DEN_lookforprotection
		}
		mutually_exclusive = {
			focus = DEN_alliancewithgermany
			focus = DEN_alliancewithfrance
			focus = DEN_alliancewithpoland
		}
		x = 13
		y = 8

	}
	focus = {
		id = DEN_britishnavaltreaty
		icon = GFX_goal_generic_navy_doctrines_tactics
		cost = 7.00
		prerequisite = {
			focus = DEN_alliancewithbritain
		}
		x = 13
		y = 9

	}
	focus = {
		id = DEN_devaluekrone
		icon = GFX_focus_Root_out_Funding
		cost = 7.00
		prerequisite = {
			focus = DEN_socialreformen
			focus = DEN_moollerplanen
		}
		x = 17
		y = 1

	}
	focus = {
		id = DEN_labourrights
		icon = GFX_goal_generic_positive_trade_relations
		cost = 6.00
		prerequisite = {
			focus = DEN_socialreformen
		}
		prerequisite = {
			focus = DEN_devaluekrone
		}
		x = 15
		y = 2

	}
	focus = {
		id = DEN_welfare
		icon = GFX_goal_generic_national_unity
		cost = 5.00
		prerequisite = {
			focus = DEN_labourrights
		}
		prerequisite = {
			focus = DEN_tradeagreement
		}
		x = 14
		y = 3

	}
	focus = {
		id = DEN_workwithvenstre
		icon = GFX_focus_generic_diplomatic_treaty
		cost = 4.00
		prerequisite = {
			focus = DEN_radikalevictory
		}
		x = 15
		y = 5

	}
	focus = {
		id = DEN_banthednsap
		icon = GFX_goal_generic_attack_allies
		cost = 2.00
		prerequisite = {
			focus = DEN_workwithvenstre
		}
		x = 15
		y = 6

	}
	focus = {
		id = DEN_alliancewithpoland
		icon = GFX_focus_generic_polish_deal
		cost = 0.00
		prerequisite = {
			focus = DEN_lookforprotection
		}
		mutually_exclusive = {
			focus = DEN_alliancewithgermany
			focus = DEN_alliancewithfrance
			focus = DEN_alliancewithbritain
		}
		x = 15
		y = 8

	}
	focus = {
		id = DEN_polishworkers
		icon = GFX_goal_continuous_repairments
		cost = 7.00
		prerequisite = {
			focus = DEN_alliancewithpoland
		}
		x = 15
		y = 9

	}
	focus = {
		id = DEN_newtradepartners
		icon = GFX_goal_generic_positive_trade_relations
		cost = 6.00
		prerequisite = {
			focus = DEN_devaluekrone
		}
		prerequisite = {
			focus = DEN_moollerplanen
		}
		x = 19
		y = 2

	}
	focus = {
		id = DEN_taxreformsmooller
		icon = GFX_focus_generic_self_management
		cost = 7.00
		prerequisite = {
			focus = DEN_moollerplanen
		}
		x = 21
		y = 1

	}
	focus = {
		id = DEN_rebuildbusinesses
		icon = GFX_goal_generic_consumer_goods
		cost = 6.00
		prerequisite = {
			focus = DEN_taxreformsmooller
		}
		x = 21
		y = 2

	}
	focus = {
		id = DEN_supportthefarmers
		icon = GFX_goal_generic_construction2
		cost = 5.00
		prerequisite = {
			focus = DEN_newtradepartners
		}
		prerequisite = {
			focus = DEN_rebuildbusinesses
		}
		x = 20
		y = 3

	}
	focus = {
		id = DEN_govermentcollapses
		icon = GFX_goal_generic_forceful_treaty
		cost = 0.00
		prerequisite = {
			focus = DEN_labourcrisis
		}
		bypass = {
			has_country_flag = goverment_died
		}
		available = {
			has_country_flag = goverment_died
		}
		x = 24
		y = 3

	}
	focus = {
		id = DEN_thekingsteps
		icon = GFX_focus_hun_elect_a_king
		cost = 0.00
		prerequisite = {
			focus = DEN_govermentcollapses
		}
		bypass = {
			has_country_flag = chose_king
		}
		available = {
			has_country_flag = chose_king
		}
		x = 24
		y = 4
	}
	focus = {
		id = DEN_purgedisloyalarmymen
		icon = GFX_focus_Into_the_Flames
		cost = 4.00
		prerequisite = {
			focus = DEN_thekingsteps
		}
		x = 17
		y = 6

	}
	focus = {
		id = DEN_appointroyalgoverment
		icon = GFX_focus_AST_rats_tobruk
		cost = 10.00
		prerequisite = {
			focus = DEN_thekingsteps
		}
		x = 21
		y = 5

	}
	focus = {
		id = DEN_appointkonservative
		icon = GFX_focus_rom_parties_end
		cost = 3.00
		prerequisite = {
			focus = DEN_appointroyalgoverment
		}
		mutually_exclusive = {
			focus = DEN_gowitharmy
		}
		x = 23
		y = 6

	}
	focus = {
		id = DEN_crushradicals
		icon = GFX_focus_Crush_Resistance
		cost = 3.00
		prerequisite = {
			focus = DEN_thekingsteps
		}
		x = 25
		y = 5

	}
	focus = {
		id = DEN_limitfreespeech
		icon = GFX_focus_Subterfuge
		cost = 4.00
		prerequisite = {
			focus = DEN_crushradicals
		}
		x = 25
		y = 6

	}
	focus = {
		id = DEN_discreditsocdems
		icon = GFX_goal_continuous_def_against_influence
		cost = 2.00
		prerequisite = {
			focus = DEN_limitfreespeech
		}
		x = 25
		y = 7

	}
	focus = {
		id = DEN_newprisons
		icon = GFX_goal_generic_defence
		cost = 6.00
		prerequisite = {
			focus = DEN_limitfreespeech
		}
		x = 27
		y = 7

	}
	focus = {
		id = DEN_stricterlaws
		icon = GFX_goal_continuous_boost_freedom
		cost = 4.00
		prerequisite = {
			focus = DEN_crushradicals
		}
		x = 27
		y = 6

	}
	focus = {
		id = DEN_abandongrundlov
		icon = GFX_focus_Reichstag_Fire_Decree
		cost = 8.00
		prerequisite = {
			focus = DEN_newprisons
		}
		prerequisite = {
			focus = DEN_stricterlaws
		}
		x = 26
		y = 8

	}
	focus = {
		id = DEN_civlindustryI
		icon = GFX_goal_generic_construct_civ_factory
		cost = 7.00
		prerequisite = {
			focus = DEN_depressionover
		}
		x = 28
		y = 1

	}
	focus = {
		id = DEN_civlindustryII
		icon = GFX_goal_generic_construct_civ_factory
		cost = 7.00
		prerequisite = {
			focus = DEN_civlindustryI
		}
		mutually_exclusive = {
			focus = DEN_militaryindustryII
		}
		x = 28
		y = 2

	}
	focus = {
		id = DEN_civlindustryIII
		icon = GFX_goal_generic_construct_civ_factory
		cost = 7.00
		prerequisite = {
			focus = DEN_civlindustryII
		}
		x = 28
		y = 3

	}
	focus = {
		id = DEN_militaryindustryI
		icon = GFX_goal_generic_construct_mil_factory
		cost = 7.00
		prerequisite = {
			focus = DEN_depressionover
		}
		x = 30
		y = 1

	}
	focus = {
		id = DEN_militaryindustryII
		icon = GFX_goal_generic_construct_mil_factory
		cost = 7.00
		prerequisite = {
			focus = DEN_militaryindustryI
		}
		mutually_exclusive = {
			focus = DEN_civlindustryII
		}
		x = 30
		y = 2

	}
	focus = {
		id = DEN_militaryindustryIII
		icon = GFX_goal_generic_construct_mil_factory
		cost = 7.00
		prerequisite = {
			focus = DEN_militaryindustryII
		}
		x = 30
		y = 3

	}
	focus = {
		id = DEN_goldenage
		icon = GFX_focus_Extravagance
		cost = 8.00
		prerequisite = {
			focus = DEN_thekingsteps
		}
		x = 31
		y = 5

	}
	focus = {
		id = DEN_littlemanjobs
		icon = GFX_goal_generic_demand_territory
		cost = 7.00
		prerequisite = {
			focus = DEN_goldenage
		}
		x = 30
		y = 6

	}
	focus = {
		id = DEN_publicworks
		icon = GFX_goal_generic_construction2
		cost = 3.00
		prerequisite = {
			focus = DEN_littlemanjobs
		}
		x = 29
		y = 7

	}
	focus = {
		id = DEN_rebuildbank
		icon = GFX_focus_Kanslergade_Meeting
		cost = 7.00
		prerequisite = {
			focus = DEN_goldenage
		}
		x = 31
		y = 7

	}
	focus = {
		id = DEN_protectionism
		icon = GFX_goal_generic_defence
		cost = 7.00
		prerequisite = {
			focus = DEN_goldenage
		}
		x = 32
		y = 6

	}
	focus = {
		id = DEN_massiveconstructs
		icon = GFX_goal_generic_construct_civilian
		cost = 7.00
		prerequisite = {
			focus = DEN_fundthebanks
		}
		x = 33
		y = 1

	}
	focus = {
		id = DEN_storbeltbro
		icon = GFX_goal_generic_construction2
		cost = 6.00
		prerequisite = {
			focus = DEN_massiveconstructs
		}
		x = 33
		y = 2

	}
	focus = {
		id = DEN_increasetariffs
		icon = GFX_goal_generic_positive_trade_relations
		cost = 3.00
		prerequisite = {
			focus = DEN_protectionism
		}
		x = 33
		y = 7

	}
	focus = {
		id = DEN_imperialindustry
		icon = GFX_goal_generic_construction
		cost = 5.00
		prerequisite = {
			focus = DEN_publicworks
		}
		prerequisite = {
			focus = DEN_rebuildbank
		}
		x = 31
		y = 8

	}
	focus = {
		id = DEN_newtrade
		icon = GFX_goal_generic_positive_trade_relations
		cost = 7.00
		prerequisite = {
			focus = DEN_fundthebanks
		}
		x = 35
		y = 1

	}
	focus = {
		id = DEN_pigmeat
		icon = GFX_goal_generic_positive_trade_relations
		cost = 6.00
		prerequisite = {
			focus = DEN_newtrade
		}
		x = 35
		y = 2

	}
	focus = {
		id = DEN_monarchynodepression
		icon = GFX_goal_generic_consumer_goods
		cost = 8.00
		prerequisite = {
			focus = DEN_storbeltbro
		}
		prerequisite = {
			focus = DEN_pigmeat
		}
		x = 34
		y = 3

	}
	focus = {
		id = DEN_dkpvictory
		icon = GFX_focus_generic_join_comintern
		cost = 0.00
		prerequisite = {
			focus = DEN_govermentcollapses
		}
		bypass = {
			has_country_flag = chose_dkp
		}
		available = {
			has_country_flag = chose_dkp
		}
		x = 37
		y = 4
	}
	focus = {
		id = DEN_dissolvemonarchy
		icon = GFX_focus_Purge_the_Monarchy
		cost = 1
		prerequisite = {
			focus = DEN_dkpvictory
		}
		x = 37
		y = 5

	}
	focus = {
		id = DEN_farmercollectives
		icon = GFX_goal_generic_soviet_construction
		cost = 7.00
		prerequisite = {
			focus = DEN_fiveyearplan
		}
		x = 38
		y = 1

	}
	focus = {
		id = DEN_feedthecities
		icon = GFX_focus_generic_join_comintern
		cost = 6.00
		prerequisite = {
			focus = DEN_farmercollectives
		}
		x = 38
		y = 2

	}
	focus = {
		id = DEN_fabriksbyer
		icon = GFX_focus_Factory_Town
		cost = 7.00
		prerequisite = {
			focus = DEN_fiveyearplan
		}
		x = 40
		y = 1

	}
	focus = {
		id = DEN_publicmonuments
		icon = GFX_goal_support_communism
		cost = 6.00
		prerequisite = {
			focus = DEN_fabriksbyer
		}
		x = 40
		y = 2

	}
	focus = {
		id = DEN_replacerif
		icon = GFX_focus_generic_soviet_politics
		cost = 8.00
		prerequisite = {
			focus = DEN_feedthecities
		}
		prerequisite = {
			focus = DEN_publicmonuments
		}
		x = 39
		y = 3

	}
	focus = {
		id = DEN_redmilitias
		icon = GFX_focus_Workers_Support
		cost = 3.00
		prerequisite = {
			focus = DEN_dkpvictory
		}
		x = 39
		y = 5

	}
	focus = {
		id = DEN_abandonmoscow
		icon = GFX_goal_support_fourth_int
		cost = 2.00
		prerequisite = {
			focus = DEN_redmilitias
		}
		prerequisite = {
			focus = DEN_dissolvemonarchy
		}
		mutually_exclusive = {
			focus = DEN_joincomintern
		}
		x = 40
		y = 6

	}
	focus = {
		id = DEN_joincomintern
		icon = GFX_focus_Appeal_to_Stalin
		cost = 2.00
		prerequisite = {
			focus = DEN_redmilitias
		}
		mutually_exclusive = {
			focus = DEN_abandonmoscow
		}
		x = 36
		y = 6

	}
	focus = {
		id = DEN_socialistcongress
		icon = GFX_focus_generic_soviet_politics
		cost = 14.00
		prerequisite = {
			focus = DEN_joincomintern
			focus = DEN_abandonmoscow
		}
		x = 38
		y = 7

	}
	focus = {
		id = DEN_socdemmerger
		icon = GFX_focus_generic_soviet_politics
		cost = 6.00
		prerequisite = {
			focus = DEN_socialistcongress
		}
		mutually_exclusive = {
			focus = DEN_destroyoldorder
		}
		x = 35
		y = 9

	}
	focus = {
		id = DEN_civilprotectionact
		icon = GFX_goal_generic_forceful_treaty
		cost = 6.00
		prerequisite = {
			focus = DEN_socialistcongress
		}
		x = 37
		y = 9

	}
	focus = {
		id = DEN_rif
		icon = GFX_goal_generic_soviet_construction
		cost = 4.00
		prerequisite = {
			focus = DEN_socialistcongress
		}
		x = 40
		y = 9

	}
	focus = {
		id = DEN_tradeunionswhat
		icon = GFX_focus_generic_join_comintern
		cost = 4.00
		prerequisite = {
			focus = DEN_rif
		}
		x = 40
		y = 10

	}
	focus = {
		id = DEN_nationalizeefforts
		icon = GFX_goal_generic_soviet_construction
		cost = 7.00
		prerequisite = {
			focus = DEN_rif
		}
		x = 42
		y = 10

	}
	focus = {
		id = DEN_seizewealthcommunist
		icon = GFX_goal_support_communism
		cost = 3.00
		prerequisite = {
			focus = DEN_nationalizeefforts
		}
		x = 41
		y = 11

	}
	focus = {
		id = DEN_farmcollect
		icon = GFX_focus_Agriculture
		cost = 7.00
		prerequisite = {
			focus = DEN_rif
		}
		x = 44
		y = 10

	}
	focus = {
		id = DEN_dissolvecommunes
		icon = GFX_goal_anti_comintern_pact
		cost = 5.00
		prerequisite = {
			focus = DEN_commiedissolveamts
		}
		mutually_exclusive = {
			focus = DEN_centralcommunes
			focus = DEN_expandcommunes
		}
		x = 41
		y = 12

	}
	focus = {
		id = DEN_killfascists
		icon = GFX_goal_support_communism
		cost = 2.00
		prerequisite = {
			focus = DEN_socialistcongress
		}
		x = 42
		y = 9

	}
	focus = {
		id = DEN_bunkerseverywhere
		icon = GFX_goal_generic_fortify_city
		cost = 7.00
		prerequisite = {
			focus = DEN_arbejdsfront
		}
		x = 43
		y = 1

	}
	focus = {
		id = DEN_gunineveryhand
		icon = GFX_goal_generic_construct_mil_factory
		cost = 6.00
		prerequisite = {
			focus = DEN_bunkerseverywhere
		}
		x = 43
		y = 2

	}
	focus = {
		id = DEN_commiedissolveamts
		icon = GFX_focus_generic_join_comintern
		cost = 8.00
		prerequisite = {
			focus = DEN_nationalizeefforts
			focus = DEN_farmcollect
		}
		x = 43
		y = 11

	}
	focus = {
		id = DEN_centralcommunes
		icon = GFX_focus_generic_soviet_politics
		cost = 5.00
		prerequisite = {
			focus = DEN_commiedissolveamts
		}
		mutually_exclusive = {
			focus = DEN_dissolvecommunes
			focus = DEN_expandcommunes
		}
		x = 43
		y = 12

	}
	focus = {
		id = DEN_expandcommunes
		icon = GFX_goal_generic_war_with_comintern
		cost = 5.00
		prerequisite = {
			focus = DEN_commiedissolveamts
		}
		mutually_exclusive = {
			focus = DEN_centralcommunes
			focus = DEN_dissolvecommunes
		}
		x = 45
		y = 12

	}
	focus = {
		id = DEN_refineries
		icon = GFX_goal_generic_oil_refinery
		cost = 7.00
		prerequisite = {
			focus = DEN_arbejdsfront
		}
		x = 45
		y = 1

	}
	focus = {
		id = DEN_visitvillages
		icon = GFX_goal_generic_demand_territory
		cost = 6.00
		prerequisite = {
			focus = DEN_refineries
		}
		x = 45
		y = 2

	}
	focus = {
		id = DEN_nationalmobilization 
		icon = GFX_goal_generic_axis_build_infantry
		cost = 8.00
		prerequisite = {
			focus = DEN_gunineveryhand
		}
		prerequisite = {
			focus = DEN_visitvillages
		}
		x = 44
		y = 3

	}
	focus = {
		id = DEN_dnsapvictory
		icon = GFX_goal_support_fascism
		cost = 0.00
		prerequisite = {
			focus = DEN_govermentcollapses
		}
		bypass = {
			has_country_flag = chose_nazi
		}
		available = {
			has_country_flag = chose_nazi
		}
		x = 47
		y = 4
	}
	focus = {
		id = DEN_fascistmonarchy
		icon = GFX_focus_Repress_Crush_the_Monarchy
		cost = 4.00
		prerequisite = {
			focus = DEN_dnsapvictory
		}
		completion_reward = {
			country_event = { id = denmark.10 }
		}
		x = 46
		y = 5

	}
	focus = {
		id = DEN_bancommies
		icon = GFX_focus_The_Noose
		cost = 3.00
		prerequisite = {
			focus = DEN_dnsapvictory
		}
		x = 48
		y = 5

	}
	focus = {
		id = DEN_magtovergiv
		icon = GFX_focus_Repress_Freedom
		cost = 2.00
		prerequisite = {
			focus = DEN_fascistmonarchy
		}
		prerequisite = {
			focus = DEN_bancommies
		}
		x = 47
		y = 6

	}
	focus = {
		id = DEN_hildfuhrer
		icon = GFX_focus_Dark_Arms
		cost = 2.00
		prerequisite = {
			focus = DEN_magtovergiv
		}
		x = 47
		y = 7

	}
	focus = {
		id = DEN_nsu
		icon = GFX_goal_support_fascism
		cost = 3.00
		prerequisite = {
			focus = DEN_hildfuhrer
		}
		x = 45
		y = 8

	}
	focus = {
		id = DEN_purgedisloyalarmy
		icon = GFX_focus_Into_the_Flames
		cost = 3.00
		prerequisite = {
			focus = DEN_hildfuhrer
		}
		x = 47
		y = 8

	}
	focus = {
		id = DEN_arnyindoc
		icon = GFX_focus_generic_little_entente
		cost = 4.00
		prerequisite = {
			focus = DEN_purgedisloyalarmy
		}
		x = 47
		y = 9

	}
	focus = {
		id = DEN_nazischools
		icon = GFX_goal_rhineland
		cost = 4.00
		prerequisite = {
			focus = DEN_nsu
		}
		x = 45
		y = 9

	}
	focus = {
		id = DEN_nationwiderallies
		icon = GFX_goal_support_fascism
		cost = 3.00
		prerequisite = {
			focus = DEN_hildfuhrer
		}
		x = 49
		y = 8

	}
	focus = {
		id = DEN_statemedia
		icon = GFX_goal_generic_radar
		cost = 4.00
		prerequisite = {
			focus = DEN_nationwiderallies
		}
		x = 49
		y = 9

	}
	focus = {
		id = DEN_loyalrige
		icon = GFX_goal_generic_secret_weapon
		cost = 6.00
		prerequisite = {
			focus = DEN_arnyindoc
		}
		prerequisite = {
			focus = DEN_statemedia
		}
		prerequisite = {
			focus = DEN_nazischools
		}
		x = 47
		y = 10

	}
	focus = {
		id = DEN_haaren
		icon = GFX_goal_generic_axis_build_infantry
		cost = 1.00
		prerequisite = {
			focus = DEN_forsvaret
		}
		x = 54
		y = 1

	}
	focus = {
		id = DEN_folkehaaren
		icon = GFX_focus_Red_Army
		cost = 6.00
		prerequisite = {
			focus = DEN_haaren
		}
		mutually_exclusive = {
			focus = DEN_rigsvaarnet
		}
		x = 52
		y = 2

	}
	focus = {
		id = DEN_fascistfolketing
		icon = GFX_focus_Reichstag_Fire_Decree
		cost = 4.00
		prerequisite = {
			focus = DEN_magtovergiv
		}
		x = 54
		y = 7

	}
	focus = {
		id = DEN_partyban
		icon = GFX_goal_continuous_suppression
		cost = 6.00
		prerequisite = {
			focus = DEN_fascistfolketing
		}
		mutually_exclusive = {
			focus = DEN_promoterigsting
		}
		x = 53
		y = 8

	}
	focus = {
		id = DEN_rigsvaarnet
		icon = GFX_focus_Dark_Arms
		cost = 6.00
		prerequisite = {
			focus = DEN_haaren
		}
		mutually_exclusive = {
			focus = DEN_modernizethearmy
			focus = DEN_folkehaaren
		}
		x = 54
		y = 2

	}
	focus = {
		id = DEN_modernizethearmy
		icon = GFX_focus_secret_rearmament
		cost = 6.00
		prerequisite = {
			focus = DEN_haaren
		}
		mutually_exclusive = {
			focus = DEN_rigsvaarnet
		}
		x = 56
		y = 2

	}
	focus = {
		id = DEN_mobilewarfare
		icon = GFX_goal_generic_army_tanks
		cost = 5.00
		prerequisite = {
			focus = DEN_rigsvaarnet
			focus = DEN_folkehaaren
			focus = DEN_modernizethearmy
		}
		mutually_exclusive = {
			focus = DEN_superiorfirepower
			focus = DEN_grandbattleplan
		}
		x = 54
		y = 3

	}
	focus = {
		id = DEN_superiorfirepower
		icon = GFX_goal_generic_army_artillery2
		cost = 5.00
		prerequisite = {
			focus = DEN_folkehaaren
			focus = DEN_rigsvaarnet
			focus = DEN_modernizethearmy
		}
		mutually_exclusive = {
			focus = DEN_mobilewarfare
			focus = DEN_grandbattleplan
		}
		x = 51
		y = 3

	}
	focus = {
		id = DEN_learnfromthegreatwar
		icon = GFX_goal_generic_army_artillery
		cost = 6.00
		prerequisite = {
			focus = DEN_superiorfirepower
		}
		x = 52
		y = 4

	}
	focus = {
		id = DEN_mechanized
		icon = GFX_goal_generic_army_motorized
		cost = 6.00
		prerequisite = {
			focus = DEN_mobilewarfare
		}
		x = 54
		y = 4

	}
	focus = {
		id = DEN_lynkrig
		icon = GFX_focus_generic_license_production
		cost = 7.00
		prerequisite = {
			focus = DEN_mechanized
		}
		x = 54
		y = 5

	}
	focus = {
		id = DEN_promoterigsting
		icon = GFX_goal_anschluss
		cost = 6.00
		prerequisite = {
			focus = DEN_fascistfolketing
		}
		mutually_exclusive = {
			focus = DEN_partyban
		}
		x = 55
		y = 8

	}
	focus = {
		id = DEN_removeourenemies
		icon = GFX_focus_Fascist_Subterfuge
		cost = 3.00
		prerequisite = {
			focus = DEN_partyban
			focus = DEN_promoterigsting
		}
		x = 54
		y = 9

	}
	focus = {
		id = DEN_nofreespeech
		icon = GFX_focus_A_Deadly_Deal
		cost = 4.00
		prerequisite = {
			focus = DEN_partyban
		}
		x = 52
		y = 9

	}
	focus = {
		id = DEN_rigelection
		icon = GFX_focus_generic_self_management
		cost = 4.00
		prerequisite = {
			focus = DEN_promoterigsting
		}
		x = 56
		y = 9

	}
	focus = {
		id = DEN_unitedrige
		icon = GFX_goal_continuous_restrict_freedom
		cost = 6.00
		prerequisite = {
			focus = DEN_nofreespeech
			focus = DEN_rigelection
		}
		prerequisite = {
			focus = DEN_removeourenemies
		}
		x = 54
		y = 10

	}
	focus = {
		id = DEN_grandbattleplan
		icon = GFX_goal_generic_army_doctrines
		cost = 5.00
		prerequisite = {
			focus = DEN_modernizethearmy
			focus = DEN_rigsvaarnet
			focus = DEN_folkehaaren
		}
		mutually_exclusive = {
			focus = DEN_mobilewarfare
			focus = DEN_superiorfirepower
		}
		x = 57
		y = 3

	}
	focus = {
		id = DEN_generalstaff
		icon = GFX_goal_generic_cavalry
		cost = 6.00
		prerequisite = {
			focus = DEN_grandbattleplan
		}
		x = 56
		y = 4

	}
	focus = {
		id = DEN_defensivewarfare
		icon = GFX_goal_generic_military_sphere
		cost = 7.00
		prerequisite = {
			focus = DEN_generalstaff
		}
		x = 57
		y = 5

	}
	focus = {
		id = DEN_declarerige
		icon = GFX_goal_support_fascism
		cost = 2.00
		prerequisite = {
			focus = DEN_magtovergiv
		}
		x = 61
		y = 7

	}
	focus = {
		id = DEN_naziwelfare
		icon = GFX_goal_generic_national_unity
		cost = 3.00
		prerequisite = {
			focus = DEN_declarerige
		}
		x = 58
		y = 8

	}
	focus = {
		id = DEN_flyvertropper
		icon = GFX_goal_generic_build_airforce
		cost = 1.00
		prerequisite = {
			focus = DEN_forsvaret
		}
		x = 60
		y = 1

	}
	focus = {
		id = DEN_modernfighters
		icon = GFX_goal_generic_air_fighter
		cost = 6.00
		prerequisite = {
			focus = DEN_flyvertropper
		}
		x = 60
		y = 2

	}
	focus = {
		id = DEN_airsupport
		icon = GFX_goal_generic_air_fighter2
		cost = 6.00
		prerequisite = {
			focus = DEN_modernfighters
		}
		mutually_exclusive = {
			focus = DEN_tacticalbombing
		}
		x = 59
		y = 3

	}
	focus = {
		id = DEN_marienflyvevaasen
		icon = GFX_goal_generic_air_naval_bomber
		cost = 6.00
		prerequisite = {
			focus = DEN_modernfighters
		}
		x = 60
		y = 4

	}
	focus = {
		id = DEN_tacticalbombing
		icon = GFX_goal_generic_air_bomber
		cost = 6.00
		prerequisite = {
			focus = DEN_modernfighters
		}
		mutually_exclusive = {
			focus = DEN_airsupport
		}
		x = 61
		y = 3

	}
	focus = {
		id = DEN_thenewairfoce
		icon = GFX_goal_generic_air_doctrine
		cost = 7.00
		prerequisite = {
			focus = DEN_airsupport
			focus = DEN_tacticalbombing
		}
		prerequisite = {
			focus = DEN_marienflyvevaasen
		}
		x = 60
		y = 5

	}
	focus = {
		id = DEN_newbureaucracy
		icon = GFX_goal_generic_construct_civ_factory
		cost = 6.00
		prerequisite = {
			focus = DEN_declarerige
		}
		x = 60
		y = 8

	}
	focus = {
		id = DEN_autarkyfascist
		icon = GFX_goal_generic_consumer_goods
		cost = 6.00
		prerequisite = {
			focus = DEN_declarerige
		}
		x = 62
		y = 8

	}
	focus = {
		id = DEN_fascistindustry
		icon = GFX_goal_generic_construction2
		cost = 4.00
		prerequisite = {
			focus = DEN_newbureaucracy
		}
		prerequisite = {
			focus = DEN_autarkyfascist
		}
		mutually_exclusive = {
			focus = DEN_privatesector
		}
		x = 61
		y = 9

	}
	focus = {
		id = DEN_rigsbank
		icon = GFX_goal_generic_intelligence_exchange
		cost = 4.00
		prerequisite = {
			focus = DEN_newbureaucracy
		}
		x = 59
		y = 9

	}
	focus = {
		id = DEN_privatesector
		icon = GFX_goal_generic_positive_trade_relations
		cost = 4.00
		prerequisite = {
			focus = DEN_newbureaucracy
		}
		prerequisite = {
			focus = DEN_autarkyfascist
		}
		mutually_exclusive = {
			focus = DEN_fascistindustry
		}
		x = 63
		y = 9

	}
	focus = {
		id = DEN_industryrige
		icon = GFX_focus_Champagne_Repression
		cost = 6.00
		prerequisite = {
			focus = DEN_rigsbank
			focus = DEN_fascistindustry
			focus = DEN_privatesector
		}
		x = 61
		y = 10

	}
	focus = {
		id = DEN_domination
		icon = GFX_focus_WIP
		cost = 1.00
		prerequisite = {
			focus = DEN_loyalrige
			focus = DEN_unitedrige
			focus = DEN_industryrige
		}
		mutually_exclusive = {
			focus = DEN_unitethenorth
			focus = DEN_restoreourhonour
		}
		x = 48
		y = 12

	}
	focus = {
		id = DEN_invadenorway
		icon = GFX_focus_WIP
		cost = 1.00
		prerequisite = {
			focus = DEN_domination
		}
		mutually_exclusive = {
			focus = DEN_hamburgconference
		}
		x = 49
		y = 14

	}
	focus = {
		id = DEN_unitethenorth
		icon = GFX_focus_WIP
		cost = 1.00
		prerequisite = {
			focus = DEN_loyalrige
			focus = DEN_unitedrige
			focus = DEN_industryrige
		}
		mutually_exclusive = {
			focus = DEN_restoreourhonour
			focus = DEN_domination
		}
		x = 54
		y = 12

	}
	focus = {
		id = DEN_danishsupremacy
		icon = GFX_goal_generic_defence
		cost = 1.00
		prerequisite = {
			focus = DEN_unitethenorth
		}
		mutually_exclusive = {
			focus = DEN_nordicsupremacy
		}
		x = 53
		y = 14

	}
	focus = {
		id = DEN_nordicsupremacy
		icon = GFX_goal_generic_military_sphere
		cost = 1.00
		prerequisite = {
			focus = DEN_unitethenorth
		}
		mutually_exclusive = {
			focus = DEN_danishsupremacy
		}
		x = 55
		y = 14

	}
	focus = {
		id = DEN_nordism
		icon = GFX_goal_generic_alliance
		cost = 1.00
		prerequisite = {
			focus = DEN_nordicsupremacy
		}
		x = 56
		y = 15

	}
	focus = {
		id = DEN_restoreourhonour
		icon = GFX_focus_WIP
		cost = 1.00
		prerequisite = {
			focus = DEN_industryrige
			focus = DEN_unitedrige
			focus = DEN_loyalrige
		}
		mutually_exclusive = {
			focus = DEN_unitethenorth
			focus = DEN_domination
		}
		x = 60
		y = 12

	}
	focus = {
		id = DEN_germanfriendship
		icon = GFX_goal_molotov_ribbentrop_pact
		cost = 2.00
		prerequisite = {
			focus = DEN_unitethenorth
			focus = DEN_domination
			focus = DEN_restoreourhonour
		}
		mutually_exclusive = {
			focus = DEN_danmarktilejderen
		}
		x = 50
		y = 13

	}
	focus = {
		id = DEN_danmarktilejderen
		icon = GFX_focus_WIP
		cost = 1.00
		prerequisite = {
			focus = DEN_unitethenorth
			focus = DEN_restoreourhonour
			focus = DEN_domination
		}
		mutually_exclusive = {
			focus = DEN_germanfriendship
		}
		x = 58
		y = 13

	}
	focus = {
		id = DEN_soovaarnet
		icon = GFX_goal_generic_build_navy
		cost = 1.00
		prerequisite = {
			focus = DEN_forsvaret
		}
		x = 64
		y = 1

	}
	focus = {
		id = DEN_dockyards
		icon = GFX_goal_generic_construct_naval_dockyard
		cost = 8.00
		prerequisite = {
			focus = DEN_soovaarnet
		}
		x = 62
		y = 2

	}
	focus = {
		id = DEN_retakescania
		icon = GFX_goal_generic_occupy_states_ongoing_war
		cost = 1.00
		prerequisite = {
			focus = DEN_restoreourhonour
		}
		mutually_exclusive = {
			focus = DEN_fascistfriendsweden
		}
		x = 60
		y = 14

	}
	focus = {
		id = DEN_friendshipwithfinlan
		icon = GFX_goal_molotov_ribbentrop_pact
		cost = 2.00
		prerequisite = {
			focus = DEN_retakescania
		}
		mutually_exclusive = {
			focus = DEN_claimaaland
		}
		x = 62
		y = 15

	}
	focus = {
		id = DEN_destroyersandcruisers
		icon = GFX_goal_generic_navy_cruiser
		cost = 5.00
		prerequisite = {
			focus = DEN_soovaarnet
		}
		x = 64
		y = 2

	}
	focus = {
		id = DEN_submarines
		icon = GFX_goal_generic_navy_anti_submarine
		cost = 6.00
		prerequisite = {
			focus = DEN_destroyersandcruisers
		}
		mutually_exclusive = {
			focus = DEN_grandfleet
		}
		x = 63
		y = 3

	}
	focus = {
		id = DEN_ulvegrupper
		icon = GFX_goal_generic_wolf_pack
		cost = 7.00
		prerequisite = {
			focus = DEN_submarines
		}
		x = 63
		y = 4

	}
	focus = {
		id = DEN_demandoosel
		icon = GFX_goal_generic_forceful_treaty
		cost = 1.00
		prerequisite = {
			focus = DEN_restoreourhonour
		}
		x = 63
		y = 14

	}
	focus = {
		id = DEN_grandfleet
		icon = GFX_goal_generic_navy_battleship
		cost = 6.00
		prerequisite = {
			focus = DEN_destroyersandcruisers
		}
		mutually_exclusive = {
			focus = DEN_submarines
		}
		x = 65
		y = 3

	}
	focus = {
		id = DEN_navalguns
		icon = GFX_goal_generic_navy_cruiser
		cost = 7.00
		prerequisite = {
			focus = DEN_grandfleet
		}
		x = 65
		y = 4

	}
	focus = {
		id = DEN_danishadmiralty
		icon = GFX_goal_generic_navy_doctrines_tactics
		cost = 8.00
		prerequisite = {
			focus = DEN_ulvegrupper
			focus = DEN_navalguns
		}
		x = 64
		y = 5

	}
	focus = {
		id = DEN_communistpurgearmy
		icon = GFX_goal_generic_war_with_comintern
		cost = 4.00
		prerequisite = {
			focus = DEN_destroyoldorder
			focus = DEN_socdemmerger
		}
		x = 32
		y = 10

	}
	focus = {
		id = DEN_destroyoldorder
		icon = GFX_goal_generic_war_with_comintern
		cost = 6.00
		prerequisite = {
			focus = DEN_socialistcongress
		}
		mutually_exclusive = {
			focus = DEN_socdemmerger
		}
		x = 33
		y = 9

	}
	focus = {
		id = DEN_redarmy
		icon = GFX_focus_Communist_Loyalty
		cost = 7.00
		prerequisite = {
			focus = DEN_integrateredmillitias
		}
		prerequisite = {
			focus = DEN_commiespirit
		}
		x = 32
		y = 12

	}
	focus = {
		id = DEN_socialisteducation
		icon = GFX_focus_Communist_Scientists
		cost = 4.00
		prerequisite = {
			focus = DEN_civilprotectionact
		}
		x = 36
		y = 10

	}
	focus = {
		id = DEN_nationalizemedia
		icon = GFX_focus_generic_soviet_politics
		cost = 4.00
		prerequisite = {
			focus = DEN_civilprotectionact
		}
		x = 38
		y = 10

	}
	focus = {
		id = DEN_workersculture
		icon = GFX_goal_generic_soviet_construction
		cost = 4.00
		prerequisite = {
			focus = DEN_socialisteducation
		}
		prerequisite = {
			focus = DEN_revolutionarypublic
		}
		prerequisite = {
			focus = DEN_nationalizemedia
		}
		x = 37
		y = 12

	}
	focus = {
		id = DEN_gowitharmy
		icon = GFX_focus_Military_Government
		cost = 3.00
		prerequisite = {
			focus = DEN_appointroyalgoverment
		}
		mutually_exclusive = {
			focus = DEN_appointkonservative
		}
		x = 19
		y = 6

	}
	focus = {
		id = DEN_royalguidance
		icon = GFX_focus_generic_self_management
		cost = 4.00
		prerequisite = {
			focus = DEN_appointkonservative
		}
		x = 23
		y = 7

	}
	focus = {
		id = DEN_secretpolice
		icon = GFX_focus_Espionage
		cost = 6.00
		prerequisite = {
			focus = DEN_appointkonservative
			focus = DEN_gowitharmy
		}
		x = 21
		y = 7

	}
	focus = {
		id = DEN_militarypolice
		icon = GFX_focus_generic_little_entente
		cost = 4.00
		prerequisite = {
			focus = DEN_gowitharmy
		}
		x = 19
		y = 7

	}
	focus = {
		id = DEN_onepartystate
		icon = GFX_goal_generic_forceful_treaty
		cost = 2.00
		prerequisite = {
			focus = DEN_militarypolice
			focus = DEN_royalguidance
		}
		prerequisite = {
			focus = DEN_secretpolice
		}
		x = 21
		y = 8

	}
	focus = {
		id = DEN_writegrundlov
		icon = GFX_goal_generic_forceful_treaty
		cost = 10.00
		prerequisite = {
			focus = DEN_abandongrundlov
		}
		prerequisite = {
			focus = DEN_onepartystate
		}
		x = 23
		y = 9

	}
	focus = {
		id = DEN_birthempire
		icon = GFX_focus_Wolf_King
		cost = 1.00
		prerequisite = {
			focus = DEN_writegrundlov
		}
		mutually_exclusive = {
			focus = DEN_restoredemocracy
		}
		x = 26
		y = 10

	}
	focus = {
		id = DEN_romanticnationalism
		icon = GFX_focus_generic_little_entente
		cost = 10.00
		prerequisite = {
			focus = DEN_purgedisloyalarmymen
		}
		x = 17
		y = 7

	}
	focus = {
		id = DEN_reformamts
		icon = GFX_goal_molotov_ribbentrop_pact
		cost = 4.00
		prerequisite = {
			focus = DEN_declarerige
		}
		x = 64
		y = 8

	}
	focus = {
		id = DEN_integrateredmillitias
		icon = GFX_focus_Workers_Support
		cost = 2.00
		prerequisite = {
			focus = DEN_communistpurgearmy
		}
		x = 31
		y = 11

	}
	focus = {
		id = DEN_revolutionarypublic
		icon = GFX_focus_Communist_Pride
		cost = 6.00
		prerequisite = {
			focus = DEN_socialisteducation
			focus = DEN_nationalizemedia
		}
		x = 37
		y = 11

	}
	focus = {
		id = DEN_commiestatefarms
		icon = GFX_focus_generic_soviet_politics
		cost = 4.00
		prerequisite = {
			focus = DEN_farmcollect
		}
		x = 45
		y = 11

	}
	focus = {
		id = DEN_socialistschools
		icon = GFX_goal_generic_war_with_comintern
		cost = 3.00
		prerequisite = {
			focus = DEN_socialisteducation
		}
		x = 35
		y = 11

	}
	focus = {
		id = DEN_filmforbund
		icon = GFX_goal_support_communism
		cost = 3.00
		prerequisite = {
			focus = DEN_nationalizemedia
		}
		x = 39
		y = 11

	}
	focus = {
		id = DEN_scandinavianneutrality
		icon = GFX_goal_generic_national_unity
		cost = 10.00
		prerequisite = {
			focus = DEN_socialdemokratvictory
		}
		mutually_exclusive = {
			focus = DEN_socdemneutral
		}
		x = 4
		y = 5

	}
	focus = {
		id = DEN_copenhagcongress
		icon = GFX_goal_generic_improve_relations
		cost = 5.00
		prerequisite = {
			focus = DEN_scandinavianneutrality
		}
		x = 3
		y = 6

	}
	focus = {
		id = DEN_stockholmconfer
		icon = GFX_goal_generic_improve_relations
		cost = 5.00
		prerequisite = {
			focus = DEN_scandinavianneutrality
		}
		x = 5
		y = 6

	}
	focus = {
		id = DEN_scandinaviandefenceunion
		icon = GFX_focus_proclaim_the_restauration_of_austria_hungary
		cost = 10.00
		prerequisite = {
			focus = DEN_stockholmconfer
		}
		prerequisite = {
			focus = DEN_copenhagcongress
		}
		x = 2
		y = 7

	}
	focus = {
		id = DEN_churchofdenmark
		icon = GFX_focus_Protestantism
		cost = 10.00
		prerequisite = {
			focus = DEN_hildfuhrer
		}
		x = 51
		y = 8

	}
	focus = {
		id = DEN_commiespirit
		icon = GFX_goal_support_communism
		cost = 4.00
		prerequisite = {
			focus = DEN_communistpurgearmy
		}
		x = 33
		y = 11

	}
	focus = {
		id = DEN_tacticalwarfare
		icon = GFX_goal_generic_allies_build_infantry
		cost = 10.00
		prerequisite = {
			focus = DEN_learnfromthegreatwar
		}
		x = 51
		y = 5

	}
	focus = {
		id = DEN_marines
		icon = GFX_goal_generic_amphibious_assault
		cost = 4.00
		prerequisite = {
			focus = DEN_soovaarnet
		}
		x = 66
		y = 2

	}
	focus = {
		id = DEN_fascistfriendsweden
		icon = GFX_goal_molotov_ribbentrop_pact
		cost = 2.00
		prerequisite = {
			focus = DEN_restoreourhonour
		}
		mutually_exclusive = {
			focus = DEN_retakescania
		}
		x = 58
		y = 14

	}
	focus = {
		id = DEN_recolonizescania
		icon = GFX_goal_generic_political_pressure
		cost = 8.00
		prerequisite = {
			focus = DEN_retakescania
		}
		x = 58
		y = 15

	}
	focus = {
		id = DEN_recolonizeoosel
		icon = GFX_goal_generic_political_pressure
		cost = 2.00
		prerequisite = {
			focus = DEN_demandoosel
		}
		x = 64
		y = 15

	}
	focus = {
		id = DEN_issuenordicclaims
		icon = GFX_goal_generic_position_armies
		cost = 1.00
		prerequisite = {
			focus = DEN_danishsupremacy
		}
		x = 52
		y = 15

	}
	focus = {
		id = DEN_swedishputsch
		icon = GFX_goal_generic_military_sphere
		cost = 4.00
		prerequisite = {
			focus = DEN_norwegianputsch
		}
		x = 56
		y = 17

	}
	focus = {
		id = DEN_norwegianputsch
		icon = GFX_goal_generic_military_sphere
		cost = 4.00
		prerequisite = {
			focus = DEN_nordism
		}
		x = 56
		y = 16

	}
	focus = {
		id = DEN_interventioninsweden
		icon = GFX_goal_generic_occupy_states_ongoing_war
		cost = 1.00
		prerequisite = {
			focus = DEN_issuenordicclaims
			focus = DEN_nordism
		}
		x = 54
		y = 16

	}
	focus = {
		id = DEN_interventioninnorway
		icon = GFX_goal_generic_occupy_states_ongoing_war
		cost = 1.00
		prerequisite = {
			focus = DEN_issuenordicclaims
			focus = DEN_nordism
		}
		x = 52
		y = 16

	}
	focus = {
		id = DEN_integratenorway
		icon = GFX_focus_WIP
		cost = 4.00
		prerequisite = {
			focus = DEN_interventioninnorway
		}
		x = 52
		y = 17

	}
	focus = {
		id = DEN_integratesweden
		icon = GFX_focus_WIP
		cost = 4.00
		prerequisite = {
			focus = DEN_interventioninsweden
		}
		x = 54
		y = 17

	}
	focus = {
		id = DEN_declarenordicrige
		icon = GFX_focus_WIP
		cost = 1.00
		prerequisite = {
			focus = DEN_integratenorway
			focus = DEN_integratesweden
			focus = DEN_swedishputsch
		}
		x = 54
		y = 18

	}
	focus = {
		id = DEN_crushfinland
		icon = GFX_goal_generic_attack_allies
		cost = 1.00
		prerequisite = {
			focus = DEN_declarenordicrige
		}
		mutually_exclusive = {
			focus = DEN_friendshipwithfinland
		}
		x = 53
		y = 19

	}
	focus = {
		id = DEN_friendshipwithfinland
		icon = GFX_goal_molotov_ribbentrop_pact
		cost = 3.00
		prerequisite = {
			focus = DEN_declarenordicrige
		}
		mutually_exclusive = {
			focus = DEN_crushfinland
		}
		x = 51
		y = 19

	}
	focus = {
		id = DEN_claimgreaterfinland
		icon = GFX_goal_generic_position_armies
		cost = 1.00
		prerequisite = {
			focus = DEN_crushfinland
		}
		x = 53
		y = 20

	}
	focus = {
		id = DEN_estonia
		icon = GFX_goal_generic_occupy_states_ongoing_war
		cost = 1.00
		prerequisite = {
			focus = DEN_declarenordicrige
		}
		mutually_exclusive = {
			focus = DEN_nordicdemandoosel
		}
		x = 55
		y = 19

	}
	focus = {
		id = DEN_nordicdemandoosel
		icon = GFX_goal_generic_occupy_states_ongoing_war
		cost = 1.00
		prerequisite = {
			focus = DEN_declarenordicrige
		}
		mutually_exclusive = {
			focus = DEN_estonia
		}
		x = 57
		y = 19

	}
	focus = {
		id = DEN_integratestonia
		icon = GFX_focus_WIP
		cost = 4.00
		prerequisite = {
			focus = DEN_estonia
		}
		x = 55
		y = 20

	}
	focus = {
		id = DEN_integrateoosel
		icon = GFX_focus_WIP
		cost = 2.00
		prerequisite = {
			focus = DEN_nordicdemandoosel
		}
		x = 57
		y = 20

	}
	focus = {
		id = DEN_hamburgconference
		icon = GFX_goal_generic_attack_allies
		cost = 3.00
		prerequisite = {
			focus = DEN_domination
		}
		mutually_exclusive = {
			focus = DEN_invadenorway
		}
		x = 47
		y = 14

	}
	focus = {
		id = DEN_integrationofnorway
		icon = GFX_goal_anschluss
		cost = 4.00
		prerequisite = {
			focus = DEN_hamburgconference
			focus = DEN_invadenorway
		}
		x = 48
		y = 15

	}
	focus = {
		id = DEN_claimsonsweden
		icon = GFX_goal_generic_occupy_states_ongoing_war
		cost = 1.00
		prerequisite = {
			focus = DEN_integrationofnorway
		}
		x = 46
		y = 16

	}
	focus = {
		id = DEN_integratetheswedishlands
		icon = GFX_focus_WIP
		cost = 3.00
		prerequisite = {
			focus = DEN_claimsonsweden
		}
		x = 47
		y = 17

	}
	focus = {
		id = DEN_rigsprotektoratsverige
		icon = GFX_goal_generic_alliance
		cost = 2.00
		prerequisite = {
			focus = DEN_claimsonsweden
		}
		x = 45
		y = 17

	}
	focus = {
		id = DEN_antibritainpolicy
		icon = GFX_focus_AST_never_gallipoli
		cost = 3.00
		prerequisite = {
			focus = DEN_integrationofnorway
		}
		mutually_exclusive = {
			focus = DEN_friendshipwithbritain
		}
		x = 50
		y = 16

	}
	focus = {
		id = DEN_friendshipwithbritain
		icon = GFX_goal_molotov_ribbentrop_pact
		cost = 3.00
		prerequisite = {
			focus = DEN_integrationofnorway
		}
		mutually_exclusive = {
			focus = DEN_antibritainpolicy
		}
		x = 48
		y = 16

	}
	focus = {
		id = DEN_operationbluetooth
		icon = GFX_focus_RAJ_clamp_down_on_corruption
		cost = 1.00
		prerequisite = {
			focus = DEN_antibritainpolicy
		}
		prerequisite = {
			focus = DEN_prepareforinvasionofbritain
		}
		x = 50
		y = 18

	}
	focus = {
		id = DEN_prepareforinvasionofbritain
		icon = GFX_goal_generic_amphibious_assault
		cost = 4.00
		prerequisite = {
			focus = DEN_antibritainpolicy
		}
		x = 49
		y = 17

	}
	focus = {
		id = DEN_integrationofbritain
		icon = GFX_focus_United_Kingdom
		cost = 20.00
		prerequisite = {
			focus = DEN_operationbluetooth
		}
		prerequisite = {
			focus = DEN_integratetheswedishlands
		}
		x = 48
		y = 19

	}
	focus = {
		id = DEN_socialistneutrality
		icon = GFX_focus_generic_join_comintern
		cost = 1.00
		prerequisite = {
			focus = DEN_redarmy
			focus = DEN_workersculture
			focus = DEN_dissolvecommunes
			focus = DEN_centralcommunes
			focus = DEN_expandcommunes
		}
		mutually_exclusive = {
			focus = DEN_directordersfrommoscow
			focus = DEN_directordersfromparis
		}
		x = 34
		y = 13

	}
	focus = {
		id = DEN_directordersfrommoscow
		icon = GFX_goal_generic_alliance
		cost = 1.00
		prerequisite = {
			focus = DEN_redarmy
			focus = DEN_workersculture
			focus = DEN_dissolvecommunes
			focus = DEN_centralcommunes
			focus = DEN_expandcommunes
		}
		mutually_exclusive = {
			focus = DEN_socialistneutrality
			focus = DEN_directordersfromberlin
			focus = DEN_scandinaviansocialistrevolt
			focus = DEN_directordersfromparis
		}
		x = 36
		y = 13

	}
	focus = {
		id = DEN_directordersfromberlin
		icon = GFX_goal_generic_alliance
		cost = 1.00
		prerequisite = {
			focus = DEN_redarmy
			focus = DEN_workersculture
			focus = DEN_dissolvecommunes
			focus = DEN_centralcommunes
			focus = DEN_expandcommunes
		}
		mutually_exclusive = {
			focus = DEN_directordersfrommoscow
			focus = DEN_scandinaviansocialistrevolt
			focus = DEN_directordersfromparis
		}
		x = 38
		y = 13

	}
	focus = {
		id = DEN_scandinaviansocialistrevolt
		icon = GFX_goal_support_fourth_int
		cost = 1.00
		prerequisite = {
			focus = DEN_dissolvecommunes
			focus = DEN_centralcommunes
			focus = DEN_expandcommunes
			focus = DEN_workersculture
			focus = DEN_redarmy
		}
		mutually_exclusive = {
			focus = DEN_directordersfromberlin
			focus = DEN_directordersfrommoscow
			focus = DEN_directordersfromparis
		}
		x = 43
		y = 13

	}
	focus = {
		id = DEN_directordersfromparis
		icon = GFX_goal_generic_alliance
		cost = 1.00
		prerequisite = {
			focus = DEN_redarmy
			focus = DEN_workersculture
			focus = DEN_dissolvecommunes
			focus = DEN_centralcommunes
			focus = DEN_expandcommunes
		}
		mutually_exclusive = {
			focus = DEN_scandinaviansocialistrevolt
			focus = DEN_directordersfromberlin
			focus = DEN_socialistneutrality
			focus = DEN_directordersfrommoscow
		}
		x = 40
		y = 13

	}
	focus = {
		id = DEN_trainrevolutionaries
		icon = GFX_focus_Red_Army
		cost = 4.00
		prerequisite = {
			focus = DEN_scandinaviansocialistrevolt
		}
		x = 44
		y = 14

	}
	focus = {
		id = DEN_aarhuscongress
		icon = GFX_focus_generic_soviet_politics
		cost = 1.00
		prerequisite = {
			focus = DEN_scandinaviansocialistrevolt
		}
		x = 42
		y = 14

	}
	focus = {
		id = DEN_revolutioninsweden
		icon = GFX_goal_generic_war_with_comintern
		cost = 1.00
		prerequisite = {
			focus = DEN_trainrevolutionaries
		}
		prerequisite = {
			focus = DEN_aarhuscongress
		}
		x = 43
		y = 15

	}
	focus = {
		id = DEN_revolutioninnorway
		icon = GFX_goal_generic_war_with_comintern
		cost = 1.00
		prerequisite = {
			focus = DEN_aarhuscongress
		}
		x = 41
		y = 15

	}
	focus = {
		id = DEN_unificationtreaty
		icon = GFX_focus_generic_join_comintern
		cost = 14.29
		prerequisite = {
			focus = DEN_revolutioninnorway
		}
		prerequisite = {
			focus = DEN_revolutioninsweden
		}
		x = 42
		y = 16

	}
	focus = {
		id = DEN_thefinnishquestion
		icon = GFX_focus_generic_polish_deal
		cost = 2.00
		prerequisite = {
			focus = DEN_liberatefinland
		}
		x = 42
		y = 18

	}
	focus = {
		id = DEN_liberatefinland
		icon = GFX_goal_generic_war_with_comintern
		cost = 1.00
		prerequisite = {
			focus = DEN_unificationtreaty
		}
		x = 42
		y = 17

	}
	focus = {
		id = DEN_thechurch
		icon = GFX_focus_GER_Kulturkampf
		cost = 3.00
		prerequisite = {
			focus = DEN_destroyoldorder
		}
		x = 30
		y = 10
	}
	focus = {
		id = DEN_meetwithstauning
		icon = GFX_goal_support_communism
		cost = 2.00
		prerequisite = {
			focus = DEN_socdemmerger
		}
		x = 34
		y = 10

	}
	focus = {
		id = DEN_hangtheking
		icon = GFX_goal_tfv_sever_ties_with_uk
		cost = 1.00
		prerequisite = {
			focus = DEN_scandinaviansocialistrevolt
		}
		x = 39
		y = 15

	}
	focus = {
		id = DEN_theicelandicquestion
		icon = GFX_focus_generic_polish_deal
		cost = 2.00
		prerequisite = {
			focus = DEN_hangtheking
		}
		x = 40
		y = 16

	}
	focus = {
		id = DEN_germanarmstreaty
		icon = GFX_focus_generic_license_production
		cost = 7.00
		prerequisite = {
			focus = DEN_alliancewithgermany
		}
		x = 9
		y = 9

	}
	focus = {
		id = DEN_frenchtechnologytreaty
		icon = GFX_goal_continuous_research
		cost = 7.00
		prerequisite = {
			focus = DEN_alliancewithfrance
		}
		x = 11
		y = 9

	}
	focus = {
		id = DEN_restoredemocracy
		icon = GFX_focus_Give_Democracy
		cost = 1.00
		prerequisite = {
			focus = DEN_writegrundlov
		}
		mutually_exclusive = {
			focus = DEN_birthempire
		}
		x = 20
		y = 10

	}
	focus = {
		id = DEN_pursuearmedneutrality
		icon = GFX_focus_generic_little_entente
		cost = 4.00
		prerequisite = {
			focus = DEN_restoredemocracy
		}
		x = 19
		y = 11

	}
	focus = {
		id = DEN_claimflensborg
		icon = GFX_goal_generic_occupy_states_ongoing_war
		cost = 1.00
		prerequisite = {
			focus = DEN_birthempire
		}
		x = 27
		y = 11

	}
	focus = {
		id = DEN_scandinavianpassportunion
		icon = GFX_goal_unknown
		cost = 14.29
		prerequisite = {
			focus = DEN_scandinaviandefenceunion
		}
		prerequisite = {
			focus = DEN_nordiccouncil
		}
		x = 1
		y = 8

	}
	focus = {
		id = DEN_scandinavmonetaryunion
		icon = GFX_goal_unknown
		cost = 14.29
		prerequisite = {
			focus = DEN_scandinaviandefenceunion
		}
		prerequisite = {
			focus = DEN_nordiccouncil
		}
		x = 4
		y = 8

	}
	focus = {
		id = DEN_nordiceconomicarea
		icon = GFX_goal_unknown
		cost = 14.29
		prerequisite = {
			focus = DEN_nordiccouncil
		}
		prerequisite = {
			focus = DEN_scandinaviandefenceunion
		}
		x = 7
		y = 8

	}
	focus = {
		id = DEN_nordiccouncil
		icon = GFX_goal_unknown
		cost = 10.00
		prerequisite = {
			focus = DEN_copenhagcongress
		}
		prerequisite = {
			focus = DEN_stockholmconfer
		}
		x = 6
		y = 7

	}
	focus = {
		id = DEN_scandinavianfriendship
		icon = GFX_goal_molotov_ribbentrop_pact
		cost = 3.00
		prerequisite = {
			focus = DEN_restoredemocracy
			focus = DEN_birthempire
		}
		mutually_exclusive = {
			focus = DEN_subjugatescandinavia
		}
		x = 23
		y = 11

	}
	focus = {
		id = DEN_subjugatescandinavia
		icon = GFX_focus_WIP
		cost = 2.00
		prerequisite = {
			focus = DEN_birthempire
		}
		prerequisite = {
			focus = DEN_birthempire
		}
		mutually_exclusive = {
			focus = DEN_scandinavianfriendship
		}
		x = 25
		y = 11

	}
	focus = {
		id = DEN_annexnorway
		icon = GFX_goal_anschluss
		cost = 1.00
		prerequisite = {
			focus = DEN_subjugatescandinavia
		}
		x = 25
		y = 12

	}
	focus = {
		id = DEN_integratethenorwegians
		icon = GFX_focus_Danish_Norwegian_Union
		cost = 4.00
		prerequisite = {
			focus = DEN_annexnorway
		}
		x = 24
		y = 13

	}
	focus = {
		id = DEN_invadetheswedish
		icon = GFX_goal_generic_occupy_states_ongoing_war
		cost = 1.00
		prerequisite = {
			focus = DEN_annexnorway
		}
		x = 26
		y = 13

	}
	focus = {
		id = DEN_anewunion
		icon = GFX_focus_generic_home_defense
		cost = 10.00
		prerequisite = {
			focus = DEN_invadetheswedish
		}
		mutually_exclusive = {
			focus = DEN_kingdomofsweden
		}
		x = 25
		y = 14

	}
	focus = {
		id = DEN_kingdomofsweden
		icon = GFX_focus_generic_home_defense
		cost = 3.00
		prerequisite = {
			focus = DEN_invadetheswedish
		}
		mutually_exclusive = {
			focus = DEN_anewunion
		}
		x = 27
		y = 14

	}
	focus = {
		id = DEN_pushforunification
		icon = GFX_goal_unknown
		cost = 10.00
		prerequisite = {
			focus = DEN_scandinavianpassportunion
		}
		prerequisite = {
			focus = DEN_scandinavmonetaryunion
		}
		prerequisite = {
			focus = DEN_nordiceconomicarea
		}
		x = 4
		y = 9

	}
	focus = {
		id = DEN_claimaaland
		icon = GFX_goal_generic_occupy_states_ongoing_war
		cost = 1.00
		prerequisite = {
			focus = DEN_retakescania
		}
		mutually_exclusive = {
			focus = DEN_friendshipwithfinlan
		}
		x = 60
		y = 15

	}
	focus = {
		id = DEN_fortresskingdom
		icon = GFX_goal_generic_fortify_city
		cost = 10.00
		prerequisite = {
			focus = DEN_restoredemocracy
		}
		x = 21
		y = 11

	}
}
