shared_focus = {
	id = SPA_new_diplomacy
	icon = GFX_focus_A_Deadly_Deal
	cost = 5
	available = { has_country_flag = won_scw }
	ai_will_do = {
		factor = 10
		modifier = {
			factor = 0
			OR = {
				has_idea = postwar1
				has_idea = postwar2
			}
		}
		modifier = {
			factor = 0.5
			OR = {
				has_idea = postwar_close
				has_idea = postwar_peseta
			}
		}
		modifier = {
			factor = 0.5
			has_government = nationalism
		}
	}
	completion_reward = {
		add_political_power = 30
	}
	x = 73
	y = 0

}
shared_focus = {
	id = SPA_take_side
	icon = GFX_focus_Military_Attache
	cost = 3
	prerequisite = {
		focus = SPA_new_diplomacy
	}
	mutually_exclusive = {
		focus = SPA_use_caution
	}
	ai_will_do = {
		factor = 2
		modifier = {
			factor = 0
			is_historical_focus_on = yes
		}
	}
	completion_reward = {
		add_war_support = 0.1
	}
	x = 0
	y = 1
	relative_position_id = SPA_new_diplomacy

}
shared_focus = {
	id = SPA_latin_bloc
	icon = GFX_focus_generic_italy_first
	cost = 10
	prerequisite = {
		focus = SPA_take_side
	}
	ai_will_do = {
		factor = 0
	}
	available = {
		ITA = {
			is_faction_leader = yes
		}
		NOT = {
			OR = {
				has_government = democratic
				has_government = market_liberalism
			}
		}
		NOT = { has_war_with = ITA }
		is_in_faction = no
		is_puppet = no
	}
	completion_reward = {
		ITA = { country_event = { days = 1 id = spa.108 } }
	}
	x = 0
	y = 2
	relative_position_id = SPA_new_diplomacy

}
shared_focus = {
	id = SPA_axis
	icon = GFX_focus_Reichsdomination
	cost = 10
	prerequisite = {
		focus = SPA_take_side
	}
	ai_will_do = {
		factor = 1
		modifier = {
			factor = 3
			has_country_flag = falange_wins
		}
		modifier = {
			factor = 0
			OR = {
				has_government = democratic
				has_government = market_liberalism
			}
		}
		modifier = {
			factor = 0.5
			GER = {
				surrender_progress > 0.8
			}
		}
	}
	available = {
		GER = {
			is_faction_leader = yes
		}
		NOT = {
			OR = {
				has_government = democratic
				has_government = market_liberalism
			}
		}
		NOT = { has_war_with = GER }
		is_in_faction = no
		is_puppet = no
	}
	completion_reward = {
		GER = { country_event = { days = 1 id = spa.108 } }
	}
	x = 2
	y = 2
	relative_position_id = SPA_new_diplomacy

}
shared_focus = {
	id = SPA_use_caution
	icon = GFX_focus_Diplomatic_Balance
	cost = 10
	prerequisite = {
		focus = SPA_new_diplomacy
	}
	mutually_exclusive = {
		focus = SPA_take_side
	}
	ai_will_do = {
		factor = 3
		modifier = {
			factor = 5
			has_country_flag = franco_wins
		}
		modifier = {
			factor = 0.25
			has_country_flag = falange_wins
		}
	}
	available = {
		NOT = {
			OR = {
				has_government = democratic
				has_government = market_liberalism
			}
		}
		GER = {
			has_government = fascism
			has_completed_focus = GER_western_claims
			is_puppet = no
			is_faction_leader = yes
			exists = yes
		}
		ENG = {
			NOT = {
				has_government = fascism
			}
			is_puppet = no
			is_faction_leader = yes
			NOT = {
				is_in_faction_with = GER
			}
		}			
	}
	completion_reward = {
		set_country_flag = SPA_unlock_balance
		set_variable = { british_drift = -1 }
		set_variable = { german_drift = 1 }
		GER = { country_event = { id = spa.58 } }
		ENG = { country_event = { id = spa.59 } }
		custom_effect_tooltip = unlock_alignment2
	}
	x = 8
	y = 1
	relative_position_id = SPA_new_diplomacy

}
shared_focus = {
	id = SPA_pro_german
	icon = GFX_focus_chi_mission_to_germany
	cost = 10
	prerequisite = {
		focus = SPA_use_caution
	}
	ai_will_do = {
		factor = 1
		modifier = {
			factor = 2
			has_government = fascism
		}
		modifier = {
			factor = 2
			GER = {
				strength_ratio = {
					tag = ENG
					ratio > 1.1
				}
			}
		}
		modifier = {
			factor = 2
			GER = {
				controls_state = 16
			}
		}
		modifier = {
			factor = 2
			ENG = {
				surrender_progress > 0.2
			}
		}
		modifier = {
			factor = 2
			ENG = {
				surrender_progress > 0.5
			}
		}
		modifier = {
			factor = 2
			check_variable = { british_drift > 2 }
		}
		modifier = {
			factor = 2
			check_variable = { british_drift > 5 }
		}
		modifier = {
			factor = 2
			is_neighbor_of = GER
		}
		modifier = {
			factor = 0.5
			check_variable = { german_drift > 5 }
		}
		modifier = {
			factor = 0.5
			check_variable = { german_drift > 7 }
		}
		modifier = {
			factor = 0.5
			ENG = { is_in_faction_with = USA }
		}
		modifier = {
			factor = 0.5
			GER = {
				surrender_progress > 0.3
			}
		}
		modifier = {
			factor = 0.5
			GER = {
				surrender_progress > 0.6
			}
		}
		modifier = {
			factor = 0
			GER = {
				surrender_progress > 0.7
			}
		}
	}
	available = {
		GER = {
			has_war_with = ENG
		}
		NOT = {
			has_war_with = GER
			is_in_faction = yes
		}
		NOT = { has_completed_focus = SPA_not_our_business }
	}
	completion_reward = {
		add_popularity = { ideology = fascism popularity = 0.05 }
		custom_effect_tooltip = closer_to_germany
		add_to_variable = { var = german_drift value = 2 }
		add_to_variable = { var = british_drift value = -2 }
	}
	x = 5
	y = 2
	relative_position_id = SPA_new_diplomacy

}
shared_focus = {
	id = SPA_naval_access
	icon = GFX_goal_generic_wolf_pack
	cost = 10
	prerequisite = {
		focus = SPA_pro_german
	}
	ai_will_do = {
		factor = 1
		modifier = {
			factor = 2
			has_government = fascism
		}
		modifier = {
			factor = 2
			GER = {
				strength_ratio = {
					tag = ENG
					ratio > 1.1
				}
			}
		}
		modifier = {
			factor = 2
			GER = {
				controls_state = 16
			}
		}
		modifier = {
			factor = 2
			ENG = {
				surrender_progress > 0.2
			}
		}
		modifier = {
			factor = 2
			ENG = {
				surrender_progress > 0.5
			}
		}
		modifier = {
			factor = 2
			check_variable = { british_drift > 2 }
		}
		modifier = {
			factor = 2
			check_variable = { british_drift > 5 }
		}
		modifier = {
			factor = 2
			is_neighbor_of = GER
		}
		modifier = {
			factor = 0.5
			check_variable = { german_drift > 5 }
		}
		modifier = {
			factor = 0.5
			check_variable = { german_drift > 7 }
		}
		modifier = {
			factor = 0.5
			ENG = { is_in_faction_with = USA }
		}
		modifier = {
			factor = 0.5
			GER = {
				surrender_progress > 0.3
			}
		}
		modifier = {
			factor = 0.5
			GER = {
				surrender_progress > 0.6
			}
		}
		modifier = {
			factor = 0
			GER = {
				surrender_progress > 0.7
			}
		}
	}
	available = {
		GER = {
			has_war_with = ENG
		}
		NOT = {
			has_war_with = GER
			is_in_faction = yes
		}
		NOT = { has_completed_focus = SPA_not_our_business }
	}
	completion_reward = {
		GER = { country_event = { days = 1 id = spa.54 } }
		hidden_effect = { ENG = { country_event = { id = spa.61 days = 10 } } }
		custom_effect_tooltip = closer_to_germany
		add_to_variable = { var = german_drift value = 2 }
		add_to_variable = { var = british_drift value = -2 }
	}
	x = 4
	y = 3
	relative_position_id = SPA_new_diplomacy

}
shared_focus = {
	id = SPA_german_propaganda
	icon = GFX_focus_Reich_Nazi_Discourse
	cost = 10
	prerequisite = {
		focus = SPA_pro_german
	}
	ai_will_do = {
		factor = 1
		modifier = {
			factor = 2
			has_government = fascism
		}
		modifier = {
			factor = 2
			GER = {
				strength_ratio = {
					tag = ENG
					ratio > 1.1
				}
			}
		}
		modifier = {
			factor = 2
			GER = {
				controls_state = 16
			}
		}
		modifier = {
			factor = 2
			ENG = {
				surrender_progress > 0.2
			}
		}
		modifier = {
			factor = 2
			ENG = {
				surrender_progress > 0.5
			}
		}
		modifier = {
			factor = 2
			check_variable = { british_drift > 2 }
		}
		modifier = {
			factor = 2
			check_variable = { british_drift > 5 }
		}
		modifier = {
			factor = 2
			is_neighbor_of = GER
		}
		modifier = {
			factor = 0.5
			check_variable = { german_drift > 5 }
		}
		modifier = {
			factor = 0.5
			check_variable = { german_drift > 7 }
		}
		modifier = {
			factor = 0.5
			ENG = { is_in_faction_with = USA }
		}
		modifier = {
			factor = 0.5
			GER = {
				surrender_progress > 0.3
			}
		}
		modifier = {
			factor = 0.5
			GER = {
				surrender_progress > 0.6
			}
		}
		modifier = {
			factor = 0
			GER = {
				surrender_progress > 0.7
			}
		}
	}
	available = {
		GER = {
			has_war_with = ENG
		}
		NOT = {
			has_war_with = GER
			is_in_faction = yes
		}
		NOT = { has_completed_focus = SPA_not_our_business }
	}
	completion_reward = {
		add_popularity = { ideology = fascism popularity = 0.05 }
		add_political_power = 50
		custom_effect_tooltip = closer_to_germany
		add_to_variable = { var = german_drift value = 2 }
		add_to_variable = { var = british_drift value = -2 }
	}
	x = 6
	y = 3
	relative_position_id = SPA_new_diplomacy

}
shared_focus = {
	id = SPA_blue_division
	icon = GFX_focus_Spear_the_Bear
	cost = 10
	prerequisite = {
		focus = SPA_naval_access
	}
	prerequisite = {
		focus = SPA_german_propaganda
	}
	ai_will_do = {
		factor = 2
		modifier = {
			factor = 2
			has_government = fascism
		}
		modifier = {
			factor = 2
			GER = {
				strength_ratio = {
					tag = ENG
					ratio > 1.1
				}
			}
		}
		modifier = {
			factor = 2
			GER = {
				controls_state = 16
			}
		}
		modifier = {
			factor = 2
			ENG = {
				surrender_progress > 0.2
			}
		}
		modifier = {
			factor = 2
			ENG = {
				surrender_progress > 0.5
			}
		}
		modifier = {
			factor = 2
			check_variable = { british_drift > 2 }
		}
		modifier = {
			factor = 2
			check_variable = { british_drift > 5 }
		}
		modifier = {
			factor = 2
			is_neighbor_of = GER
		}
		modifier = {
			factor = 0.5
			check_variable = { german_drift > 5 }
		}
		modifier = {
			factor = 0.5
			check_variable = { german_drift > 7 }
		}
		modifier = {
			factor = 0.5
			ENG = { is_in_faction_with = USA }
		}
		modifier = {
			factor = 0.5
			GER = {
				surrender_progress > 0.3
			}
		}
		modifier = {
			factor = 0.5
			GER = {
				surrender_progress > 0.6
			}
		}
		modifier = {
			factor = 0
			GER = {
				surrender_progress > 0.7
			}
		}
	}
	available = {
		GER = {
			has_war_with = ENG
			has_war_with = SOV
		}
		NOT = {
			has_war_with = GER
			is_in_faction = yes
		}
		NOT = { has_completed_focus = SPA_not_our_business }
	}
	completion_reward = {
		set_rule = {
			can_send_volunteers = yes
		}
		add_war_support = 0.1
		custom_effect_tooltip = closer_to_germany
		add_to_variable = { var = german_drift value = 2 }
		add_to_variable = { var = british_drift value = -2 }
	}
	x = 5
	y = 4
	relative_position_id = SPA_new_diplomacy

}
shared_focus = {
	id = SPA_non_belligerence
	icon = GFX_focus_Dark_Arms
	cost = 10
	prerequisite = {
		focus = SPA_use_caution
	}
	mutually_exclusive = {
		focus = SPA_declare_neutrality
	}
	ai_will_do = {
		factor = 1
		modifier = {
			factor = 1.5
			check_variable = { german_drift > 1 }
			ITA = {
				is_major = yes
				is_in_faction_with = GER
			}
		}
		modifier = {
			factor = 1.5
			check_variable = { german_drift > 1 }
			GER = {
				controls_state = 16
			}
		}
		modifier = {
			factor = 1.5
			check_variable = { german_drift > 1 }
			GER = {
				is_neighbor_of = SPA
			}
		}
		modifier = {
			factor = 1.5
			check_variable = { german_drift > 1 }
			GER = {
				strength_ratio = {
					tag = ENG
					ratio > 1.1
				}
			}
		}
		modifier = {
			factor = 1.5
			check_variable = { british_drift > 1 }
			ENG = {
				strength_ratio = {
					tag = GER
					ratio > 0.9
				}
			}
		}
		modifier = {
			factor = 1.5
			check_variable = { british_drift > 1 }
			ENG = {
				is_in_faction_with = USA
			}
		}
		modifier = {
			factor = 1.5
			check_variable = { british_drift > 1 }
			GER = {
				surrender_progress > 0.1
			}
		}
		modifier = {
			factor = 1.5
			check_variable = { british_drift > 1 }
			GER = {
				surrender_progress > 0.4
			}
		}
		modifier = {
			factor = 1.5
			check_variable = { british_drift > 1 }
			GER = {
				surrender_progress > 0.8
			}
		}
		modifier = {
			factor = 1.5
			check_variable = { british_drift > 1 }
			SRI = { exists = yes }
		}
	}
	available = {
		GER = {
			has_war_with = ENG
		}
		NOT = {
			has_war_with = GER
			has_war_with = ENG
			is_in_faction = yes
		}
	}
	completion_reward = {
		if = {
			limit = {
				check_variable = { german_drift > british_drift }
			}
			custom_effect_tooltip = closer_to_germany
			add_to_variable = { var = german_drift value = 3 }
			add_to_variable = { var = british_drift value = -3 }
		}
		if = {
			limit = {
				check_variable = { british_drift > german_drift }
			}
			custom_effect_tooltip = closer_to_britain
			add_to_variable = { var = german_drift value = -3 }
			add_to_variable = { var = british_drift value = 3 }
		}
		add_war_support = 0.05
	}
	x = 7
	y = 2
	relative_position_id = SPA_new_diplomacy

}
shared_focus = {
	id = SPA_enter_war
	icon = GFX_goal_generic_occupy_states_ongoing_war
	cost = 10
	prerequisite = {
		focus = SPA_non_belligerence
	}
	ai_will_do = {
		factor = 1
		modifier = {
			factor = 0
			OR = {
				has_idea = postwar1
				has_idea = postwar2
				has_idea = postwar_close
				has_idea = postwar_peseta
				has_idea = SPA_famine_risk1
				has_idea = SPA_famine_risk2
			}					
		}
		modifier = {
			factor = 0.1
			is_historical_focus_on = yes
		}
		modifier = {
			factor = 1.5
			check_variable = { german_drift > 1 }
			GER = {
				controls_state = 16
			}
		}
		modifier = {
			factor = 1.5
			check_variable = { german_drift > 1 }
			GER = {
				is_neighbor_of = SPA
			}
		}
		modifier = {
			factor = 1.5
			check_variable = { german_drift > 1 }
			GER = {
				strength_ratio = {
					tag = ENG
					ratio > 1.1
				}
			}
		}
		modifier = {
			factor = 1.5
			check_variable = { british_drift > 1 }
			ENG = {
				strength_ratio = {
					tag = GER
					ratio > 0.9
				}
			}
		}
		modifier = {
			factor = 1.5
			check_variable = { british_drift > 1 }
			ENG = {
				is_in_faction_with = USA
			}
		}
		modifier = {
			factor = 1.5
			check_variable = { british_drift > 1 }
			GER = {
				surrender_progress > 0.1
			}
		}
		modifier = {
			factor = 1.5
			check_variable = { british_drift > 1 }
			GER = {
				surrender_progress > 0.4
			}
		}
		modifier = {
			factor = 1.5
			check_variable = { british_drift > 1 }
			GER = {
				surrender_progress > 0.8
			}
		}
		modifier = {
			factor = 1.5
			check_variable = { british_drift > 1 }
			SRI = { exists = yes }
		}
	}
	
	available = {
		GER = {
			has_war_with = ENG
		}
		NOT = {
			has_war_with = GER
			has_war_with = ENG
			is_in_faction = yes
		}
		OR = {
			check_variable = { german_drift > british_drift }
			check_variable = { british_drift > german_drift }
		}
	}
	completion_reward = {
		if = {
			limit = {
				check_variable = { german_drift > british_drift }
			}
			GER = {
				add_to_faction = SPA
			}
		}
		if = {
			limit = {
				check_variable = { british_drift > german_drift }
			}
			ENG = {
				add_to_faction = SPA
			}
		}
	}
	x = 7
	y = 4
	relative_position_id = SPA_new_diplomacy

}
shared_focus = {
	id = SPA_declare_neutrality
	icon = GFX_goal_generic_neutrality_focus
	cost = 10
	prerequisite = {
		focus = SPA_use_caution
	}
	mutually_exclusive = {
		focus = SPA_non_belligerence
	}
	ai_will_do = {
		factor = 1
		modifier = {
			factor = 0
			is_historical_focus_on = yes
		}
		modifier = {
			factor = 1.5
			check_variable = { british_drift > 1 }
			GER = {
				controls_state = 16
			}
		}
		modifier = {
			factor = 1.5
			check_variable = { british_drift > 1 }
			GER = {
				is_neighbor_of = SPA
			}
		}
		modifier = {
			factor = 1.5
			check_variable = { british_drift > 1 }
			GER = {
				strength_ratio = {
					tag = ENG
					ratio > 1.1
				}
			}
		}
		modifier = {
			factor = 1.5
			check_variable = { german_drift > 1 }
			ENG = {
				strength_ratio = {
					tag = GER
					ratio > 0.9
				}
			}
		}
		modifier = {
			factor = 1.5
			check_variable = { german_drift > 1 }
			ENG = {
				is_in_faction_with = USA
			}
		}
		modifier = {
			factor = 1.5
			check_variable = { german_drift > 1 }
			GER = {
				surrender_progress > 0.1
			}
		}
		modifier = {
			factor = 1.5
			check_variable = { german_drift > 1 }
			GER = {
				surrender_progress > 0.4
			}
		}
		modifier = {
			factor = 1.5
			check_variable = { german_drift > 1 }
			GER = {
				surrender_progress > 0.8
			}
		}
		modifier = {
			factor = 1.5
			check_variable = { german_drift > 1 }
			SRI = { exists = yes }
		}
	}
	available = {
		GER = {
			has_war_with = ENG
		}
		NOT = {
			has_war_with = GER
			has_war_with = ENG
			is_in_faction = yes
		}
	}
	completion_reward = {
		if = {
			limit = {
				check_variable = { german_drift > british_drift }
			}
			custom_effect_tooltip = closer_to_germany
			add_to_variable = { var = german_drift value = -3 }
			add_to_variable = { var = british_drift value = 3 }
		}
		if = {
			limit = {
				check_variable = { british_drift > german_drift }
			}
			custom_effect_tooltip = closer_to_britain
			add_to_variable = { var = german_drift value = 3 }
			add_to_variable = { var = british_drift value = -3 }
		}
		add_stability = 0.05
	}
	x = 9
	y = 2
	relative_position_id = SPA_new_diplomacy

}
shared_focus = {
	id = SPA_not_our_business
	icon = GFX_focus_Pacifist_State
	cost = 10
	prerequisite = {
		focus = SPA_non_belligerence
		focus = SPA_declare_neutrality
	}
	ai_will_do = {
		factor = 1
		modifier = {
			factor = 1.5
			check_variable = { british_drift > 1 }
			GER = {
				controls_state = 16
			}
		}
		modifier = {
			factor = 1.5
			check_variable = { british_drift > 1 }
			GER = {
				is_neighbor_of = SPA
			}
		}
		modifier = {
			factor = 1.5
			check_variable = { british_drift > 1 }
			GER = {
				strength_ratio = {
					tag = ENG
					ratio > 1.1
				}
			}
		}
		modifier = {
			factor = 1.5
			check_variable = { german_drift > 1 }
			ENG = {
				strength_ratio = {
					tag = GER
					ratio > 0.9
				}
			}
		}
		modifier = {
			factor = 1.5
			check_variable = { german_drift > 1 }
			ENG = {
				is_in_faction_with = USA
			}
		}
		modifier = {
			factor = 1.5
			check_variable = { german_drift > 1 }
			GER = {
				surrender_progress > 0.1
			}
		}
		modifier = {
			factor = 1.5
			check_variable = { german_drift > 1 }
			GER = {
				surrender_progress > 0.4
			}
		}
		modifier = {
			factor = 1.5
			check_variable = { german_drift > 1 }
			GER = {
				surrender_progress > 0.8
			}
		}
		modifier = {
			factor = 1.5
			check_variable = { german_drift > 1 }
			SRI = { exists = yes }
		}
	}			
	
	completion_reward = {
		add_stability = 0.05
		remove_opinion_modifier = {
			target = GER
			modifier = embargo
		}
		remove_ideas = SPA_german_capital
		GER = { remove_resource_rights = 171 }
		remove_ideas = SPA_trade_britain
		custom_effect_tooltip = disable_influence
	}
	x = 9
	y = 4
	relative_position_id = SPA_new_diplomacy

}
shared_focus = {
	id = SPA_pro_british
	icon = GFX_focus_chi_british_cooperation
	cost = 10
	prerequisite = {
		focus = SPA_use_caution
	}
	ai_will_do = {
		factor = 1
		modifier = {
			factor = 2
			NOT = { has_government = fascism }
		}
		modifier = {
			factor = 2
			ENG = {
				strength_ratio = {
					tag = GER
					ratio > 0.9
				}
			}
		}
		modifier = {
			factor = 0.5
			GER = {
				controls_state = 16
			}
		}
		modifier = {
			factor = 0.5
			ENG = {
				surrender_progress > 0.2
			}
		}
		modifier = {
			factor = 0.5
			ENG = {
				surrender_progress > 0.5
			}
		}
		modifier = {
			factor = 0.5
			check_variable = { british_drift > 2 }
		}
		modifier = {
			factor = 0.5
			check_variable = { british_drift > 5 }
		}
		modifier = {
			factor = 0.5
			is_neighbor_of = GER
		}
		modifier = {
			factor = 2
			check_variable = { german_drift > 5 }
		}
		modifier = {
			factor = 2
			check_variable = { german_drift > 7 }
		}
		modifier = {
			factor = 2
			ENG = { is_in_faction_with = USA }
		}
		modifier = {
			factor = 2
			GER = {
				surrender_progress > 0.3
			}
		}
		modifier = {
			factor = 2
			GER = {
				surrender_progress > 0.6
			}
		}
		modifier = {
			factor = 2
			GER = {
				surrender_progress > 0.7
			}
		}
	}
	available = {
		ENG = {
			has_war_with = GER
		}
		NOT = {
			has_war_with = ENG
			is_in_faction = yes
		}
		NOT = { has_completed_focus = SPA_not_our_business }
	}
	completion_reward = {
		add_popularity = { ideology = neutrality popularity = 0.05 }
		add_stability = 0.075
		add_political_power = 50
		custom_effect_tooltip = closer_to_britain
		add_to_variable = { var = german_drift value = -2 }
		add_to_variable = { var = british_drift value = 2 }
	}
	x = 11
	y = 2
	relative_position_id = SPA_new_diplomacy

}
shared_focus = {
	id = SPA_increase_trade_britain
	icon = GFX_Focus_British_Navy
	cost = 10
	prerequisite = {
		focus = SPA_pro_british
	}
	ai_will_do = {
		factor = 1
		modifier = {
			factor = 2
			NOT = { has_government = fascism }
		}
		modifier = {
			factor = 2
			ENG = {
				strength_ratio = {
					tag = GER
					ratio > 0.9
				}
			}
		}
		modifier = {
			factor = 0.5
			GER = {
				controls_state = 16
			}
		}
		modifier = {
			factor = 0.5
			ENG = {
				surrender_progress > 0.2
			}
		}
		modifier = {
			factor = 0.5
			ENG = {
				surrender_progress > 0.5
			}
		}
		modifier = {
			factor = 0.5
			check_variable = { british_drift > 2 }
		}
		modifier = {
			factor = 0.5
			check_variable = { british_drift > 5 }
		}
		modifier = {
			factor = 0.5
			is_neighbor_of = GER
		}
		modifier = {
			factor = 2
			check_variable = { german_drift > 5 }
		}
		modifier = {
			factor = 2
			check_variable = { german_drift > 7 }
		}
		modifier = {
			factor = 2
			ENG = { is_in_faction_with = USA }
		}
		modifier = {
			factor = 2
			GER = {
				surrender_progress > 0.3
			}
		}
		modifier = {
			factor = 2
			GER = {
				surrender_progress > 0.6
			}
		}
		modifier = {
			factor = 2
			GER = {
				surrender_progress > 0.7
			}
		}
	}
	available = {
		ENG = {
			has_war_with = GER
		}
		NOT = {
			has_war_with = ENG
			is_in_faction = yes
		}
		NOT = { has_completed_focus = SPA_not_our_business }
	}
	completion_reward = {
		add_ideas = SPA_trade_britain
		custom_effect_tooltip = closer_to_britain
		hidden_effect = { GER = { country_event = { id = spa.57 days = 1 } } }
		add_to_variable = { var = german_drift value = -2 }
		add_to_variable = { var = british_drift value = 2 }
	}
	x = 10
	y = 3
	relative_position_id = SPA_new_diplomacy

}
shared_focus = {
	id = SPA_demand_press_neutrality
	icon = GFX_focus_Press_Barons
	cost = 10
	prerequisite = {
		focus = SPA_pro_british
	}
	ai_will_do = {
		factor = 1
		modifier = {
			factor = 2
			NOT = { has_government = fascism }
		}
		modifier = {
			factor = 2
			ENG = {
				strength_ratio = {
					tag = GER
					ratio > 0.9
				}
			}
		}
		modifier = {
			factor = 0.5
			GER = {
				controls_state = 16
			}
		}
		modifier = {
			factor = 0.5
			ENG = {
				surrender_progress > 0.2
			}
		}
		modifier = {
			factor = 0.5
			ENG = {
				surrender_progress > 0.5
			}
		}
		modifier = {
			factor = 0.5
			check_variable = { british_drift > 2 }
		}
		modifier = {
			factor = 0.5
			check_variable = { british_drift > 5 }
		}
		modifier = {
			factor = 0.5
			is_neighbor_of = GER
		}
		modifier = {
			factor = 2
			check_variable = { german_drift > 5 }
		}
		modifier = {
			factor = 2
			check_variable = { german_drift > 7 }
		}
		modifier = {
			factor = 2
			ENG = { is_in_faction_with = USA }
		}
		modifier = {
			factor = 2
			GER = {
				surrender_progress > 0.3
			}
		}
		modifier = {
			factor = 2
			GER = {
				surrender_progress > 0.6
			}
		}
		modifier = {
			factor = 2
			GER = {
				surrender_progress > 0.7
			}
		}
	}
	available = {
		ENG = {
			has_war_with = GER
		}
		NOT = {
			has_war_with = ENG
			is_in_faction = yes
		}
		NOT = { has_completed_focus = SPA_not_our_business }
	}
	completion_reward = {
		add_popularity = { ideology = fascism popularity = -0.05 }
		add_war_support = -0.05
		add_stability = 0.075
		custom_effect_tooltip = closer_to_britain
		add_to_variable = { var = german_drift value = -2 }
		add_to_variable = { var = british_drift value = 2 }
	}
	x = 12
	y = 3
	relative_position_id = SPA_new_diplomacy

}
shared_focus = {
	id = SPA_end_tungsten_shipments
	icon = GFX_focus_Subterfuge
	cost = 10
	prerequisite = {
		focus = SPA_increase_trade_britain
	}
	prerequisite = {
		focus = SPA_demand_press_neutrality
	}
	ai_will_do = {
		factor = 1
		modifier = {
			factor = 2
			NOT = { has_government = fascism }
		}
		modifier = {
			factor = 2
			ENG = {
				strength_ratio = {
					tag = GER
					ratio > 0.9
				}
			}
		}
		modifier = {
			factor = 0.5
			GER = {
				controls_state = 16
			}
		}
		modifier = {
			factor = 0.5
			ENG = {
				surrender_progress > 0.2
			}
		}
		modifier = {
			factor = 0.5
			ENG = {
				surrender_progress > 0.5
			}
		}
		modifier = {
			factor = 0.5
			check_variable = { british_drift > 2 }
		}
		modifier = {
			factor = 0.5
			check_variable = { british_drift > 5 }
		}
		modifier = {
			factor = 0.5
			is_neighbor_of = GER
		}
		modifier = {
			factor = 2
			check_variable = { german_drift > 5 }
		}
		modifier = {
			factor = 2
			check_variable = { german_drift > 7 }
		}
		modifier = {
			factor = 2
			ENG = { is_in_faction_with = USA }
		}
		modifier = {
			factor = 2
			GER = {
				surrender_progress > 0.3
			}
		}
		modifier = {
			factor = 2
			GER = {
				surrender_progress > 0.6
			}
		}
		modifier = {
			factor = 2
			GER = {
				surrender_progress > 0.7
			}
		}
	}
	available = {
		ENG = {
			has_war_with = GER
		}
		NOT = {
			has_war_with = ENG
			is_in_faction = yes
		}
		NOT = { has_completed_focus = SPA_not_our_business }
	}
	completion_reward = {
		if = {
			limit = {
				has_idea = SPA_german_capital
			}
			GER = { country_event = { id = spa.56 days = 1 } }
		}
		if = {
			limit = {
				NOT = {
					has_idea = SPA_german_capital
				}
			}
			add_opinion_modifier = {
				target = GER
				modifier = embargo
			}
		}
		custom_effect_tooltip = closer_to_britain
		add_to_variable = { var = german_drift value = -3 }
		add_to_variable = { var = british_drift value = 3 }
	}
	x = 11
	y = 4
	relative_position_id = SPA_new_diplomacy

}
shared_focus = {
	id = SPA_new_imperialism
	icon = GFX_focus_Triumphant_Will
	cost = 10
	prerequisite = {
		focus = SPA_new_diplomacy
	}
	x = -7
	y = 1
	relative_position_id = SPA_new_diplomacy
	ai_will_do = {
		factor = 10
	}
	completion_reward = {
		set_country_flag = SPA_unlock_imperialism
		add_war_support = 0.05
	}

}
shared_focus = {
	id = SPA_claim_gibraltar
	icon = GFX_focus_Straits_of_Gib
	cost = 7
	prerequisite = {
		focus = SPA_new_imperialism
	}
	x = -10
	y = 2
	completion_reward = {
		118 = { add_claim_by = SPA }
		custom_effect_tooltip = unlock_gibraltar_decisions
	}
	relative_position_id = SPA_new_diplomacy

}
shared_focus = {
	id = SPA_occupy_tangiers
	icon = GFX_focus_generic_little_entente
	cost = 3
	prerequisite = {
		focus = SPA_new_imperialism
	}
	ai_will_do = {
		factor = 100
	}
	available = {
		if = {
			limit = {
				MRC = {
					is_puppet_of = FRA
				}
			}
			FRA = {
				has_war = yes
			}
		}
		if = {
			limit = {
				MRC = {
					is_puppet_of = ENG
				}
			}
			ENG = {
				has_war = yes
			}
		}
		if = {
			limit = {
				MRC = {
					is_puppet_of = ITA
				}
			}
			ITA = {
				has_war = yes
			}
		}
	}
	completion_reward = {
		add_war_support = 0.075
		add_stability = 0.05
		add_political_power = 100
		set_state_owner = 1152
		set_state_controller = 1152
		1152 = {
			set_demilitarized_zone = no
		}
		news_event = { id = spa_news.9 }
	}
	x = -8
	y = 2
	relative_position_id = SPA_new_diplomacy

}
shared_focus = {
	id = SPA_claim_morocco
	icon = GFX_goal_generic_political_pressure
	cost = 5
	prerequisite = {
		focus = SPA_occupy_tangiers
	}
	available = {
		NOT = {
			owns_state = 461
			owns_state = 462
		}
	}
	completion_reward = {
		462 = { add_claim_by = SPA }
		461 = { add_claim_by = SPA }
		custom_effect_tooltip = unlock_mor_decisions
	}
	x = -9
	y = 3
	relative_position_id = SPA_new_diplomacy

}
shared_focus = {
	id = SPA_claim_oran
	icon = GFX_focus_Rally
	cost = 5
	prerequisite = {
		focus = SPA_occupy_tangiers
	}
	available = {
		NOT = {
			owns_state = 459
		}
	}
	completion_reward = {
		459 = { add_claim_by = SPA }
		custom_effect_tooltip = unlock_oran_decisions
	}
	x = -7
	y = 3
	relative_position_id = SPA_new_diplomacy

}
shared_focus = {
	id = SPA_invade_portugal
	icon = GFX_goal_generic_major_war
	cost = 10
	prerequisite = {
		focus = SPA_new_imperialism
	}
	available = {
		POR = { exists = yes }
		if = {
			limit = {
				POR = {
					OR = {
						has_government = fascism
						has_government = nationalism
						has_government = neutrality
						has_government = democratic
					}
				}
			}
			has_country_flag = falange_wins
		}
		if = {
			limit = {
				POR = {
					has_government = fascism
				}
			}
			POR = {
				is_in_faction = no
			}
		}
	}
	completion_reward = {
		declare_war_on = {
			target = POR
			type = annex_everything
		}
	}
	x = -6
	y = 2
	relative_position_id = SPA_new_diplomacy

}
shared_focus = {
	id = SPA_claim_malta
	icon = GFX_goal_generic_position_armies
	cost = 10
	prerequisite = {
		focus = SPA_claim_gibraltar
	}
	available = {
		NOT = {
			owns_state = 116
		}
		ITA = {
			NOT = {
				has_government = fascism
			}
		}
	}
	completion_reward = {
		116 = { add_claim_by = SPA }
	}
	x = -10
	y = 4
	relative_position_id = SPA_new_diplomacy

}
shared_focus = {
	id = SPA_recover_catalonia
	icon = GFX_focus_Through_Spain
	cost = 7
	prerequisite = {
		focus = SPA_new_diplomacy
	}
	ai_will_do = {
		factor = 15
		modifier = {
			factor = 0.5
			CAT = {
				is_ai = no
			}
		}
	}
	available = {
		CAT = { exists = yes }
		NOT = { 
			CAT = {
				OR = {
					is_in_faction_with = SPA
					is_subject_of = SPA
				}
			}
		}
	}
	bypass = {
		has_war_with = CAT 
	}
	completion_reward = {
		declare_war_on = {
			target = CAT
			type = annex_everything
		}
	}
	x = -3
	y = 1
	relative_position_id = SPA_new_diplomacy

}
shared_focus = {
	id = SPA_claim_sardinia
	icon = GFX_focus_Swing_the_Sword
	cost = 10
	prerequisite = {
		focus = SPA_new_imperialism
	}
	available = {
		NOT = {
			owns_state = 114
		}
		ITA = {
			NOT = {
				has_government = fascism
			}
		}
	}
	completion_reward = {
		114 = { add_claim_by = SPA }
	}
	x = -4
	y = 2
	relative_position_id = SPA_new_diplomacy

}
shared_focus = {
	id = SPA_spanish_guinea
	icon = GFX_focus_Colonial_Focus
	cost = 10
	prerequisite = {
		focus = SPA_occupy_tangiers
	}
	completion_reward = {
		1164 = { add_claim_by = SPA }
		539 = { add_claim_by = SPA }
	}
	x = -8
	y = 4
	relative_position_id = SPA_new_diplomacy

}
shared_focus = {
	id = SPA_allies
	icon = GFX_focus_Befriend_United_Kingdom
	cost = 10
	prerequisite = {
		focus = SPA_take_side
	}
	available = {
		ENG = {
			is_faction_leader = yes
		}
		NOT = {
			has_country_flag = falange_wins
		}
		NOT = { has_war_with = ENG }
		is_in_faction = no
		is_puppet = no
	}
	completion_reward = {
		ENG = { country_event = { days = 1 id = spa.108 } }
	}
	x = -2
	y = 2
	relative_position_id = SPA_new_diplomacy

}
shared_focus = {
	id = SPA_tungsten_exports
	icon = GFX_goal_generic_positive_trade_relations
	cost = 10
	prerequisite = {
		focus = SPA_blue_division
	}
	ai_will_do = {
		factor = 1
		modifier = {
			factor = 2
			has_government = fascism
		}
		modifier = {
			factor = 2
			GER = {
				strength_ratio = {
					tag = ENG
					ratio > 1.1
				}
			}
		}
		modifier = {
			factor = 2
			GER = {
				controls_state = 16
			}
		}
		modifier = {
			factor = 2
			ENG = {
				surrender_progress > 0.2
			}
		}
		modifier = {
			factor = 2
			ENG = {
				surrender_progress > 0.5
			}
		}
		modifier = {
			factor = 2
			check_variable = { british_drift > 2 }
		}
		modifier = {
			factor = 2
			check_variable = { british_drift > 5 }
		}
		modifier = {
			factor = 2
			is_neighbor_of = GER
		}
		modifier = {
			factor = 0.5
			check_variable = { german_drift > 5 }
		}
		modifier = {
			factor = 0.5
			check_variable = { german_drift > 7 }
		}
		modifier = {
			factor = 0.5
			ENG = { is_in_faction_with = USA }
		}
		modifier = {
			factor = 0.5
			GER = {
				surrender_progress > 0.3
			}
		}
		modifier = {
			factor = 0.5
			GER = {
				surrender_progress > 0.6
			}
		}
		modifier = {
			factor = 0
			GER = {
				surrender_progress > 0.7
			}
		}
	}
	available = {
		GER = {
			has_war_with = ENG
		}
		NOT = {
			has_war_with = GER
			is_in_faction = yes
		}
		NOT = { has_completed_focus = SPA_not_our_business }
	}
	completion_reward = {
		GER = { country_event = { days = 1 id = spa.55 } }
		remove_opinion_modifier = {
				target = GER
				modifier = embargo
			}
		custom_effect_tooltip = closer_to_germany
		hidden_effect = { ENG = { country_event = { id = spa.60 days = 5 } } }
		add_to_variable = { var = german_drift value = 3 }
		add_to_variable = { var = british_drift value = -3 }
	}
	x = 4
	y = 5
	relative_position_id = SPA_new_diplomacy

}
shared_focus = {
	id = SPA_spanish_workers
	icon = GFX_focus_Champagne_Repression
	cost = 10
	prerequisite = {
		focus = SPA_blue_division
	}
	ai_will_do = {
		factor = 1
		modifier = {
			factor = 2
			has_government = fascism
		}
		modifier = {
			factor = 2
			GER = {
				strength_ratio = {
					tag = ENG
					ratio > 1.1
				}
			}
		}
		modifier = {
			factor = 2
			GER = {
				controls_state = 16
			}
		}
		modifier = {
			factor = 2
			ENG = {
				surrender_progress > 0.2
			}
		}
		modifier = {
			factor = 2
			ENG = {
				surrender_progress > 0.5
			}
		}
		modifier = {
			factor = 2
			check_variable = { british_drift > 2 }
		}
		modifier = {
			factor = 2
			check_variable = { british_drift > 5 }
		}
		modifier = {
			factor = 2
			is_neighbor_of = GER
		}
		modifier = {
			factor = 0.5
			check_variable = { german_drift > 5 }
		}
		modifier = {
			factor = 0.5
			check_variable = { german_drift > 7 }
		}
		modifier = {
			factor = 0.5
			ENG = { is_in_faction_with = USA }
		}
		modifier = {
			factor = 0.5
			GER = {
				surrender_progress > 0.3
			}
		}
		modifier = {
			factor = 0.5
			GER = {
				surrender_progress > 0.6
			}
		}
		modifier = {
			factor = 0
			GER = {
				surrender_progress > 0.7
			}
		}
	}
	available = {
		GER = {
			has_war_with = ENG
		}
		NOT = {
			has_war_with = GER
			is_in_faction = yes
		}
		NOT = { has_completed_focus = SPA_not_our_business }
	}
	completion_reward = {
		GER = { country_event = { days = 1 id = spa.53 } }
		add_stability = 0.075
		add_political_power = 50
		custom_effect_tooltip = closer_to_germany
		add_to_variable = { var = german_drift value = 2 }
		add_to_variable = { var = british_drift value = -2 }
	}
	x = 6
	y = 5
	relative_position_id = SPA_new_diplomacy

}
shared_focus = {
	id = SPA_anti_japanese
	icon = GFX_focus_AST_war_japan
	cost = 10
	prerequisite = {
		focus = SPA_end_tungsten_shipments
	}
	ai_will_do = {
		factor = 1
		modifier = {
			factor = 2
			NOT = { has_government = fascism }
		}
		modifier = {
			factor = 2
			ENG = {
				strength_ratio = {
					tag = GER
					ratio > 0.9
				}
			}
		}
		modifier = {
			factor = 0.5
			GER = {
				controls_state = 16
			}
		}
		modifier = {
			factor = 0.5
			ENG = {
				surrender_progress > 0.2
			}
		}
		modifier = {
			factor = 0.5
			ENG = {
				surrender_progress > 0.5
			}
		}
		modifier = {
			factor = 0.5
			check_variable = { british_drift > 2 }
		}
		modifier = {
			factor = 0.5
			check_variable = { british_drift > 5 }
		}
		modifier = {
			factor = 0.5
			is_neighbor_of = GER
		}
		modifier = {
			factor = 2
			check_variable = { german_drift > 5 }
		}
		modifier = {
			factor = 2
			check_variable = { german_drift > 7 }
		}
		modifier = {
			factor = 2
			ENG = { is_in_faction_with = USA }
		}
		modifier = {
			factor = 2
			GER = {
				surrender_progress > 0.3
			}
		}
		modifier = {
			factor = 2
			GER = {
				surrender_progress > 0.6
			}
		}
		modifier = {
			factor = 2
			GER = {
				surrender_progress > 0.7
			}
		}
	}
	available = {
		ENG = {
			has_war_with = GER
		}
		NOT = {
			has_war_with = ENG
			is_in_faction = yes
		}
		JAP = {
			NOT = {
				is_in_faction_with = ENG
			}
		}
		NOT = { has_completed_focus = SPA_not_our_business }
	}
	completion_reward = {
		add_opinion_modifier = {
			target = JAP
			modifier = large_decrease
		}
		add_war_support = 0.1
		custom_effect_tooltip = closer_to_britain
		add_to_variable = { var = german_drift value = -2 }
		add_to_variable = { var = british_drift value = 2 }
	}
	x = 10
	y = 5
	relative_position_id = SPA_new_diplomacy

}
shared_focus = {
	id = SPA_catholicism_over_fascism
	icon = GFX_focus_Ties_with_Bishops
	cost = 10
	prerequisite = {
		focus = SPA_end_tungsten_shipments
	}
	ai_will_do = {
		factor = 1
		modifier = {
			factor = 2
			NOT = { has_government = fascism }
		}
		modifier = {
			factor = 2
			ENG = {
				strength_ratio = {
					tag = GER
					ratio > 0.9
				}
			}
		}
		modifier = {
			factor = 0.5
			GER = {
				controls_state = 16
			}
		}
		modifier = {
			factor = 0.5
			ENG = {
				surrender_progress > 0.2
			}
		}
		modifier = {
			factor = 0.5
			ENG = {
				surrender_progress > 0.5
			}
		}
		modifier = {
			factor = 0.5
			check_variable = { british_drift > 2 }
		}
		modifier = {
			factor = 0.5
			check_variable = { british_drift > 5 }
		}
		modifier = {
			factor = 0.5
			is_neighbor_of = GER
		}
		modifier = {
			factor = 2
			check_variable = { german_drift > 5 }
		}
		modifier = {
			factor = 2
			check_variable = { german_drift > 7 }
		}
		modifier = {
			factor = 2
			ENG = { is_in_faction_with = USA }
		}
		modifier = {
			factor = 2
			GER = {
				surrender_progress > 0.3
			}
		}
		modifier = {
			factor = 2
			GER = {
				surrender_progress > 0.6
			}
		}
		modifier = {
			factor = 2
			GER = {
				surrender_progress > 0.7
			}
		}
	}
	available = {
		ENG = {
			has_war_with = GER
		}
		NOT = {
			has_war_with = ENG
			is_in_faction = yes
		}
		NOT = { has_completed_focus = SPA_not_our_business }
	}
	completion_reward = {
		add_popularity = { ideology = fascism popularity = -0.05 }
		add_war_support = -0.1
		add_stability = 0.075
		add_political_power = 100
		custom_effect_tooltip = closer_to_britain
		add_to_variable = { var = german_drift value = -3 }
		add_to_variable = { var = british_drift value = 3 }
	}
	x = 12
	y = 5
	relative_position_id = SPA_new_diplomacy

}
