1;2794.00;9.93;1557.00;small
1;2795.00;9.88;1580.00;small
2;2764.00;11.63;1612.00;small
3;2728.00;11.78;1695.00;small
3;2735.00;11.82;1657.00;big
4;2695.00;9.50;1626.00;small
4;2687.00;10.20;1596.00;small
5;2895.00;9.60;1561.00;small
6;2961.00;9.70;1592.00;small
6;2945.00;10.78;1541.00;small
6;2933.00;9.70;1572.00;small
7;2958.00;13.78;1489.00;small
7;2991.00;11.20;1498.00;small
8;3005.00;9.70;1580.00;small
8;3001.00;10.35;1544.00;small
9;3099.00;9.98;1685.00;small
9;3122.00;9.63;1741.00;small
9;3177.00;9.50;1725.00;small
9;3168.00;9.50;1858.00;small
10;3047.00;10.10;1714.00;big
10;3026.00;10.38;1661.00;big
11;2975.00;12.68;1807.00;small
11;2967.00;10.25;1739.00;small
11;2915.00;13.70;1734.00;small
12;3221.00;10.68;1912.00;small
12;3300.00;10.68;1944.00;small
12;3397.00;10.00;1922.00;small
13;3210.00;10.35;1786.00;big
13;3314.00;10.40;1811.00;big
14;3902.00;9.70;1678.00;big
14;3787.00;10.40;1688.00;big
15;4795.00;9.50;641.00;big
15;4690.00;9.80;610.00;big
16;2847.00;9.50;1632.00;small
16;2800.00;9.50;1783.00;small
16;2786.00;9.50;1712.00;small
17;3467.72;12.10;773.35;big
17;3406.00;15.03;835.00;small
18;2817.00;9.50;1538.00;small
18;2856.00;9.50;1582.00;small
18;2754.00;9.50;1518.00;small
19;2878.00;10.07;1482.00;big
20;2813.00;10.20;1396.00;small
20;2817.00;10.00;1436.00;small
21;3009.00;14.25;1459.00;small
21;2924.00;13.90;1447.00;small
21;2962.00;16.18;1452.00;small
22;3025.00;12.32;1511.00;small
22;3068.00;12.48;1516.00;small
23;3057.00;13.25;1333.00;small
23;3031.00;10.85;1276.00;small
24;3078.00;14.50;1401.00;small
24;3041.00;12.55;1431.00;small
25;3139.00;13.38;1318.00;small
25;3224.00;9.75;1347.00;small
25;3152.00;12.28;1279.00;small
25;3167.00;9.78;1334.00;small
26;3178.00;12.85;1376.00;small
26;3209.00;11.13;1373.00;small
27;3129.00;9.80;1461.00;small
27;3085.00;10.13;1450.00;small
28;3520.00;9.70;1169.00;small
28;3477.00;12.28;1233.00;small
29;3089.00;9.50;1209.00;big
29;3029.00;9.50;1247.00;big
30;3372.66;9.50;1431.36;small
30;3387.46;9.50;1377.46;small
30;3296.08;9.50;1381.19;small
31;4029.00;10.98;930.00;big
31;4025.00;10.57;831.00;big
32;1381.00;9.50;119.00;big
32;1076.00;9.50;160.00;big
32;1281.00;9.50;420.00;big
32;1018.00;9.50;402.00;big
33;499.00;9.53;1991.00;big
33;334.00;10.53;1959.00;big
33;697.00;9.50;1903.00;small
34;1458.00;9.50;1066.00;big
34;1544.00;9.70;1006.00;big
35;1727.00;11.93;128.00;big
35;1770.55;10.50;187.38;small
35;1712.99;12.80;231.36;big
36;2013.00;9.50;1955.00;small
36;2120.71;15.90;1983.16;big
36;2100.00;10.13;1866.00;small
37;3213.00;10.35;1688.00;small
37;3171.00;10.40;1644.00;small
38;3123.00;10.82;1529.00;small
38;3151.00;10.50;1566.00;small
39;3215.00;10.40;1617.00;small
39;3200.00;10.10;1571.00;small
40;3655.00;9.80;1673.00;small
40;3550.00;10.20;1693.00;small
40;3560.00;10.88;1623.00;small
41;2754.29;13.10;1367.45;small
41;2701.00;12.20;1372.00;small
41;2727.45;12.00;1349.25;small
42;2735.00;9.50;1437.00;big
43;2530.00;9.50;1654.00;big
43;2647.00;9.50;1675.00;big
43;2643.00;9.50;1526.00;big
44;2294.00;9.50;1931.00;big
44;2414.00;9.50;1852.00;big
45;2877.00;9.50;1939.00;big
45;2650.00;9.50;1933.00;big
46;3464.00;9.50;1939.00;small
46;3655.00;9.50;1989.00;small
46;3131.00;9.50;2039.00;small
46;3327.00;9.50;1995.00;small
47;2571.00;9.50;1317.00;big
48;2658.00;9.50;1200.00;small
48;2469.00;9.50;1077.00;small
48;2560.00;9.50;1113.00;small
49;2431.00;9.50;1506.00;big
49;2307.00;9.50;1671.00;big
50;1867.00;9.50;1978.00;big
50;2078.00;9.50;1765.00;big
51;2321.00;9.50;1332.00;big
51;2191.00;9.50;1473.00;big
52;1363.00;9.50;1299.00;big
52;1463.90;9.50;1294.27;big
53;1585.00;9.50;1166.00;big
53;1848.00;9.50;1095.00;big
53;1692.00;10.20;1167.00;big
54;1778.00;9.50;1570.00;big
54;1701.00;9.50;1492.00;big
55;1913.00;9.50;1575.00;big
55;1875.00;9.50;1693.00;small
56;2089.00;9.50;1303.00;big
56;2034.00;9.50;1461.00;big
57;1811.00;9.50;1263.00;big
57;1827.00;9.60;1412.00;big
58;2415.00;9.50;1069.00;big
58;2250.00;9.50;1071.00;big
58;2284.00;9.50;1193.00;big
59;2087.00;9.50;952.00;big
59;2001.00;9.50;1114.00;big
60;3850.00;9.50;759.00;big
60;3690.00;9.50;548.00;big
60;3905.00;9.50;541.00;big
61;2296.00;9.50;872.00;big
61;2491.00;9.50;826.00;big
62;2635.00;9.50;554.00;big
62;2852.00;9.50;357.00;big
62;2844.00;9.50;621.00;big
63;1619.00;9.50;96.00;big
63;1844.00;9.50;81.00;big
64;2438.00;9.50;108.00;big
64;2025.00;9.50;104.00;big
64;2231.00;9.50;119.00;big
65;3300.00;9.50;58.00;big
65;3028.00;9.50;119.00;big
66;2159.00;9.50;372.00;big
66;2423.00;9.50;586.00;big
66;2422.00;9.50;346.00;big
67;2649.00;9.50;149.00;big
67;2853.00;9.50;100.00;big
68;2795.00;9.50;1263.00;big
68;2874.00;9.50;1316.00;big
69;3197.00;11.43;1233.00;big
69;3317.00;11.05;1229.00;big
70;3599.00;9.50;1431.00;big
70;3618.00;9.50;1344.00;big
71;4072.00;9.50;529.00;big
71;4256.00;9.50;468.00;big
71;4235.00;9.50;629.00;big
72;4348.00;9.50;738.00;small
72;4474.00;9.50;653.00;big
73;4412.00;9.50;798.00;big
73;4410.00;9.50;754.00;big
74;4158.00;9.50;311.00;big
74;4047.00;9.50;144.00;big
74;4266.00;9.50;103.00;big
75;4603.00;9.50;956.00;big
75;4575.00;9.50;814.00;big
76;4752.00;9.50;1082.00;big
77;4712.00;9.50;1191.00;small
77;4725.00;9.50;1289.00;small
78;4782.00;9.50;943.00;big
78;4871.00;9.50;789.00;big
78;4937.00;9.50;931.00;big
79;4862.00;9.50;1298.00;small
79;4954.00;9.50;1355.00;small
79;5006.00;9.50;1471.00;small
80;4703.00;9.50;711.00;small
80;4689.00;9.50;798.00;small
81;5418.00;9.50;308.00;big
81;5132.00;9.50;377.00;big
82;4969.71;9.50;438.91;small
82;4975.21;9.50;477.72;small
83;5261.00;9.50;518.00;big
83;5438.00;9.50;485.00;big
84;5019.00;9.50;739.00;big
84;5173.00;10.25;600.00;big
85;3708.00;9.50;310.00;big
85;3589.00;9.50;122.00;big
85;3902.00;9.50;151.00;big
86;5251.00;9.50;123.00;big
86;5519.00;9.50;154.00;big
87;5132.00;9.50;1655.00;big
87;5096.00;9.50;1464.00;big
88;166.00;9.50;1981.00;big
88;73.00;9.50;1759.00;big
88;5500.00;9.50;1730.00;big
89;829.00;9.50;1528.00;big
89;901.00;9.50;1366.00;big
90;5066.00;9.50;1344.00;small
90;4942.00;9.50;1182.00;small
90;5028.00;9.50;1239.00;small
91;4773.00;9.50;618.00;big
91;4882.00;9.50;521.00;big
92;4734.00;9.50;449.00;big
92;4610.00;9.50;429.00;big
93;4650.00;9.50;628.00;small
93;4627.00;9.50;558.00;big
93;4527.00;9.50;572.00;small
94;5024.00;10.50;1059.00;big
94;5127.00;9.50;921.00;big
95;5475.00;9.50;1177.00;big
95;48.00;9.50;1185.00;big
96;5394.00;9.50;1488.00;big
96;5556.00;9.50;1476.00;big
96;11.00;9.50;1526.00;big
97;5452.00;10.38;746.00;big
97;78.00;9.50;670.00;big
98;4744.00;9.50;68.00;big
98;4945.00;9.50;79.00;big
99;4539.00;9.50;111.00;big
99;4457.00;9.55;481.00;big
99;4470.00;9.50;309.00;big
99;4402.00;9.50;86.00;big
100;3576.00;9.50;856.00;small
100;3450.00;9.50;905.00;small
100;3366.00;9.50;1062.00;small
101;4106.00;9.50;810.00;big
101;4253.00;9.50;852.00;big
102;3605.00;9.50;738.00;small
102;3543.00;9.50;612.00;small
102;3505.00;9.50;468.00;small
103;3381.00;9.50;244.00;big
103;3457.00;9.50;353.00;big
104;3753.59;9.50;940.33;big
104;3855.00;9.50;932.00;big
104;3807.88;9.50;1012.34;big
104;3765.18;9.50;854.15;small
105;441.00;9.50;1175.00;big
105;211.00;9.50;1103.00;big
105;435.00;12.40;989.00;big
106;1021.00;9.50;1287.00;big
106;1284.00;9.50;1091.00;big
106;1105.00;9.50;1159.00;big
107;1439.00;9.50;995.00;big
107;1515.00;9.50;919.00;big
108;1610.00;9.50;494.00;big
108;1564.00;9.50;261.00;big
109;1507.00;9.50;643.00;big
109;1450.00;9.50;782.00;big
110;1173.00;9.50;690.00;big
110;1122.00;9.50;972.00;big
110;1308.00;9.50;834.00;big
111;662.00;9.50;1017.00;big
111;757.00;9.50;1212.00;big
111;892.00;9.50;1047.00;big
112;338.00;9.50;146.00;big
112;85.00;9.50;118.00;big
112;5616.00;9.50;116.00;big
112;806.00;9.50;116.00;big
112;620.00;9.50;108.00;big
113;831.00;9.50;370.00;big
113;721.00;9.50;497.00;big
113;629.00;9.50;310.00;big
114;241.82;9.50;1704.78;big
114;545.34;9.50;1704.54;big
115;748.00;9.50;1471.00;big
115;578.00;9.50;1448.00;big
116;3702.00;12.07;1185.00;big
116;3571.00;14.32;1235.00;big
117;1581.51;11.00;1545.89;big
117;1568.96;11.60;1504.78;big
117;1621.76;12.00;1554.18;big
118;900.10;11.30;1678.80;big
118;894.78;11.80;1612.69;big
119;1150.71;14.80;1437.57;big
119;1054.52;12.60;1434.09;big
120;1289.46;10.30;1671.64;big
120;1340.32;10.40;1593.58;small
120;1231.66;11.10;1624.59;big
120;1264.26;11.00;1542.53;big
120;1351.02;10.80;1524.47;small
121;1755.00;11.60;1795.00;big
121;1425.00;9.50;1734.00;big
121;1586.00;10.40;1642.00;big
122;1266.00;9.50;1800.00;big
122;1074.00;10.68;1884.00;big
123;1119.00;14.28;1327.00;big
123;1239.00;14.20;1228.00;big
124;1756.00;9.80;1010.00;big
124;1635.05;12.00;984.21;big
124;1569.84;10.60;853.83;big
125;2207.00;10.73;734.00;big
125;2056.00;11.35;506.00;big
125;1951.28;10.50;645.81;big
126;3028.00;12.88;1174.00;small
126;2947.00;9.50;1213.00;small
126;2897.00;14.70;1249.00;small
126;2815.00;14.18;1229.00;small
126;3144.00;9.80;1161.00;small
127;2886.00;11.70;1000.00;big
127;2723.12;10.20;989.85;big
127;3028.74;13.50;1024.90;big
127;3146.06;10.80;948.75;big
127;2844.26;11.50;1104.50;small
127;3184.25;10.40;1067.51;small
128;3307.00;11.18;1068.00;small
128;3285.00;9.80;1146.00;small
129;3441.00;14.43;1304.00;big
129;3343.00;12.30;1315.00;big
129;3260.00;11.57;1294.00;big
130;3252.00;10.20;1513.00;small
130;3291.00;10.10;1476.00;small
130;3347.00;9.78;1463.00;small
131;3334.00;10.00;1602.00;small
131;3274.00;9.80;1586.00;small
132;3357.00;10.15;1670.00;small
132;3276.00;9.70;1691.00;small
132;3343.00;10.60;1717.00;small
133;3432.00;9.98;1675.00;small
133;3490.00;9.90;1641.00;small
133;3401.00;10.82;1638.00;small
134;3527.00;12.38;1347.00;big
134;3475.00;15.35;1379.00;big
135;3519.00;9.70;1443.00;big
135;3439.00;9.73;1437.00;big
136;3771.00;9.70;1403.00;big
136;3981.00;11.35;1461.00;big
137;3610.00;9.68;1536.00;small
137;3497.00;9.80;1517.00;small
138;3721.00;12.43;1664.00;small
138;3713.00;16.13;1573.00;small
139;3272.00;12.32;181.00;small
139;3198.00;14.20;123.00;small
139;3100.00;10.40;100.00;small
140;2949.00;13.53;818.00;small
140;2819.00;10.50;876.00;small
140;2724.00;10.20;868.00;small
141;4207.00;9.93;1031.00;small
141;4246.00;13.03;1075.00;small
141;4145.00;10.60;1052.00;small
142;4412.00;11.90;957.00;big
142;4455.00;10.30;851.00;big
143;4618.00;10.85;1270.00;big
143;4642.00;13.07;1362.00;big
144;4495.00;13.40;1211.00;small
144;4530.00;13.43;1323.00;small
145;4045.00;13.35;1328.00;big
145;4186.00;16.55;1390.00;big
146;4013.00;21.18;1224.00;big
146;4159.00;23.27;1138.00;big
147;4030.00;10.25;1774.00;small
147;3986.00;9.70;1923.00;big
147;4399.00;10.50;1901.00;big
147;4231.91;10.50;1697.36;big
148;4841.00;10.70;1579.00;big
148;4931.00;10.45;1469.00;big
149;50.00;10.18;2030.00;small
149;5284.00;10.03;1694.00;small
149;4708.49;11.30;1754.78;big
149;4912.29;10.60;1786.42;big
150;3405.00;10.50;1785.00;small
150;3471.00;10.50;1722.00;small
150;3716.00;10.25;1836.00;big
150;3585.00;10.40;1801.00;big
151;4366.71;11.50;1632.03;small
151;4533.36;11.00;1606.43;small
151;4114.00;10.35;1595.00;big
152;4518.00;12.55;1442.00;big
152;4314.00;16.30;1479.00;big
153;3975.00;11.18;1065.00;big
153;4071.00;11.28;1026.00;big
154;4896.00;9.60;1225.00;small
154;5010.00;10.50;1376.00;small
154;4971.00;12.53;1256.00;small
154;4848.00;11.85;1189.00;small
155;4822.00;11.30;1426.00;big
155;4743.00;9.90;1376.00;big
156;5048.00;9.57;81.00;small
156;4945.00;9.82;170.00;big
157;5518.00;10.85;87.00;small
157;5460.00;12.55;38.00;small
157;5566.00;11.55;162.00;small
158;4525.00;12.10;534.00;small
158;4698.00;10.38;511.00;small
159;4574.00;10.53;639.00;small
159;4626.00;10.85;721.00;small
160;4722.00;10.75;829.00;small
160;4754.00;11.30;768.00;small
160;4695.00;10.50;911.00;small
161;2514.00;13.15;1899.00;small
162;3884.00;18.85;1231.00;small
162;3812.00;13.85;1207.00;small
163;1786.36;9.80;755.90;big
163;1760.77;9.80;909.69;small
163;1960.59;10.10;758.04;big
163;1672.64;9.80;799.05;small
163;1923.00;10.20;896.26;big
164;4662.00;9.73;1176.00;small
164;4639.00;10.78;1087.00;small
164;4566.00;9.93;1191.00;small
165;4541.00;10.35;1046.00;big
165;4432.00;16.25;1102.00;small
166;1485.00;9.50;1971.00;big
166;1525.00;9.50;1879.00;big
167;4926.00;10.03;598.00;small
167;5022.00;12.78;555.00;small
167;5107.00;15.38;517.00;big
168;3089.48;9.50;1349.68;small
168;3023.94;9.50;1398.56;small
168;3062.46;9.50;1366.84;small
169;2948.00;10.18;1342.00;big
169;3020.00;9.50;1317.00;big
170;1601.00;9.50;1312.00;big
171;742.00;9.70;1811.00;big
171;539.35;9.50;1866.47;big
171;852.00;11.53;1725.00;big
172;273.00;9.50;695.00;big
172;420.00;9.50;823.00;big
172;446.00;9.50;635.00;big
173;2901.00;9.50;1649.00;small
173;2865.00;9.50;1701.00;small
174;3003.00;9.50;1904.00;small
174;2882.00;9.50;1747.00;small
174;2905.00;9.50;1813.00;small
175;878.00;9.50;650.00;big
175;855.00;9.50;836.00;big
175;660.00;9.50;714.00;big
176;354.00;9.50;1521.00;big
176;113.00;9.50;1486.00;big
176;313.00;9.50;1351.00;big
177;5242.00;9.50;1357.00;big
177;5193.00;9.50;1184.00;big
178;5592.00;9.50;372.00;big
178;109.00;9.98;430.00;big
179;461.00;11.63;366.00;big
179;329.00;9.50;445.00;big
180;5594.00;9.50;947.00;big
180;129.00;9.50;868.00;big
181;3528.00;11.53;261.00;small
181;3574.00;12.95;397.00;small
181;3519.00;12.63;343.00;small
182;2682.00;14.23;1159.00;small
182;2731.00;15.00;1212.00;small
183;3076.00;10.30;846.00;small
183;3110.00;10.68;779.00;small
184;3065.00;14.00;272.00;big
184;3090.00;13.43;462.00;big
185;3249.00;13.10;459.00;big
185;3338.00;11.15;371.00;big
186;4785.00;13.98;1326.00;small
186;4799.00;10.38;1265.00;small
187;4376.00;9.88;660.00;small
187;4435.00;9.70;596.00;small
188;4366.00;10.32;766.00;small
188;4400.00;10.07;704.00;small
189;4310.00;10.53;920.00;small
189;4309.00;12.38;1003.00;small
190;3862.00;10.70;1090.00;small
190;3956.00;11.82;1193.00;small
190;3909.00;13.73;1151.00;small
191;3113.00;9.50;1976.00;small
191;3028.00;11.25;1904.00;small
191;3202.00;10.70;1988.00;small
192;3120.00;11.55;1892.00;small
192;3029.00;12.15;1779.00;small
192;3066.00;11.40;1839.00;small
193;4875.00;10.60;415.00;big
193;4710.00;10.63;207.00;big
194;5036.00;10.57;372.00;big
194;5096.00;9.85;191.00;big
195;792.00;9.50;1901.00;big
195;891.00;14.00;1767.00;big
196;3612.00;10.00;982.00;big
196;3451.00;12.30;1062.00;big
197;1647.00;11.53;1593.00;small
197;1725.00;9.80;1636.00;small
198;1437.83;10.30;1404.95;big
198;1466.21;11.20;1470.45;big
199;1125.02;11.90;1673.45;big
199;1075.49;16.30;1551.83;big
199;1014.88;15.60;1652.10;big
199;1145.44;13.90;1602.68;small
199;1168.46;16.90;1524.70;small
200;4307.00;21.15;1226.00;small
200;4437.00;14.48;1254.00;small
200;4379.00;12.88;1324.00;small
201;1652.00;12.32;682.00;big
201;1748.00;20.40;567.00;big
201;1606.00;10.38;784.00;small
202;3154.00;11.55;1442.00;small
202;3196.00;14.40;1448.00;small
203;3182.00;11.57;1412.00;small
203;3227.00;9.70;1412.00;small
204;3220.00;10.65;1464.00;small
204;3257.00;9.80;1448.00;small
205;1403.00;9.95;1130.00;big
205;1321.00;10.07;1137.00;big
206;3092.00;9.50;1622.00;small
206;3038.00;9.55;1625.00;small
207;2976.00;9.50;1626.00;small
207;2962.00;9.50;1693.00;small
208;3124.00;10.63;1408.00;small
208;3131.00;14.10;1359.00;small
209;2934.00;10.40;1502.00;small
209;2917.00;9.88;1535.00;small
210;2984.00;9.70;1634.00;small
210;2949.00;10.25;1646.00;small
211;2878.00;9.95;1529.00;small
212;2842.00;9.80;1519.00;small
212;2796.00;10.85;1483.00;small
212;2759.00;10.45;1480.00;small
213;2859.00;13.20;1410.00;small
213;2897.00;11.00;1417.00;small
214;2684.00;12.82;1341.00;small
214;2678.00;9.98;1297.00;small
215;2790.00;13.28;1307.00;small
215;2722.00;11.15;1272.00;small
215;2757.00;12.70;1280.00;small
216;2937.00;10.55;1418.00;small
216;2977.00;9.70;1426.00;small
217;3286.00;11.15;807.00;big
217;3339.00;10.40;943.00;small
218;3397.00;12.65;1231.00;small
218;3359.00;9.50;1166.00;small
219;2981.00;10.90;1383.00;small
219;3012.00;12.28;1366.00;small
220;904.00;9.70;1535.00;big
220;991.24;16.40;1528.49;small
220;930.35;9.90;1478.94;big
221;1408.89;11.80;1609.75;big
221;1477.99;10.70;1569.30;big
221;1421.48;10.60;1536.78;big
221;1483.52;11.00;1639.11;small
222;1499.88;9.90;1423.07;big
222;1555.00;9.80;1441.00;small
222;1522.00;9.70;1341.00;small
223;3470.00;9.90;1585.00;small
223;3391.00;10.57;1559.00;small
224;3398.00;9.90;1487.00;small
224;3307.00;9.80;1533.00;small
224;3353.00;9.73;1505.00;small
225;3351.00;11.73;1420.00;big
225;3332.00;9.70;1421.00;big
226;3188.00;10.30;1498.00;small
226;3197.00;10.10;1532.00;small
227;3068.00;9.80;1588.00;small
227;3126.00;9.80;1602.00;small
227;3066.00;10.00;1550.00;small
228;1757.00;9.90;1667.00;small
228;1936.00;9.60;1699.00;small
229;3209.00;9.50;1313.00;small
229;3215.00;9.50;1272.00;small
230;1919.81;9.90;338.35;big
230;1940.10;10.90;427.00;big
231;3379.00;13.30;598.00;big
231;3268.00;9.50;644.00;big
232;3171.00;13.35;187.00;big
232;3235.00;12.85;260.00;big
233;3039.00;10.95;587.00;small
233;3117.00;11.00;630.00;big
234;2823.00;10.63;785.00;small
234;2731.00;9.93;760.00;small
234;2902.00;9.78;753.00;small
235;2984.00;11.55;644.00;small
235;2986.00;11.15;736.00;small
236;2577.00;9.93;863.00;small
236;2633.00;10.53;783.00;small
237;2569.00;9.70;960.00;small
237;2610.00;10.35;1073.00;small
238;2751.00;12.48;1581.00;small
238;2738.00;11.25;1551.00;small
239;3040.00;13.50;1477.00;small
240;2761.00;12.32;1323.00;small
240;2718.00;12.53;1315.00;small
241;2664.00;10.28;1618.00;small
241;2659.00;11.45;1574.00;small
242;3146.00;9.80;1494.00;small
242;3095.00;9.90;1487.00;small
243;2828.12;13.00;1360.30;small
243;2796.88;10.30;1312.69;small
243;2792.00;11.10;1351.45;small
244;1863.39;10.00;524.84;big
244;1805.13;9.80;635.27;big
244;1835.76;10.50;435.73;small
244;1787.15;18.90;471.16;small
245;1842.86;9.80;265.97;big
245;1822.65;9.80;353.16;big
245;1760.64;11.10;283.60;small
245;1747.40;13.90;383.39;big
246;1726.34;14.90;484.48;small
246;1710.60;12.20;407.68;small
246;1700.70;9.80;335.30;small
247;1276.38;10.60;1382.51;big
247;1339.97;10.80;1443.59;big
247;1372.90;10.30;1370.82;small
248;3641.41;9.50;1066.60;big
248;3592.10;9.50;1104.95;big
248;3687.82;9.50;1083.58;small
