
state={
	id=1009
	name="STATE_1009"
	#adjusted
	manpower = 59325
	state_category = pastoral
	history={
		owner = SYR
		buildings = {
			infrastructure = 2
		}
		add_core_of = SYR	
	}
	provinces={
		4486
	}
}
