
state={
	id=1012
	name="STATE_1012"
	#adjusted
	manpower = 127410
	state_category = rural
	history={
		owner = ENG
		buildings = {
			infrastructure = 4
		}
		add_core_of = ISR
		add_core_of = PAL
	}
	provinces={
		1065
	}
}
