
state={
	id=1039
	name="STATE_1039"
	#adjusted
	manpower = 229551
	state_category = rural
	history={
		owner = POR
		buildings = {
			infrastructure = 3
		}
		victory_points = {
			724 1
		}
		add_core_of = POR
	}
	provinces={
		724 877 3892 6921 6941
	}
}
