
state={
	id=1120
	name="Guanxian"

	history={
		victory_points = {
			1257 1
		}
		owner = DXH
		add_claim_by = CHI
		add_core_of = DXH
		add_claim_by = PRC
		buildings = {
			infrastructure = 3

		}
		victory_points = {
			4375 1 
		}

	}

	provinces={
		1257 4375
	}
	manpower=487159
	buildings_max_level_factor=1.000
	state_category=rural
}
