
state={
	id=1123
	name="STATE_1123"

	history={
		victory_points = {
			11865 2
		}
		owner = LXI
		add_claim_by = CHI
		add_core_of = LXI
		add_claim_by = PRC
		buildings = {
			infrastructure = 3

		}
		victory_points = {
			7948 1 
		}

	}

	provinces={
		11865 7948 4041
	}
	manpower=3894403
	buildings_max_level_factor=1.000
	state_category=town
}
