state={
	id=1147
	name="STATE_1147" #Tianshuihai
	#adjusted
	manpower = 20000
	
	state_category = wasteland


	history={
		owner = TIB
		add_claim_by = CHI
		add_claim_by = PRC
		add_core_of = TIB
		add_claim_by = RAJ
		buildings = {
			infrastructure = 1
		}
	}
	provinces={
		5042
	}
}
