state={
	id=1183
	name="STATE_1183"
	provinces={
		3796 3819 3952 6842 9610 
	}
	history={
		owner = BUL
		buildings = {
			infrastructure = 4

		}
		victory_points = { 3796 1 }
		add_core_of = BUL

	}
	manpower=820325
	buildings_max_level_factor=1.000
	state_category=rural
}
