state={
	id=1214
	name="STATE_1214"
	
	history={
		owner = SPR
		add_core_of = SPR
		victory_points = {
			939 1
		}
		buildings = {
			infrastructure = 3
		}
	}
	
	provinces={
		939 3845 9800 
	}
	manpower=229386
	buildings_max_level_factor=1.000
	state_category=rural
}
