state={
	id=1228
	name="STATE_1228"
	history={
		owner = PER
		buildings = {
			infrastructure = 4
		}
		add_core_of = PER
		add_claim_by = TRK
	}
	
	provinces={
		1521 5029 7602 10351 
	}
	manpower=654360
	buildings_max_level_factor=1.000
	state_category=town
}
