state={
	id=1231
	name="STATE_1231"
	history = {
		owner=SOV
		add_core_of = SOV
		add_core_of = ARM
		add_claim_by = GEO
		buildings = {
			arms_factory = 1
			infrastructure=3
		}
	}
	provinces={
		11609 
	}
	manpower=39481
	buildings_max_level_factor=1.000
	state_category=rural
}
