
state={
	id=134
	name="STATE_134"

	history={
		owner = IRE
		buildings = {
			infrastructure = 5

		}
		victory_points = {
			9303 2 
		}
		victory_points = {
			11371 1 
		}
		add_core_of = IRE

	}

	provinces={
		3396 9255 9303 9321 9369 11238 11287 11371 
	}
	manpower=638911
	buildings_max_level_factor=1.000
	state_category=rural
}
