
state={
	id=141
	name="STATE_141" # Svealand
	#adjusted
	manpower = 1425231
	state_category = city
	
	resources={
		steel=40
		aluminium=4
	}

	history={
		owner = SWE
		victory_points = {
			6050 25 
		}
		victory_points = {
			9209 1
		}
		victory_points = {
			9149 2
		}
		buildings = {
			infrastructure = 6
			arms_factory = 1
			industrial_complex = 2
			dockyard = 1
			air_base = 6
			6050 = {
				naval_base = 5
				coastal_bunker = 3
			}

		}
		add_core_of = SWE
	}

	provinces={
		35 161 3106 3182 6050 6084 6127 6164 6188 6209 9109 9149 9185 9209 11044 11082 11163 11188 11278 13097 13098 
	}
}
