
state={
	id=150
	name="STATE_150"
	resources={
		steel=4.000
	}

	history={
		owner = FIN
		buildings = {
			infrastructure = 4
			industrial_complex = 1

		}
		add_core_of = FIN

	}

	provinces={
		37 136 139 141 193 3030 3068 3125 3131 3185 6033 6078 6146 6156 6210 9061 9104 9169 9181 11076 11141 11199 11210 13108 13109 13111 13112 13114 13115 13118 13110
	}
	manpower=585250
	buildings_max_level_factor=1.000
	state_category=rural
}
