
state={
	id=176
	name="STATE_176"

	history={
		owner = SPR
		victory_points = {
			11825 5 
		}
		victory_points = {
			9872 3
		}
		buildings = {
			infrastructure = 5
			industrial_complex = 1
			air_base = 2
		}
		add_core_of = SPR

	}

	provinces={
		4024 6936 9700 9827 9846 9872 11684 11825
	}
	manpower=1286919
	buildings_max_level_factor=1.000
	state_category=town
}
