
state={
	id=195
	name="STATE_195"
	#adjusted
	manpower = 3591526

	state_category = metropolis

	history={
		victory_points = {
			11068 20
		}
		owner = SOV
		victory_points = {
			3151 30
		}
		victory_points = {
			79 1
		}
		victory_points = {
			11068 1
		}
		victory_points = {
		6174 3
		}
		buildings = {
			infrastructure = 6
			arms_factory = 4
			industrial_complex = 1
			dockyard = 3
			air_base = 10
			3151 ={
				naval_base = 10
				coastal_bunker = 5
			}
		}
		add_core_of = SOV
	}

	provinces={
		79 149 3151 6174 11068
	}
}
