
state={
	id=20
	name="STATE_20"
	resources={
		steel=128.000
		aluminium=72.000
	}

	history={
		owner = FRA
		victory_points = {
			6613 25 
		}
		buildings = {
			infrastructure = 7
			arms_factory = 1
			industrial_complex = 1
			air_base = 4

		}
		add_core_of = FRA

	}

	provinces={
		641 3770 6613 6639 6786 9590 9728 11593 11716 11794 
	}
	manpower=2847566
	buildings_max_level_factor=1.000
	state_category=large_city
}
