
state={
	id=228
	name="STATE_228" # Voroshilovgrad
	#adjusted
	manpower = 2075730
	
	state_category = town

	history={
		owner = SOV
		victory_points = {
			9461 5
		}
		buildings = {
			infrastructure = 5
		}
		add_core_of = SOV
		add_core_of = UKR
	}

	provinces={
		523 547 570 6505 6519 9446 9461 9476 11487 11513 
	}
}
