
state={
	id=23
	name="STATE_23"
	resources={
		steel=48.000
	}

	history={
		owner = FRA
		victory_points = {
			6657 5 
		}
		buildings = {
			infrastructure = 6
			industrial_complex = 1
			6657 = {
				naval_base = 3

			}

		}
		add_core_of = FRA

	}

	provinces={
		595 629 655 3659 6657 9597 9631 11582 11596 11600 
	}
	manpower=1535360
	buildings_max_level_factor=1.000
	state_category=town
}
