
state={
	id=329
	name="STATE_329"
	#adjusted
	manpower = 70100
	
	state_category = pastoral

	history={
		owner = TAN
		buildings = {
			infrastructure = 1
		}
		victory_points = {
			10627 2
		}
		victory_points = {
			7819 1
		}
		add_core_of = TAN
		add_claim_by = CHI
		add_claim_by = PRC
	}

	provinces={
		1676 4680 7703 7731 7804 7819 10597 10627 10646 12610 12625 
	}
}
