
state={
	id=340
	name="STATE_340"
	#adjusted
	manpower = 983105
	resources={
		chromium=54
	}

	state_category = town

	history={
		owner = TUR
		buildings = {
			infrastructure = 4
			industrial_complex = 1
		}
		
		victory_points = {
			947 1 
		}
		add_core_of = TUR
	}

	provinces={
		785 947 3786 3851 6864 6912 9799 9887 11778 11867 
	}
}
