
state={
	id=343
	name="STATE_343" # Afyon
	#adjusted
	manpower = 915334
	resources={
		chromium=32
	}
	
	state_category = rural

	history={
		owner = TUR
		buildings = {
			infrastructure = 3
			industrial_complex = 1
		}
		add_core_of = TUR
	}

	provinces={
		784 856 981 3856 3876 3983 6877 6945 9878 10041 11796 11831 11907 
	}
}
