
state={
	id=366
	name="STATE_366"

	history={
		owner = USA
		buildings = {
			infrastructure = 4
			industrial_complex = 1
			air_base = 8
			1572 = {
				naval_base = 2

			}
			1843 = {
				naval_base = 5

			}
			7388 = {
				naval_base = 3

			}

		}
		add_core_of = USA
		victory_points = {
			1843 5 
		}
		victory_points = {
			12381 5 
		}
		victory_points = {
			7388 3
		}
		victory_points = {
			10407 2
		}
		victory_points = {
			12439 2
		}

	}

	provinces={
		866 1556 1572 1584 1843 1913 7388 9834 10407 10489 12353 12381 12439 12752 
	}
	# adjusted
	manpower=1316637
	buildings_max_level_factor=1.000
	state_category=city
}
