
state={
	id=370
	name="STATE_370"
	#adjusted
	manpower = 1924805
	
	state_category = city

	history={
		owner = USA
		victory_points = {
			4464 1 
		}
		victory_points = {
			4565 2
		}
		buildings = {
			infrastructure = 4
			industrial_complex = 1
			air_base = 3
			4464 = {
				naval_base = 4
			}
		}
		add_core_of = USA
	}

	provinces={
		1615 4464 4510 4565 4650 7464 7668 8110 10410 10449 10753 11717 12328 12429 
	}
	
}
