
state={
	id=382
	name="STATE_382"
	#adjusted
	manpower = 991976
	resources={
		oil=22
	}
	
	state_category = town

	history={
		owner = USA
		buildings = {
			infrastructure = 4
			industrial_complex = 1
		}
		add_core_of = USA
		victory_points = {
			1827 5 
		}

	}

	provinces={
		868 1658 1809 1827 3869 6887 7684 7780 7999 9792 10535 10588 11772 12570 12642 1738 12627
	}
}
