
state={
	id=396
	name="STATE_396"
	#adjusted
	manpower = 3101512
	state_category = large_city

	history={
		owner = USA
		buildings = {
			infrastructure = 6
			industrial_complex = 4
		}
		add_core_of = USA
		victory_points = {
			1595 5 
		}
		victory_points = {
			870 1 
		}
		victory_points = {
			11635 1 
		}

	}

	provinces={
		870 1595 1881 4437 4527 4531 6713 7551 9653 9654 9796 9810 10448 11621 11635 11637 12437 
	}
}
