
state={
	id=418
	name="STATE_418"
	#adjusted
	manpower = 2085647
	
	state_category = pastoral

	history={
		owner = EGY
		buildings = {
			infrastructure = 4
		}
		add_core_of = EGY
	}

	provinces={
		1151 4143 7030 7073 7144 7188 10028 10031 10097 11974 12044 12071 13448 13449 13450 
	}
}
