
state={
	id=430
	name="STATE_430" # East Bengal
	#bengal
	manpower = 33778053
	
	state_category = city

	history={
		owner = RAJ
		victory_points = {
			11929 20
		}
		victory_points = {
			12010 3
		}
		victory_points = {
			2843 1
		}
		buildings = {
			infrastructure = 5
			industrial_complex = 2
			dockyard = 1
			air_base = 2
			11968 = {
				naval_base = 3

			}
			11929 = {
			naval_base = 3
			}
		}
	
		add_core_of = PAK
		add_core_of = RAJ

	}

	provinces={
	  4162 4616 7078 7124 9935 9991 9993 10035 10416 10443 11911 11929 11968 12010 2843 7662 13367 13369 12423
	}
}
