
state={
	id=452
	name="STATE_452"
	#adjusted
	manpower = 50333
	
	state_category = wasteland

	history={
		owner = EGY
		buildings = {
			infrastructure = 3
		}
		

	add_core_of = EGY
	}

	provinces={
		7079 10061 10857 11910 11967 5078 7148 13471 13474
	}

}
