
state={
	id=453
	name="STATE_453"

	history={
		owner = EGY
		buildings = {
			infrastructure = 2

		}
		add_core_of = EGY
		
	}

	provinces={
		1112 4161 10002 10099 11922 11979 12073 13446 13445
	}
	#adjusted
	manpower=14213
	buildings_max_level_factor=1.000
	state_category=wasteland
}
