
state={
	id=473
	name="STATE_473"
	#adjusted
	manpower = 714531
	resources={
		oil=2
	}
	
	state_category = town

	history={
		owner = CAN
		buildings = {
			infrastructure = 5
			arms_factory = 1
			industrial_complex = 1
			dockyard = 1
			air_base = 3
			1408 = {
				naval_base = 5
			}
		}
		add_core_of = CAN
		victory_points = {
			1408 15 
		}
		victory_points = {
			4413 1 
		}
	}

	provinces={
		1323 1393 1408 1411 1737 1799 1858 4343 4385 4413 4428 4870 4877 7677 7753 7761 7820 7853 10228 10258 10273 10548 10644 12231 12571 12578 917 1872 4678 5403 12508 7830 13389 13391 13392 13393 13394 13395 13382 13396 13397
	}
}
