
state={
	id=477
	name="STATE_477"
	#adjusted
	manpower = 1868913
	
	state_category = town

	history={
		owner = MEX
		buildings = {
			infrastructure = 4
			12810 = {
				naval_base = 3
			}
		}
		add_core_of = MEX
		victory_points = {
			12810 1
		}
	}

	provinces={
		8079 8089 10732 12810 
	}
	
}
