
state={
	id=491
	name="STATE_491"
	#adjusted
	manpower = 72174

	state_category = pastoral

	history={
		owner = PRU
		buildings = {
			infrastructure = 2
		}
		add_core_of = PRU
	}

	provinces={
		10970 8213 12869 5162
	}
}
