
state={
	id=558
	name="STATE_558"
	resources={
		rubber=3.000
	}

	history={
		owner = ENG
		buildings = {
			infrastructure = 3
			industrial_complex = 1
			2050 = {
				naval_base = 3

			}

		}
		victory_points = {
			2050 10 
		}
		victory_points = {
			13651 3
		}
		victory_points = {
			13652 5
		}
		victory_points = {
			1992 1
		}
		victory_points = {
			8034 1 
		}
		add_core_of = NGA
	}

	provinces={
		2050 4952 8034 10831 12731 13649 1992 13650 13652 13651
	}
	manpower=8621200
	buildings_max_level_factor=1.000
	state_category=rural
}
