state={
	id=56
	name="STATE_56"
	#adjusted
	manpower = 1434952
	
	state_category = town

	history={
		owner = GER
		buildings = {
			infrastructure = 6
			industrial_complex = 1

		}
		victory_points = {
			3522 10 
		}
		victory_points = {
			6582 1 
		}
		add_core_of = GER
	}
	provinces={
		9238 3522 11359 6487 9560 6582 11468 425 538 11545 6501 9456 6441
	}
}
