
state={
	id=563
	name="STATE_563" # Chita
	#adjusted
	manpower = 995511
	state_category = rural
	resources={
		steel=12
		chromium=10
	}

	history={
		owner = SOV
		buildings = {
			infrastructure = 3
			air_base = 2
		}
		victory_points = {
			12641 3
		}
		add_core_of = SOV
	}

	provinces={
		1672 1826 4675 4677 4832 7725 7786 10565 10574 10643 10681 10683 12556 12641 
	}
}
