
state={
	id=570
	name="STATE_570" # Novosibirsk
	#adjusted
	manpower = 1690694

	state_category = town

	history={
		owner = SOV
		victory_points = {
			7274 7
		}
		buildings = {
			infrastructure = 4
			industrial_complex = 2
			air_base = 1
		}
		add_core_of = SOV
		1939.1.1 = {
			buildings = {
				industrial_complex = 3
			}
		}
	}

	provinces={
		1733 1790 1860 4366 4734 4806 4840 4866 7274 7687 7722 7825 10555 10652 12606 12679 
	}
}
