state=
{
	id=628
	name="STATE_628"
	#adjusted
	manpower = 3376577
	
	state_category = pastoral
	
	history=
	{
		owner = PHI
		buildings = {
			infrastructure = 3
			12118 = {
				naval_base = 1
			}
		}
		
		victory_points = {
			12118 1 
		}
		add_core_of = PHI
	}

	provinces={
		1261 1368 7385 7423 10186 10302 12112 12118 12153 
	}
}
