state=
{
	id=648
	name="STATE_648"
	state_category = tiny_island
	#adjusted
	manpower=40
	history=
	{
		owner = JAP
		add_core_of = JAP
		buildings = {
			infrastructure = 3
			air_base = 1
			13026 = {
				naval_base = 1
			}
		}

	}
	provinces=
	{
13026 	}
}
