
state={
	id=654
	name="STATE_654" # Gorno-Altaysk - Now Oyrotia, G-A didn't exist until 1948
	#adjusted
	manpower = 147017
	
	state_category = pastoral

	history={
		owner = SOV
		victory_points = {
			4800 1
		}
		buildings = {
			infrastructure = 1
		}
		add_core_of = SOV
	}

	provinces={
		4781 4800 10531 10713 12509 
	}
}
