state={
	id=656
	name="STATE_656"
	#adjusted
	manpower = 76616
	
	state_category = rural
	
	history={
		owner = GLF
		add_core_of = KUW
		add_core_of = GLF

		
		buildings = {
			infrastructure = 4
			8085 = {
				naval_base = 4
			}
		}

	}
	provinces={
		8085
	}
}
