
state={
	id=659
	name="STATE_659"
	#adjusted
	manpower = 853794

	state_category = pastoral

	history={
		owner = RAJ
		victory_points = {
			5074 1 
		}
		buildings = {
			infrastructure = 3
			air_base = 4
			5074 = {
				naval_base = 3
			}
		}
		add_core_of = YEM
		add_core_of = SYE
	}

	provinces={
		2029 4976 5074 12821 12894 13079 13421
	}
}
