state={
	id=667
	name="STATE_667"
	manpower=2873326
	state_category="town"
	resources={
		rubber=16
	}
	history={
		owner = INS
		add_core_of = INS
		buildings = {
			infrastructure = 3
			10175 = {
				naval_base = 1

			}
			12234 = {
				naval_base = 1

			}
		}
		victory_points = {
			4273 3
		}
		victory_points = {
			7293 1
		}
	}
	provinces={
		1298 4273 4301 7293 7321 10175 10191 10219 12151 12162 12219 12234 
	}
}
