state={
	id=686
	name="STATE_686"
	#adjusted
	manpower = 1478605
	
	state_category = rural

	history={
		owner = USA
		victory_points = {
			1440 1 
		}
		buildings = {
			infrastructure = 4
			industrial_complex = 1
			air_base = 4
			1440 = {
				naval_base = 3

			}
		}
	}

	provinces={
		1440 4155 
	}
}
