state={
	id=688
	name="STATE_688"
	#adjusted
	manpower = 9859
	
	state_category = pastoral
	
	resources={
		tungsten=4
		steel=2
	}

	history={
		owner = BOL
		victory_points = {
			4913 3	
		}
		victory_points = {
			4307 3	
		}
		victory_points = {
			1956 1	
		}
		victory_points = {
			7939 2
		}
		victory_points = {
			10917 2
		}
		victory_points = {
			1370 3
		}
		victory_points = {
			8203 1
		}
		buildings = {
			infrastructure = 2
			air_base = 1
			13244 = {
				bunker = 1
			}
			7939 = {
				bunker = 1
			}
			4913 = {
				bunker = 2
			}
			4307 = {
				bunker = 2
			}
			10917 = {
				bunker = 2
			}
		}
		add_claim_by = PAR
		add_claim_by = BOL
	}
	
	provinces={
		4226 5165 8203 13245 1956 4913 7939 10917 13244 13477 4307 1370
	}
}
