state={
	id=705
	name="STATE_705"
	#adjusted
	manpower=23679	
	state_category = tiny_island

	history={
		owner = POR
		buildings = {
			infrastructure = 2
			13015 ={
				naval_base = 1
			}
		}
	}

	provinces={
		13015 
	}
}
