state={
	id=708
	name="STATE_708"
	#adjusted
	manpower = 121343

	state_category = small_island

	history={
		owner = FRA
		buildings = {
			infrastructure = 3
			13072 = {
				naval_base = 1
			}
		}
	}

	provinces={
		13072 
	}
}
