state={
	id=725
	name="STATE_725"
	#adjusted
	manpower=5540
	state_category = tiny_island

	history={
		owner = AST
		buildings = {
			infrastructure = 3
			13038 = {
				naval_base = 1
			}
		}
		victory_points = {
			13038 1 
		}
	}
	
	provinces={
		13038 
	}
}
