state={
	id=728
	name="STATE_728"
	#adjusted
	manpower = 191540
	
	state_category = rural
	
	history={
		owner = VIN
		add_claim_by = CHI
		add_claim_by = PRC
		buildings = {
			infrastructure = 3
			11981 = {
				naval_base = 1
			}
		}
	}
	
	provinces={
		11981 
	}
}
