state={
	id=733
	name="STATE_733"
	#adjusted
	manpower=30251
	state_category = small_island
	
	history={
		owner = ENG
		victory_points = {
			12251 1
		}
		buildings = {
			infrastructure = 3
			12251 = {
				naval_base = 2

			}
		}

	}
	provinces={
		10321 12251 
	}
}
