state={
	id=747
	name="STATE_747"
	provinces={
		3422 3463 9562 
	}
	history= {
		owner = ENG
		buildings = {
			infrastructure = 5
			industrial_complex = 0
			anti_air_building = 1
			radar_station = 0
			air_base = 0

		}
		add_core_of = ENG
		add_core_of = EGL
	}
	state_category = town
	manpower=351522
	buildings_max_level_factor=1.000
}
