state={
	id=750
	name="STATE_750"
	provinces={
		13080
	}
	history={
		owner = USA
		buildings = {
			infrastructure = 1
			13080 = {
				naval_base = 1

			}
		}
		add_core_of = USA

	}
	manpower=10211
	state_category = tiny_island
	buildings_max_level_factor=1.000
}
