state={
	id=769
	name="STATE_769"
	provinces={
		3606 7869 7891 13390
	}
	history={
		owner = CAN
		buildings = {
			infrastructure = 1
		}
		victory_points = {
			13390 1
		}
		add_core_of = CAN

	}
	manpower=4350
	state_category = wasteland
	buildings_max_level_factor=1.000
}
