state={
	id=786
	name="STATE_786"
	history={
		owner = SOV
		buildings = {
			infrastructure = 1
			13204 = {
				naval_base = 1

			}

		}
		add_core_of = SOV

	}
	provinces={
		4744 5264 13063 13204 
	}
	manpower=8432
	state_category=wasteland
	buildings_max_level_factor=1.000
	impassable = yes
}
