state={
	id=796
	name="STATE_796"
	provinces={
		5013 5070 8065 8122 10762 10803 13659 13658
	}
	history={
		owner = FRA
		buildings = {
			infrastructure = 3

		}
		victory_points = {
			10803 4
		}
		victory_points = {
			8065 2
		}
		victory_points = {
			10762 1
		}

	}
	manpower=2059227
	state_category = town
	buildings_max_level_factor=1.000
}
