state={
	id=808
	name="STATE_808"
	provinces={
		1549 1578 1606 1634 6883 
	}

	history={
		owner = SYR
		buildings = {
			infrastructure = 3
		}
		add_core_of = SYR
		add_claim_by = KUR
	}
	manpower=91775
	state_category=pastoral
	buildings_max_level_factor=1.000
}
