state={
	id=838
	name="STATE_838"
	history = {
		owner = YUG
		add_core_of = YUG
		add_core_of = SLV
		victory_points = {
			9627 5 
		}
		buildings = {
			infrastructure = 6
			industrial_complex = 2
		}
		victory_points = {
			9627 10
		}
	}
	provinces={
		6650 9627
	}
	manpower=370000
	buildings_max_level_factor=1.000
	state_category = large_town
}
