state={
	id=845
	name="STATE_845"
	history = {
		buildings = {
		infrastructure = 3
		
		}
		owner = HUN
		add_core_of = HUN
	}
	provinces={
		6670 6700 11625
	}
	manpower= 500000
	buildings_max_level_factor=1.000
	state_category= rural
}
