
state={
	id=859
	name="STATE_859"
	#adjusted
	manpower = 410825
	state_category = town
	history={
		owner = URG
		buildings = {
			infrastructure = 4
			industrial_complex = 1
		}
		add_core_of = URG
		victory_points = {
			1626 6
		}
		victory_points = {
			12468 4
		}
		victory_points = {
			10502 3
		}
	}

	provinces={
		1613 1626 10502 12440 12468
	}
}
