
state={
	id=865
	name="STATE_865"
	state_category = pastoral
	resources={
		rubber=1
	}
	manpower = 118148
	history={
		owner = BRA
		buildings = {
			infrastructure = 0
		}
		add_core_of = BRA
	}

	provinces={
		13216 13218 13280
	}
}
