
state={
	id=891
	name="STATE_891"

	history={
		owner = YUG
		buildings = {
			infrastructure = 5
		}
		add_core_of = YUG
		add_core_of = CRO
		victory_points = {
			6647 2 
		}
	}

	provinces={
		3627 6647 13212 13332 
	}
	manpower=7000
	buildings_max_level_factor=1.000
	state_category=rural
}
