
state={
	id=924
	name="STATE_924"
	state_category = pastoral
	manpower = 37891
	resources={
		oil=5
	}
	history={
		owner = VEN
		buildings = {
			infrastructure = 2
		}
		add_core_of = VEN
	}

	provinces={
		1981 10767
	}
}
