
state={
	id=934
	name="STATE_934"
	manpower = 1096235
	state_category = large_town
	history={
		owner = COL
		buildings = {
			infrastructure = 4
			industrial_complex = 1
		}
		add_core_of = COL
		victory_points = {
			13240 15
		}
		victory_points = {
			12872 3
		}
		victory_points = {
			10864 2
		}
	}
	provinces={
		2023 10864 13240 12872
	}
}
