
state={
	id=943
	name="STATE_943"
	state_category = rural
	manpower = 521632
	history={
		owner = RAJ
		add_core_of = RAJ
		add_core_of = HND
		
		buildings = {
			infrastructure = 3
			1061 = {
				naval_base = 3
			}
		}
	}
	provinces={
		7020 1190 1061
	}
}
		##Cutch##