
state={
	id=951
	name="STATE_951"
	state_category = rural
	manpower = 4000000
	history={
		owner = ETH
		buildings = {
			infrastructure = 2
		}
		add_core_of = ETH
		victory_points = {
			2009 3
		}
		victory_points = {
			12856 1
		}
	}
	provinces={
		2009 7912 8019 10734 12856 13264 13296 13428 13427
	}
}
