
state={
	id=952
	name="STATE_952"
	state_category = pastoral
	manpower = 168000
	history={
		owner = ETH
		buildings = {
			infrastructure = 1
		}
		add_core_of = ETH
		victory_points = {
			12812 1
		}
	}
	provinces={
		12812 13291 13293
	}
}
