state={
	id=956
	name="STATE_956"
	manpower = 254930
	state_category = pastoral
	history={
		owner = VIN
		add_core_of = LAO
		add_core_of = VIN
		buildings = {
			infrastructure = 1
		}
		victory_points = {
			4539 1
		}
	}
	provinces={
		1362 1390 1520 4260 4539 10195 10238 10326 
	}
}
