state={
	id=969
	name="STATE_969"
	#adjusted
	manpower = 690686
	state_category = rural
	history={
		owner = SIA
		add_core_of = SIA
		buildings = {
			infrastructure = 2
		}
		victory_points = {
			7236 1
		}
	}
	provinces={
		1279 4297 7236 10156 12131 
	}
}
