state = {
	id=985
	name="STATE_985"
	manpower = 120132
	state_category = tiny_island
	history = {
		owner = INS
		add_core_of = INS
		buildings = {
			infrastructure = 1
		}
	}
	provinces={
		4211 7384 7396
	}
}