state={
	id=991
	name="STATE_991"
	#adjusted
	manpower = 197256
	state_category = pastoral
	history={
		owner = RAJ
		victory_points = {
			3999 1
		}
		add_core_of = BRM
		add_core_of = RAJ
		buildings = {
			infrastructure = 2
		}
	}
	provinces={
		4147 7122 10033 11966 3999 4454
	}
}
