﻿division_template = {
	name = "Royal Guard"

	regiments = {
		infantry = { x = 0 y = 0 }
		infantry = { x = 0 y = 1 }
		infantry = { x = 0 y = 2 }
		cavalry = { x = 1 y = 0 }
		cavalry = { x = 1 y = 1 }
		cavalry = { x = 1 y = 2 }
		cavalry = { x = 2 y = 0 }
		cavalry = { x = 2 y = 1 }
		cavalry = { x = 2 y = 2 }
	}
	priority = 2
}
division_template = {
	name = "Militia"				# Militia units (lowest experience, oldest equipment)

	regiments = {
		militia = { x = 0 y = 0 }
		militia = { x = 0 y = 1 }
		militia = { x = 0 y = 2 }
		cavalry = { x = 1 y = 0 }
		cavalry = { x = 1 y = 1 }
		cavalry = { x = 1 y = 2 }
	}
	priority = 0
}

units = {
	#Royal Afghani Army
	division = {
		name = "Royal Afghan Household Division"
		location = 10737
		division_template = "Royal Guard"
		start_experience_factor = 0.3
	}
	division = {
		name = "Farah Military District"
		location = 10737
		division_template = "Militia"
		start_equipment_factor = 0.3

	}
	division = {
		name = "Faizabad Militia"
		location = 4893
		division_template = "Militia"
		start_equipment_factor = 0.3

	}
	#Herat Army
	division = {
		name = "Herat Militia"
		location = 4893
		division_template = "Militia"
		start_equipment_factor = 0.3

	}
	division = {
		name = "Mazar-e Shar Militia"
		location = 10852
		division_template = "Militia"
		start_equipment_factor = 0.3

	}
	#Kandahar Army
	division = {
		name = "Kandahar Militia"
		location = 1948
		division_template = "Militia"
		start_equipment_factor = 0.3

	}	

}

### Starting Equipment ###
instant_effect = {
	add_equipment_production = {
		equipment = {
			type = infantry_equipment_1
			creator = "AFG"
		}
		requested_factories = 1
		progress = 0.28
		efficiency = 100
	}
}