﻿division_template = {
	name = "District Militia"	# For largest Military District Forces (3 brigade forces)
	# Note: all forces at reserve levels in 1936
	regiments = {
		militia = { x = 0 y = 0 }
		militia = { x = 0 y = 1 }
		militia = { x = 0 y = 2 }
		militia = { x = 1 y = 0 }
		militia = { x = 1 y = 1 }
		militia = { x = 1 y = 2 }
		militia = { x = 2 y = 0 }
		militia = { x = 2 y = 1 }
		militia = { x = 2 y = 2 }
	}
}

division_template = {
	name = "Infantry Division"
	regiments = {
		infantry = { x = 0 y = 0 }
		infantry = { x = 0 y = 1 }
		infantry = { x = 0 y = 2 }
		infantry = { x = 1 y = 0 }
		infantry = { x = 1 y = 1 }
		infantry = { x = 1 y = 2 }
		infantry = { x = 2 y = 0 }
		infantry = { x = 2 y = 1 }
		infantry = { x = 2 y = 2 }
	}
}
division_template = {
	name = "Cavalry Militia"  
	# Note: all forces at reserve levels in 1936
	regiments = {
		cavalry = { x = 0 y = 0 }
		cavalry = { x = 0 y = 1 }
		cavalry = { x = 0 y = 2 }
	}
}

division_template = {
	name = "Armored-Division"

	regiments = {
		light_armor = { x = 0 y = 0 }
		light_armor = { x = 0 y = 1 }
		cavalry = { x = 1 y = 0 }
		cavalry = { x = 1 y = 1 }
	}
}


units = {
	##### Royal Canadian Army #####
	## 1st Miltary District ##
	division= {	
		name = "1st District Militia"
		location = 722 # London ONT
		division_template = "District Militia"
		start_experience_factor = 0.2
		start_equipment_factor = 0.3

	}

	## 2nd Miltary District ##
	division= {	
		name = "2nd District Cavalry"
		location = 3775 # Toronto
		division_template = "Cavalry Militia" 
		start_experience_factor = 0.2
		start_equipment_factor = 0.3

	}

	## 3rd Miltary District ##
	division= {	
		name = "2nd District Militia"
		location = 3605 # Kingston ONT
		division_template = "District Militia"
		start_experience_factor = 0.2
		start_equipment_factor = 0.3

	}

	## 4th Miltary District ##
	division= {	
		name = "3rd District Militia"
		location = 4345 # Montreal
		division_template = "District Militia"
		start_experience_factor = 0.2
		start_equipment_factor = 0.3

	}

	## 5th Miltary District ##
	division= {	
		name = "4th District Militia"
		location = 12149 # Quebec City
		division_template = "District Militia"
		start_experience_factor = 0.2
		start_equipment_factor = 0.3

	}

	## 6th Miltary District ##
	division= {	
		name = "6th District Militia"
		location = 7361  # Halifax
		division_template = "District Militia"
		start_experience_factor = 0.2
		start_equipment_factor = 0.3

	}

	## 7th Miltary District ##
	division= {	
		name = "7th District Militia"
		location = 4285 # St Johns
		division_template = "District Militia"
		start_experience_factor = 0.2
		start_equipment_factor = 0.3

	}

	## 10th Miltary District ##
	division= {	
		name = "10th District Militia"
		location = 4872  # Winnepeg
		division_template = "District Militia"
		start_experience_factor = 0.2
		start_equipment_factor = 0.3

	}


	division= {	
		name = "13th District Cavalry"
		location = 3706  # Calgary ALB
		division_template = "Cavalry Militia" 
		start_experience_factor = 0.2
		start_equipment_factor = 0.3

	}
}
instant_effect = {
    add_equipment_production = {
        equipment = {
            type = infantry_equipment_1
            creator = "CAN"
        }
        requested_factories = 3
        progress = 0.10
        efficiency = 100
    }
	add_equipment_production = {
        equipment = {
            type = artillery_equipment_1
            creator = "CAN"
        }
        requested_factories = 2
        progress = 0.10
        efficiency = 100
    }
}