﻿division_template = {
	name = "Brigada de Infanteria"

	regiments = {
		infantry = { x = 0 y = 0 }
		infantry = { x = 0 y = 1 }
		infantry = { x = 1 y = 0 }
		infantry = { x = 1 y = 1 }
	}
}
division_template = {
	name = "Brigada de Caballería"  

	regiments = {
		cavalry = { x = 0 y = 0 }
		cavalry = { x = 0 y = 1 }
		cavalry = { x = 1 y = 0 }
		cavalry = { x = 1 y = 1 }
	}
}

units = {
	##### Ejército de Cuba #####
	division= {	
		name = "1a Brigada de Ejercito"
		location = 7622 # Havana
		division_template = "Brigada de Infanteria"
		start_experience_factor = 0.1
		start_equipment_factor = 0.3

	}
	division= {	
		name = "1a Brig. de Caballería 'Floridita'"
		location = 7622 # Havana
		division_template = "Brigada de Caballería" 
		start_experience_factor = 0.1
		start_equipment_factor = 0.3

	}

	##### No Notable Naval Forces #####
}